Pathway,bp:pathwayComponent,bp:pathwayComponent,bp:pathwayOrder,bp:xref,type,bp:displayName
GC-Pathway-00301,GC-BiochemicalReaction-00301,GC-Catalysis-00301,GC-BiochemicalPathwayStep-00301,GC-PublicationXref-301,Pathway,E.coli O1A
GC-Pathway-00301,GC-BiochemicalReaction-00302,GC-Catalysis-00302,GC-BiochemicalPathwayStep-00302,,,
GC-Pathway-00301,GC-BiochemicalReaction-00303,GC-Catalysis-00303,GC-BiochemicalPathwayStep-00303,,,
GC-Pathway-00301,GC-BiochemicalReaction-00304,GC-Catalysis-00304,GC-BiochemicalPathwayStep-00304,,,
GC-Pathway-00302,GC-BiochemicalReaction-00305,GC-Catalysis-00305,GC-BiochemicalPathwayStep-00305,GC-PublicationXref-302,Pathway,E.coli O1A1
GC-Pathway-00302,GC-BiochemicalReaction-00306,GC-Catalysis-00306,GC-BiochemicalPathwayStep-00306,,,
GC-Pathway-00302,GC-BiochemicalReaction-00307,GC-Catalysis-00307,GC-BiochemicalPathwayStep-00307,,,
GC-Pathway-00302,GC-BiochemicalReaction-00308,GC-Catalysis-00308,GC-BiochemicalPathwayStep-00308,,,
GC-Pathway-00303,GC-BiochemicalReaction-00309,GC-Catalysis-00309,GC-BiochemicalPathwayStep-00309,GC-PublicationXref-303,Pathway,E.coli O1B
GC-Pathway-00303,GC-BiochemicalReaction-00310,GC-Catalysis-00310,GC-BiochemicalPathwayStep-00310,,,
GC-Pathway-00303,GC-BiochemicalReaction-00311,GC-Catalysis-00311,GC-BiochemicalPathwayStep-00311,,,
GC-Pathway-00303,GC-BiochemicalReaction-00312,GC-Catalysis-00312,GC-BiochemicalPathwayStep-00312,,,
GC-Pathway-00304,GC-BiochemicalReaction-00313,GC-Catalysis-00313,GC-BiochemicalPathwayStep-00313,GC-PublicationXref-304,Pathway,E.coli O1C
GC-Pathway-00304,GC-BiochemicalReaction-00314,GC-Catalysis-00314,GC-BiochemicalPathwayStep-00314,,,
GC-Pathway-00304,GC-BiochemicalReaction-00315,GC-Catalysis-00315,GC-BiochemicalPathwayStep-00315,,,
GC-Pathway-00304,GC-BiochemicalReaction-00316,GC-Catalysis-00316,GC-BiochemicalPathwayStep-00316,,,
GC-Pathway-00305,GC-BiochemicalReaction-00317,GC-Catalysis-00317,GC-BiochemicalPathwayStep-00317,GC-PublicationXref-305,Pathway,E.coli O2
GC-Pathway-00305,GC-BiochemicalReaction-00318,GC-Catalysis-00318,GC-BiochemicalPathwayStep-00318,GC-PublicationXref-306,,
GC-Pathway-00305,GC-BiochemicalReaction-00319,GC-Catalysis-00319,GC-BiochemicalPathwayStep-00319,,,
GC-Pathway-00305,GC-BiochemicalReaction-00320,GC-Catalysis-00320,GC-BiochemicalPathwayStep-00320,,,
GC-Pathway-00306,GC-BiochemicalReaction-00321,GC-Catalysis-00321,GC-BiochemicalPathwayStep-00321,GC-PublicationXref-307,Pathway,E.coli O3
GC-Pathway-00306,GC-BiochemicalReaction-00322,GC-Catalysis-00322,GC-BiochemicalPathwayStep-00322,GC-PublicationXref-308,,
GC-Pathway-00306,GC-BiochemicalReaction-00323,GC-Catalysis-00323,GC-BiochemicalPathwayStep-00323,,,
GC-Pathway-00306,GC-BiochemicalReaction-00324,GC-Catalysis-00324,GC-BiochemicalPathwayStep-00324,,,
GC-Pathway-00307,GC-BiochemicalReaction-00325,GC-Catalysis-00325,GC-BiochemicalPathwayStep-00325,GC-PublicationXref-309,Pathway,E.coli O4-K52
GC-Pathway-00307,GC-BiochemicalReaction-00326,GC-Catalysis-00326,GC-BiochemicalPathwayStep-00326,,,
GC-Pathway-00307,GC-BiochemicalReaction-00327,GC-Catalysis-00327,GC-BiochemicalPathwayStep-00327,,,
GC-Pathway-00308,GC-BiochemicalReaction-00328,GC-Catalysis-00328,GC-BiochemicalPathwayStep-00328,GC-PublicationXref-310,Pathway,E.coli O4-H5
GC-Pathway-00308,GC-BiochemicalReaction-00329,GC-Catalysis-00329,GC-BiochemicalPathwayStep-00329,GC-PublicationXref-311,,
GC-Pathway-00308,GC-BiochemicalReaction-00330,GC-Catalysis-00330,GC-BiochemicalPathwayStep-00330,GC-PublicationXref-312,,
GC-Pathway-00308,GC-BiochemicalReaction-00331,GC-Catalysis-00331,GC-BiochemicalPathwayStep-00331,,,
GC-Pathway-00309,GC-BiochemicalReaction-00332,GC-Catalysis-00332,GC-BiochemicalPathwayStep-00332,GC-PublicationXref-313,Pathway,E.coli O5ab
GC-Pathway-00309,GC-BiochemicalReaction-00333,GC-Catalysis-00333,GC-BiochemicalPathwayStep-00333,GC-PublicationXref-314,,
GC-Pathway-00309,GC-BiochemicalReaction-00334,GC-Catalysis-00334,GC-BiochemicalPathwayStep-00334,GC-PublicationXref-315,,
GC-Pathway-00310,GC-BiochemicalReaction-00335,GC-Catalysis-00335,GC-BiochemicalPathwayStep-00335,GC-PublicationXref-316,Pathway,E.coli O5ac
GC-Pathway-00310,GC-BiochemicalReaction-00336,GC-Catalysis-00336,GC-BiochemicalPathwayStep-00336,GC-PublicationXref-317,,
GC-Pathway-00310,GC-BiochemicalReaction-00337,GC-Catalysis-00337,GC-BiochemicalPathwayStep-00337,GC-PublicationXref-318,,
GC-Pathway-00311,GC-BiochemicalReaction-00338,GC-Catalysis-00338,GC-BiochemicalPathwayStep-00338,GC-PublicationXref-319,Pathway,E.coli O6H16K15
GC-Pathway-00311,GC-BiochemicalReaction-00339,GC-Catalysis-00339,GC-BiochemicalPathwayStep-00339,,,
GC-Pathway-00311,GC-BiochemicalReaction-00340,GC-Catalysis-00340,GC-BiochemicalPathwayStep-00340,,,
GC-Pathway-00311,GC-BiochemicalReaction-00341,GC-Catalysis-00341,GC-BiochemicalPathwayStep-00341,,,
GC-Pathway-00312,GC-BiochemicalReaction-00342,GC-Catalysis-00342,GC-BiochemicalPathwayStep-00342,GC-PublicationXref-320,Pathway,E.coli O6H10K54
GC-Pathway-00312,GC-BiochemicalReaction-00343,GC-Catalysis-00343,GC-BiochemicalPathwayStep-00343,,,
GC-Pathway-00312,GC-BiochemicalReaction-00344,GC-Catalysis-00344,GC-BiochemicalPathwayStep-00344,,,
GC-Pathway-00312,GC-BiochemicalReaction-00345,GC-Catalysis-00345,GC-BiochemicalPathwayStep-00345,,,
GC-Pathway-00313,GC-BiochemicalReaction-00346,GC-Catalysis-00346,GC-BiochemicalPathwayStep-00346,GC-PublicationXref-321,Pathway,E.coli O6H1K2
GC-Pathway-00313,GC-BiochemicalReaction-00347,GC-Catalysis-00347,GC-BiochemicalPathwayStep-00347,GC-PublicationXref-322,,
GC-Pathway-00313,GC-BiochemicalReaction-00348,GC-Catalysis-00348,GC-BiochemicalPathwayStep-00348,GC-PublicationXref-323,,
GC-Pathway-00313,GC-BiochemicalReaction-00349,GC-Catalysis-00349,GC-BiochemicalPathwayStep-00349,,,
GC-Pathway-00314,GC-BiochemicalReaction-00350,GC-Catalysis-00350,GC-BiochemicalPathwayStep-00350,GC-PublicationXref-324,Pathway,E.coli O7
GC-Pathway-00314,GC-BiochemicalReaction-00351,GC-Catalysis-00351,GC-BiochemicalPathwayStep-00351,GC-PublicationXref-325,,
GC-Pathway-00314,GC-BiochemicalReaction-00352,GC-Catalysis-00352,GC-BiochemicalPathwayStep-00352,GC-PublicationXref-326,,
GC-Pathway-00314,GC-BiochemicalReaction-00353,GC-Catalysis-00353,GC-BiochemicalPathwayStep-00353,GC-PublicationXref-327,,
GC-Pathway-00315,GC-BiochemicalReaction-00354,GC-Catalysis-00354,GC-BiochemicalPathwayStep-00354,GC-PublicationXref-328,Pathway,E.coli O8
GC-Pathway-00315,GC-BiochemicalReaction-00355,GC-Catalysis-00355,GC-BiochemicalPathwayStep-00355,GC-PublicationXref-329,,
GC-Pathway-00315,,,,GC-PublicationXref-330,,
GC-Pathway-00315,,,,GC-PublicationXref-331,,
GC-Pathway-00316,GC-BiochemicalReaction-00356,GC-Catalysis-00356,GC-BiochemicalPathwayStep-00356,GC-PublicationXref-332,Pathway,E.coli O9
GC-Pathway-00316,GC-BiochemicalReaction-00357,GC-Catalysis-00357,GC-BiochemicalPathwayStep-00357,GC-PublicationXref-333,,
GC-Pathway-00316,GC-BiochemicalReaction-00358,GC-Catalysis-00358,GC-BiochemicalPathwayStep-00358,GC-PublicationXref-334,,
GC-Pathway-00316,GC-BiochemicalReaction-00359,GC-Catalysis-00359,GC-BiochemicalPathwayStep-00359,GC-PublicationXref-335,,
GC-Pathway-00316,,,,GC-PublicationXref-336,,
GC-Pathway-00317,GC-BiochemicalReaction-00360,GC-Catalysis-00360,GC-BiochemicalPathwayStep-00360,GC-PublicationXref-337,Pathway,E.coli O9a
GC-Pathway-00317,GC-BiochemicalReaction-00361,GC-Catalysis-00361,GC-BiochemicalPathwayStep-00361,GC-PublicationXref-338,,
GC-Pathway-00317,GC-BiochemicalReaction-00362,GC-Catalysis-00362,GC-BiochemicalPathwayStep-00362,,,
GC-Pathway-00318,GC-BiochemicalReaction-00363,GC-Catalysis-00363,GC-BiochemicalPathwayStep-00363,GC-PublicationXref-339,Pathway,E.coli O10
GC-Pathway-00318,GC-BiochemicalReaction-00364,GC-Catalysis-00364,GC-BiochemicalPathwayStep-00364,,,
GC-Pathway-00318,GC-BiochemicalReaction-00365,GC-Catalysis-00365,GC-BiochemicalPathwayStep-00365,,,
GC-Pathway-00318,GC-BiochemicalReaction-00366,GC-Catalysis-00366,GC-BiochemicalPathwayStep-00366,,,
GC-Pathway-00319,GC-BiochemicalReaction-00367,GC-Catalysis-00367,GC-BiochemicalPathwayStep-00367,GC-PublicationXref-340,Pathway,E.coli O11
GC-Pathway-00319,GC-BiochemicalReaction-00368,GC-Catalysis-00368,GC-BiochemicalPathwayStep-00368,,,
GC-Pathway-00319,GC-BiochemicalReaction-00369,GC-Catalysis-00369,GC-BiochemicalPathwayStep-00369,,,
GC-Pathway-00319,GC-BiochemicalReaction-00370,GC-Catalysis-00370,GC-BiochemicalPathwayStep-00370,,,
GC-Pathway-00320,GC-BiochemicalReaction-00371,GC-Catalysis-00371,GC-BiochemicalPathwayStep-00371,GC-PublicationXref-341,Pathway,E.coli O12
GC-Pathway-00320,GC-BiochemicalReaction-00372,GC-Catalysis-00372,GC-BiochemicalPathwayStep-00372,GC-PublicationXref-342,,
GC-Pathway-00320,GC-BiochemicalReaction-00373,GC-Catalysis-00373,GC-BiochemicalPathwayStep-00373,,,
GC-Pathway-00321,GC-BiochemicalReaction-00374,GC-Catalysis-00374,GC-BiochemicalPathwayStep-00374,GC-PublicationXref-343,Pathway,E.coli O13
GC-Pathway-00321,GC-BiochemicalReaction-00375,GC-Catalysis-00375,GC-BiochemicalPathwayStep-00375,GC-PublicationXref-344,,
GC-Pathway-00321,GC-BiochemicalReaction-00376,GC-Catalysis-00376,GC-BiochemicalPathwayStep-00376,,,
GC-Pathway-00321,GC-BiochemicalReaction-00377,GC-Catalysis-00377,GC-BiochemicalPathwayStep-00377,,,
GC-Pathway-00322,GC-BiochemicalReaction-00378,GC-Catalysis-00378,GC-BiochemicalPathwayStep-00378,GC-PublicationXref-345,Pathway,E.coli O15
GC-Pathway-00322,GC-BiochemicalReaction-00379,GC-Catalysis-00379,GC-BiochemicalPathwayStep-00379,GC-PublicationXref-346,,
GC-Pathway-00322,GC-BiochemicalReaction-00380,GC-Catalysis-00380,GC-BiochemicalPathwayStep-00380,GC-PublicationXref-347,Pathway,E.coli O16H48K12
GC-Pathway-00323,GC-BiochemicalReaction-00381,GC-Catalysis-00381,GC-BiochemicalPathwayStep-00381,GC-PublicationXref-348,,
GC-Pathway-00323,GC-BiochemicalReaction-00382,GC-Catalysis-00382,GC-BiochemicalPathwayStep-00382,,,
GC-Pathway-00323,GC-BiochemicalReaction-00383,GC-Catalysis-00383,GC-BiochemicalPathwayStep-00383,,,
GC-Pathway-00324,GC-BiochemicalReaction-00384,GC-Catalysis-00384,GC-BiochemicalPathwayStep-00384,GC-PublicationXref-349,Pathway,E.coli O16
GC-Pathway-00324,GC-BiochemicalReaction-00385,GC-Catalysis-00385,GC-BiochemicalPathwayStep-00385,,,
GC-Pathway-00324,GC-BiochemicalReaction-00386,GC-Catalysis-00386,GC-BiochemicalPathwayStep-00386,,,
GC-Pathway-00325,GC-BiochemicalReaction-00387,GC-Catalysis-00387,GC-BiochemicalPathwayStep-00387,GC-PublicationXref-350,Pathway,E.coli O16K1
GC-Pathway-00325,GC-BiochemicalReaction-00388,GC-Catalysis-00388,GC-BiochemicalPathwayStep-00388,,,
GC-Pathway-00325,GC-BiochemicalReaction-00389,GC-Catalysis-00389,GC-BiochemicalPathwayStep-00389,,,
GC-Pathway-00326,GC-BiochemicalReaction-00390,GC-Catalysis-00390,GC-BiochemicalPathwayStep-00390,GC-PublicationXref-351,Pathway,E.coli O17
GC-Pathway-00326,GC-BiochemicalReaction-00391,GC-Catalysis-00391,GC-BiochemicalPathwayStep-00391,GC-PublicationXref-352,,
GC-Pathway-00326,GC-BiochemicalReaction-00392,GC-Catalysis-00392,GC-BiochemicalPathwayStep-00392,,,
GC-Pathway-00326,GC-BiochemicalReaction-00393,GC-Catalysis-00393,GC-BiochemicalPathwayStep-00393,,,
GC-Pathway-00327,GC-BiochemicalReaction-00394,GC-Catalysis-00394,GC-BiochemicalPathwayStep-00394,GC-PublicationXref-353,Pathway,E.coli O18A
GC-Pathway-00327,GC-BiochemicalReaction-00395,GC-Catalysis-00395,GC-BiochemicalPathwayStep-00395,,,
GC-Pathway-00327,GC-BiochemicalReaction-00396,GC-Catalysis-00396,GC-BiochemicalPathwayStep-00396,,,
GC-Pathway-00327,GC-BiochemicalReaction-00397,GC-Catalysis-00397,GC-BiochemicalPathwayStep-00397,,,
GC-Pathway-00328,GC-BiochemicalReaction-00398,GC-Catalysis-00398,GC-BiochemicalPathwayStep-00398,GC-PublicationXref-354,Pathway,E.coli O18A1
GC-Pathway-00328,GC-BiochemicalReaction-00399,GC-Catalysis-00399,GC-BiochemicalPathwayStep-00399,,,
GC-Pathway-00328,GC-BiochemicalReaction-00400,GC-Catalysis-00400,GC-BiochemicalPathwayStep-00400,,,
GC-Pathway-00328,GC-BiochemicalReaction-00401,GC-Catalysis-00401,GC-BiochemicalPathwayStep-00401,,,
GC-Pathway-00328,GC-BiochemicalReaction-00402,GC-Catalysis-00402,GC-BiochemicalPathwayStep-00402,,,
GC-Pathway-00329,GC-BiochemicalReaction-00403,GC-Catalysis-00403,GC-BiochemicalPathwayStep-00403,GC-PublicationXref-355,Pathway,E.coli O18A1A2
GC-Pathway-00329,GC-BiochemicalReaction-00404,GC-Catalysis-00404,GC-BiochemicalPathwayStep-00404,,,
GC-Pathway-00329,GC-BiochemicalReaction-00405,GC-Catalysis-00405,GC-BiochemicalPathwayStep-00405,,,
GC-Pathway-00329,GC-BiochemicalReaction-00406,GC-Catalysis-00406,GC-BiochemicalPathwayStep-00406,,,
GC-Pathway-00329,GC-BiochemicalReaction-00407,GC-Catalysis-00407,GC-BiochemicalPathwayStep-00407,,,
GC-Pathway-00330,GC-BiochemicalReaction-00408,GC-Catalysis-00408,GC-BiochemicalPathwayStep-00408,GC-PublicationXref-356,Pathway,E.coli O18ab
GC-Pathway-00330,GC-BiochemicalReaction-00409,GC-Catalysis-00409,GC-BiochemicalPathwayStep-00409,,,
GC-Pathway-00330,GC-BiochemicalReaction-00410,GC-Catalysis-00410,GC-BiochemicalPathwayStep-00410,,,
GC-Pathway-00330,GC-BiochemicalReaction-00411,GC-Catalysis-00411,GC-BiochemicalPathwayStep-00411,,,
GC-Pathway-00331,GC-BiochemicalReaction-00412,GC-Catalysis-00412,GC-BiochemicalPathwayStep-00412,GC-PublicationXref-357,Pathway,E.coli O18ac
GC-Pathway-00331,GC-BiochemicalReaction-00413,GC-Catalysis-00413,GC-BiochemicalPathwayStep-00413,GC-PublicationXref-358,,
GC-Pathway-00331,GC-BiochemicalReaction-00414,GC-Catalysis-00414,GC-BiochemicalPathwayStep-00414,,,
GC-Pathway-00331,GC-BiochemicalReaction-00415,GC-Catalysis-00415,GC-BiochemicalPathwayStep-00415,,,
GC-Pathway-00332,GC-BiochemicalReaction-00416,GC-Catalysis-00416,GC-BiochemicalPathwayStep-00416,GC-PublicationXref-359,Pathway,E.coli O18B
GC-Pathway-00332,GC-BiochemicalReaction-00417,GC-Catalysis-00417,GC-BiochemicalPathwayStep-00417,,,
GC-Pathway-00332,GC-BiochemicalReaction-00418,GC-Catalysis-00418,GC-BiochemicalPathwayStep-00418,,,
GC-Pathway-00332,GC-BiochemicalReaction-00419,GC-Catalysis-00419,GC-BiochemicalPathwayStep-00419,,,
GC-Pathway-00333,GC-BiochemicalReaction-00420,GC-Catalysis-00420,GC-BiochemicalPathwayStep-00420,GC-PublicationXref-360,Pathway,E.coli O18B1
GC-Pathway-00333,GC-BiochemicalReaction-00421,GC-Catalysis-00421,GC-BiochemicalPathwayStep-00421,,,
GC-Pathway-00333,GC-BiochemicalReaction-00422,GC-Catalysis-00422,GC-BiochemicalPathwayStep-00422,,,
GC-Pathway-00333,GC-BiochemicalReaction-00423,GC-Catalysis-00423,GC-BiochemicalPathwayStep-00423,,,
GC-Pathway-00333,GC-BiochemicalReaction-00424,GC-Catalysis-00424,GC-BiochemicalPathwayStep-00424,,,
GC-Pathway-00334,GC-BiochemicalReaction-00425,GC-Catalysis-00425,GC-BiochemicalPathwayStep-00425,GC-PublicationXref-361,Pathway,E.coli O19ab
GC-Pathway-00334,GC-BiochemicalReaction-00426,GC-Catalysis-00426,GC-BiochemicalPathwayStep-00426,GC-PublicationXref-362,,
GC-Pathway-00334,GC-BiochemicalReaction-00427,GC-Catalysis-00427,GC-BiochemicalPathwayStep-00427,,,
GC-Pathway-00334,GC-BiochemicalReaction-00428,GC-Catalysis-00428,GC-BiochemicalPathwayStep-00428,,,
GC-Pathway-00335,GC-BiochemicalReaction-00429,GC-Catalysis-00429,GC-BiochemicalPathwayStep-00429,,Pathway,E.coli O20ab
GC-Pathway-00336,GC-BiochemicalReaction-00430,GC-Catalysis-00430,GC-BiochemicalPathwayStep-00430,,Pathway,E.coli O20ac
GC-Pathway-00336,GC-BiochemicalReaction-00431,GC-Catalysis-00431,GC-BiochemicalPathwayStep-00431,,,
GC-Pathway-00337,GC-BiochemicalReaction-00432,GC-Catalysis-00432,GC-BiochemicalPathwayStep-00432,GC-PublicationXref-363,Pathway,E.coli O21
GC-Pathway-00337,GC-BiochemicalReaction-00433,GC-Catalysis-00433,GC-BiochemicalPathwayStep-00433,GC-PublicationXref-364,,
GC-Pathway-00337,GC-BiochemicalReaction-00434,GC-Catalysis-00434,GC-BiochemicalPathwayStep-00434,,,
GC-Pathway-00337,GC-BiochemicalReaction-00435,GC-Catalysis-00435,GC-BiochemicalPathwayStep-00435,,,
GC-Pathway-00338,GC-BiochemicalReaction-00436,GC-Catalysis-00436,GC-BiochemicalPathwayStep-00436,GC-PublicationXref-365,Pathway,E.coli O22
GC-Pathway-00338,GC-BiochemicalReaction-00437,GC-Catalysis-00437,GC-BiochemicalPathwayStep-00437,,,
GC-Pathway-00338,GC-BiochemicalReaction-00438,GC-Catalysis-00438,GC-BiochemicalPathwayStep-00438,,,
GC-Pathway-00338,GC-BiochemicalReaction-00439,GC-Catalysis-00439,GC-BiochemicalPathwayStep-00439,,,
GC-Pathway-00339,GC-BiochemicalReaction-00440,GC-Catalysis-00440,GC-BiochemicalPathwayStep-00440,GC-PublicationXref-366,Pathway,E.coli O23A
GC-Pathway-00339,GC-BiochemicalReaction-00441,GC-Catalysis-00441,GC-BiochemicalPathwayStep-00441,,,
GC-Pathway-00339,GC-BiochemicalReaction-00442,GC-Catalysis-00442,GC-BiochemicalPathwayStep-00442,,,
GC-Pathway-00339,GC-BiochemicalReaction-00443,GC-Catalysis-00443,GC-BiochemicalPathwayStep-00443,,,
GC-Pathway-00339,GC-BiochemicalReaction-00444,GC-Catalysis-00444,GC-BiochemicalPathwayStep-00444,,,
GC-Pathway-00340,GC-BiochemicalReaction-00445,GC-Catalysis-00445,GC-BiochemicalPathwayStep-00445,GC-PublicationXref-367,Pathway,E.coli O24
GC-Pathway-00340,GC-BiochemicalReaction-00446,GC-Catalysis-00446,GC-BiochemicalPathwayStep-00446,GC-PublicationXref-368,,
GC-Pathway-00340,GC-BiochemicalReaction-00447,GC-Catalysis-00447,GC-BiochemicalPathwayStep-00447,GC-PublicationXref-369,,
GC-Pathway-00340,,,,GC-PublicationXref-370,,
GC-Pathway-00341,GC-BiochemicalReaction-00448,GC-Catalysis-00448,GC-BiochemicalPathwayStep-00448,GC-PublicationXref-371,Pathway,E.coli O25
GC-Pathway-00341,GC-BiochemicalReaction-00449,GC-Catalysis-00449,GC-BiochemicalPathwayStep-00449,GC-PublicationXref-372,,
GC-Pathway-00341,GC-BiochemicalReaction-00450,GC-Catalysis-00450,GC-BiochemicalPathwayStep-00450,,,
GC-Pathway-00341,GC-BiochemicalReaction-00451,GC-Catalysis-00451,GC-BiochemicalPathwayStep-00451,,,
GC-Pathway-00342,GC-BiochemicalReaction-00452,GC-Catalysis-00452,GC-BiochemicalPathwayStep-00452,GC-PublicationXref-373,Pathway,E.coli O26
GC-Pathway-00342,GC-BiochemicalReaction-00453,GC-Catalysis-00453,GC-BiochemicalPathwayStep-00453,GC-PublicationXref-374,,
GC-Pathway-00343,GC-BiochemicalReaction-00454,GC-Catalysis-00454,GC-BiochemicalPathwayStep-00454,GC-PublicationXref-375,Pathway,E.coli O27
GC-Pathway-00343,GC-BiochemicalReaction-00455,GC-Catalysis-00455,GC-BiochemicalPathwayStep-00455,,,
GC-Pathway-00343,GC-BiochemicalReaction-00456,GC-Catalysis-00456,GC-BiochemicalPathwayStep-00456,,,
GC-Pathway-00343,GC-BiochemicalReaction-00457,GC-Catalysis-00457,GC-BiochemicalPathwayStep-00457,,,
GC-Pathway-00343,GC-BiochemicalReaction-00458,GC-Catalysis-00458,GC-BiochemicalPathwayStep-00458,,,
GC-Pathway-00344,GC-BiochemicalReaction-00459,GC-Catalysis-00459,GC-BiochemicalPathwayStep-00459,GC-PublicationXref-376,Pathway,E.coli O28ab
GC-Pathway-00344,GC-BiochemicalReaction-00460,GC-Catalysis-00460,GC-BiochemicalPathwayStep-00460,GC-PublicationXref-377,,
GC-Pathway-00344,GC-BiochemicalReaction-00461,GC-Catalysis-00461,GC-BiochemicalPathwayStep-00461,,,
GC-Pathway-00345,GC-BiochemicalReaction-00462,GC-Catalysis-00462,GC-BiochemicalPathwayStep-00462,GC-PublicationXref-378,Pathway,E.coli O28ac
GC-Pathway-00345,GC-BiochemicalReaction-00463,GC-Catalysis-00463,GC-BiochemicalPathwayStep-00463,,,
GC-Pathway-00345,GC-BiochemicalReaction-00464,GC-Catalysis-00464,GC-BiochemicalPathwayStep-00464,,,
GC-Pathway-00346,GC-BiochemicalReaction-00465,GC-Catalysis-00465,GC-BiochemicalPathwayStep-00465,GC-PublicationXref-379,Pathway,E.coli O29
GC-Pathway-00346,GC-BiochemicalReaction-00466,GC-Catalysis-00466,GC-BiochemicalPathwayStep-00466,GC-PublicationXref-380,,
GC-Pathway-00346,GC-BiochemicalReaction-00467,GC-Catalysis-00467,GC-BiochemicalPathwayStep-00467,,,
GC-Pathway-00346,GC-BiochemicalReaction-00468,GC-Catalysis-00468,GC-BiochemicalPathwayStep-00468,,,
GC-Pathway-00346,GC-BiochemicalReaction-00469,GC-Catalysis-00469,GC-BiochemicalPathwayStep-00469,,,
GC-Pathway-00347,GC-BiochemicalReaction-00470,GC-Catalysis-00470,GC-BiochemicalPathwayStep-00470,GC-PublicationXref-381,Pathway,E.coli O30
GC-Pathway-00347,GC-BiochemicalReaction-00471,GC-Catalysis-00471,GC-BiochemicalPathwayStep-00471,,,
GC-Pathway-00347,GC-BiochemicalReaction-00472,GC-Catalysis-00472,GC-BiochemicalPathwayStep-00472,,,
GC-Pathway-00348,GC-BiochemicalReaction-00473,GC-Catalysis-00473,GC-BiochemicalPathwayStep-00473,GC-PublicationXref-382,Pathway,E.coli O32
GC-Pathway-00348,GC-BiochemicalReaction-00474,GC-Catalysis-00474,GC-BiochemicalPathwayStep-00474,GC-PublicationXref-383,,
GC-Pathway-00348,GC-BiochemicalReaction-00475,GC-Catalysis-00475,GC-BiochemicalPathwayStep-00475,,,
GC-Pathway-00348,GC-BiochemicalReaction-00476,GC-Catalysis-00476,GC-BiochemicalPathwayStep-00476,,,
GC-Pathway-00349,GC-BiochemicalReaction-00477,GC-Catalysis-00477,GC-BiochemicalPathwayStep-00477,GC-PublicationXref-384,Pathway,E.coli O35
GC-Pathway-00349,GC-BiochemicalReaction-00478,GC-Catalysis-00478,GC-BiochemicalPathwayStep-00478,GC-PublicationXref-385,,
GC-Pathway-00349,GC-BiochemicalReaction-00479,GC-Catalysis-00479,GC-BiochemicalPathwayStep-00479,,,
GC-Pathway-00349,GC-BiochemicalReaction-00480,GC-Catalysis-00480,GC-BiochemicalPathwayStep-00480,,,
GC-Pathway-00349,GC-BiochemicalReaction-00481,GC-Catalysis-00481,GC-BiochemicalPathwayStep-00481,,,
GC-Pathway-00350,GC-BiochemicalReaction-00482,GC-Catalysis-00482,GC-BiochemicalPathwayStep-00482,GC-PublicationXref-386,Pathway,E.coli O36
GC-Pathway-00350,GC-BiochemicalReaction-00483,GC-Catalysis-00483,GC-BiochemicalPathwayStep-00483,,,
GC-Pathway-00350,GC-BiochemicalReaction-00484,GC-Catalysis-00484,GC-BiochemicalPathwayStep-00484,,,
GC-Pathway-00350,GC-BiochemicalReaction-00485,GC-Catalysis-00485,GC-BiochemicalPathwayStep-00485,,,
GC-Pathway-00351,GC-BiochemicalReaction-00486,GC-Catalysis-00486,GC-BiochemicalPathwayStep-00486,GC-PublicationXref-387,Pathway,E.coli O37
GC-Pathway-00351,GC-BiochemicalReaction-00487,GC-Catalysis-00487,GC-BiochemicalPathwayStep-00487,GC-PublicationXref-388,,
GC-Pathway-00351,GC-BiochemicalReaction-00488,GC-Catalysis-00488,GC-BiochemicalPathwayStep-00488,,,
GC-Pathway-00351,GC-BiochemicalReaction-00489,GC-Catalysis-00489,GC-BiochemicalPathwayStep-00489,,,
GC-Pathway-00352,GC-BiochemicalReaction-00490,GC-Catalysis-00490,GC-BiochemicalPathwayStep-00490,GC-PublicationXref-389,Pathway,E.coli O38
GC-Pathway-00352,GC-BiochemicalReaction-00491,GC-Catalysis-00491,GC-BiochemicalPathwayStep-00491,GC-PublicationXref-390,,
GC-Pathway-00352,GC-BiochemicalReaction-00492,GC-Catalysis-00492,GC-BiochemicalPathwayStep-00492,,,
GC-Pathway-00352,GC-BiochemicalReaction-00493,GC-Catalysis-00493,GC-BiochemicalPathwayStep-00493,,,
GC-Pathway-00353,GC-BiochemicalReaction-00494,GC-Catalysis-00494,GC-BiochemicalPathwayStep-00494,GC-PublicationXref-391,Pathway,E.coli O39
GC-Pathway-00353,GC-BiochemicalReaction-00495,GC-Catalysis-00495,GC-BiochemicalPathwayStep-00495,,,
GC-Pathway-00353,GC-BiochemicalReaction-00496,GC-Catalysis-00496,GC-BiochemicalPathwayStep-00496,,,
GC-Pathway-00353,GC-BiochemicalReaction-00497,GC-Catalysis-00497,GC-BiochemicalPathwayStep-00497,,,
GC-Pathway-00354,GC-BiochemicalReaction-00498,GC-Catalysis-00498,GC-BiochemicalPathwayStep-00498,GC-PublicationXref-392,Pathway,E.coli O40
GC-Pathway-00354,GC-BiochemicalReaction-00499,GC-Catalysis-00499,GC-BiochemicalPathwayStep-00499,GC-PublicationXref-393,,
GC-Pathway-00354,GC-BiochemicalReaction-00500,GC-Catalysis-00500,GC-BiochemicalPathwayStep-00500,,,
GC-Pathway-00355,GC-BiochemicalReaction-00501,GC-Catalysis-00501,GC-BiochemicalPathwayStep-00501,GC-PublicationXref-394,Pathway,E.coli O41
GC-Pathway-00355,GC-BiochemicalReaction-00502,GC-Catalysis-00502,GC-BiochemicalPathwayStep-00502,,,
GC-Pathway-00355,GC-BiochemicalReaction-00503,GC-Catalysis-00503,GC-BiochemicalPathwayStep-00503,,,
GC-Pathway-00355,GC-BiochemicalReaction-00504,GC-Catalysis-00504,GC-BiochemicalPathwayStep-00504,,,
GC-Pathway-00355,GC-BiochemicalReaction-00505,GC-Catalysis-00505,GC-BiochemicalPathwayStep-00505,,,
GC-Pathway-00356,GC-BiochemicalReaction-00506,GC-Catalysis-00506,GC-BiochemicalPathwayStep-00506,GC-PublicationXref-395,Pathway,E.coli O42
GC-Pathway-00356,GC-BiochemicalReaction-00507,GC-Catalysis-00507,GC-BiochemicalPathwayStep-00507,,,
GC-Pathway-00356,GC-BiochemicalReaction-00508,GC-Catalysis-00508,GC-BiochemicalPathwayStep-00508,,,
GC-Pathway-00356,GC-BiochemicalReaction-00509,GC-Catalysis-00509,GC-BiochemicalPathwayStep-00509,,,
GC-Pathway-00357,GC-BiochemicalReaction-00510,GC-Catalysis-00510,GC-BiochemicalPathwayStep-00510,GC-PublicationXref-396,Pathway,E.coli O43
GC-Pathway-00357,GC-BiochemicalReaction-00511,GC-Catalysis-00511,GC-BiochemicalPathwayStep-00511,GC-PublicationXref-397,,
GC-Pathway-00357,GC-BiochemicalReaction-00512,GC-Catalysis-00512,GC-BiochemicalPathwayStep-00512,,,
GC-Pathway-00357,GC-BiochemicalReaction-00513,GC-Catalysis-00513,GC-BiochemicalPathwayStep-00513,,,
GC-Pathway-00358,GC-BiochemicalReaction-00514,GC-Catalysis-00514,GC-BiochemicalPathwayStep-00514,GC-PublicationXref-398,Pathway,E.coli O44
GC-Pathway-00358,GC-BiochemicalReaction-00515,GC-Catalysis-00515,GC-BiochemicalPathwayStep-00515,GC-PublicationXref-399,,
GC-Pathway-00358,GC-BiochemicalReaction-00516,GC-Catalysis-00516,GC-BiochemicalPathwayStep-00516,,,
GC-Pathway-00358,GC-BiochemicalReaction-00517,GC-Catalysis-00517,GC-BiochemicalPathwayStep-00517,,,
GC-Pathway-00359,GC-BiochemicalReaction-00518,GC-Catalysis-00518,GC-BiochemicalPathwayStep-00518,GC-PublicationXref-400,Pathway,E.coli O45
GC-Pathway-00359,GC-BiochemicalReaction-00519,GC-Catalysis-00519,GC-BiochemicalPathwayStep-00519,GC-PublicationXref-401,,
GC-Pathway-00360,GC-BiochemicalReaction-00520,GC-Catalysis-00520,GC-BiochemicalPathwayStep-00520,GC-PublicationXref-402,Pathway,E.coli O45rel
GC-Pathway-00360,GC-BiochemicalReaction-00521,GC-Catalysis-00521,GC-BiochemicalPathwayStep-00521,,,
GC-Pathway-00361,GC-BiochemicalReaction-00522,GC-Catalysis-00522,GC-BiochemicalPathwayStep-00522,GC-PublicationXref-403,Pathway,E.coli O46
GC-Pathway-00361,GC-BiochemicalReaction-00523,GC-Catalysis-00523,GC-BiochemicalPathwayStep-00523,GC-PublicationXref-404,,
GC-Pathway-00361,GC-BiochemicalReaction-00524,GC-Catalysis-00524,GC-BiochemicalPathwayStep-00524,,,
GC-Pathway-00362,GC-BiochemicalReaction-00525,GC-Catalysis-00525,GC-BiochemicalPathwayStep-00525,GC-PublicationXref-405,Pathway,E.coli O48
GC-Pathway-00362,GC-BiochemicalReaction-00526,GC-Catalysis-00526,GC-BiochemicalPathwayStep-00526,,,
GC-Pathway-00362,GC-BiochemicalReaction-00527,GC-Catalysis-00527,GC-BiochemicalPathwayStep-00527,,,
GC-Pathway-00362,GC-BiochemicalReaction-00528,GC-Catalysis-00528,GC-BiochemicalPathwayStep-00528,,,
GC-Pathway-00363,GC-BiochemicalReaction-00529,GC-Catalysis-00529,GC-BiochemicalPathwayStep-00529,GC-PublicationXref-406,Pathway,E.coli O49
GC-Pathway-00363,GC-BiochemicalReaction-00530,GC-Catalysis-00530,GC-BiochemicalPathwayStep-00530,,,
GC-Pathway-00363,GC-BiochemicalReaction-00531,GC-Catalysis-00531,GC-BiochemicalPathwayStep-00531,,,
GC-Pathway-00364,GC-BiochemicalReaction-00532,GC-Catalysis-00532,GC-BiochemicalPathwayStep-00532,GC-PublicationXref-407,Pathway,E.coli O52
GC-Pathway-00365,GC-BiochemicalReaction-00533,GC-Catalysis-00533,GC-BiochemicalPathwayStep-00533,GC-PublicationXref-408,Pathway,E.coli O53
GC-Pathway-00365,GC-BiochemicalReaction-00534,GC-Catalysis-00534,GC-BiochemicalPathwayStep-00534,GC-PublicationXref-409,,
GC-Pathway-00365,GC-BiochemicalReaction-00535,GC-Catalysis-00535,GC-BiochemicalPathwayStep-00535,,,
GC-Pathway-00365,GC-BiochemicalReaction-00536,GC-Catalysis-00536,GC-BiochemicalPathwayStep-00536,,,
GC-Pathway-00366,GC-BiochemicalReaction-00537,GC-Catalysis-00537,GC-BiochemicalPathwayStep-00537,GC-PublicationXref-410,Pathway,E.coli O55
GC-Pathway-00366,GC-BiochemicalReaction-00538,GC-Catalysis-00538,GC-BiochemicalPathwayStep-00538,GC-PublicationXref-411,,
GC-Pathway-00366,GC-BiochemicalReaction-00539,GC-Catalysis-00539,GC-BiochemicalPathwayStep-00539,GC-PublicationXref-412,,
GC-Pathway-00366,GC-BiochemicalReaction-00540,GC-Catalysis-00540,GC-BiochemicalPathwayStep-00540,,,
GC-Pathway-00367,GC-BiochemicalReaction-00541,GC-Catalysis-00541,GC-BiochemicalPathwayStep-00541,GC-PublicationXref-413,Pathway,E.coli O56
GC-Pathway-00367,GC-BiochemicalReaction-00542,GC-Catalysis-00542,GC-BiochemicalPathwayStep-00542,GC-PublicationXref-414,,
GC-Pathway-00367,GC-BiochemicalReaction-00543,GC-Catalysis-00543,GC-BiochemicalPathwayStep-00543,GC-PublicationXref-415,,
GC-Pathway-00367,,,,GC-PublicationXref-416,,
GC-Pathway-00367,,,,GC-PublicationXref-417,,
GC-Pathway-00368,GC-BiochemicalReaction-00544,GC-Catalysis-00544,GC-BiochemicalPathwayStep-00544,GC-PublicationXref-418,Pathway,E.coli O58
GC-Pathway-00368,GC-BiochemicalReaction-00545,GC-Catalysis-00545,GC-BiochemicalPathwayStep-00545,GC-PublicationXref-419,,
GC-Pathway-00368,GC-BiochemicalReaction-00546,GC-Catalysis-00546,GC-BiochemicalPathwayStep-00546,GC-PublicationXref-420,,
GC-Pathway-00369,GC-BiochemicalReaction-00547,GC-Catalysis-00547,GC-BiochemicalPathwayStep-00547,GC-PublicationXref-421,Pathway,E.coli O59
GC-Pathway-00369,GC-BiochemicalReaction-00548,GC-Catalysis-00548,GC-BiochemicalPathwayStep-00548,GC-PublicationXref-422,,
GC-Pathway-00369,GC-BiochemicalReaction-00549,GC-Catalysis-00549,GC-BiochemicalPathwayStep-00549,,,
GC-Pathway-00369,GC-BiochemicalReaction-00550,GC-Catalysis-00550,GC-BiochemicalPathwayStep-00550,,,
GC-Pathway-00370,GC-BiochemicalReaction-00551,GC-Catalysis-00551,GC-BiochemicalPathwayStep-00551,GC-PublicationXref-423,Pathway,E.coli O61
GC-Pathway-00370,GC-BiochemicalReaction-00552,GC-Catalysis-00552,GC-BiochemicalPathwayStep-00552,,,
GC-Pathway-00371,GC-BiochemicalReaction-00553,GC-Catalysis-00553,GC-BiochemicalPathwayStep-00553,GC-PublicationXref-424,Pathway,E.coli O62
GC-Pathway-00371,GC-BiochemicalReaction-00554,GC-Catalysis-00554,GC-BiochemicalPathwayStep-00554,,,
GC-Pathway-00371,GC-BiochemicalReaction-00555,GC-Catalysis-00555,GC-BiochemicalPathwayStep-00555,,,
GC-Pathway-00371,GC-BiochemicalReaction-00556,GC-Catalysis-00556,GC-BiochemicalPathwayStep-00556,,,
GC-Pathway-00372,GC-BiochemicalReaction-00557,GC-Catalysis-00557,GC-BiochemicalPathwayStep-00557,GC-PublicationXref-425,Pathway,E.coli O64
GC-Pathway-00372,GC-BiochemicalReaction-00558,GC-Catalysis-00558,GC-BiochemicalPathwayStep-00558,,,
GC-Pathway-00372,GC-BiochemicalReaction-00559,GC-Catalysis-00559,GC-BiochemicalPathwayStep-00559,,,
GC-Pathway-00372,GC-BiochemicalReaction-00560,GC-Catalysis-00560,GC-BiochemicalPathwayStep-00560,,,
GC-Pathway-00373,GC-BiochemicalReaction-00561,GC-Catalysis-00561,GC-BiochemicalPathwayStep-00561,GC-PublicationXref-426,Pathway,E.coli O65
GC-Pathway-00373,GC-BiochemicalReaction-00562,GC-Catalysis-00562,GC-BiochemicalPathwayStep-00562,,,
GC-Pathway-00373,GC-BiochemicalReaction-00563,GC-Catalysis-00563,GC-BiochemicalPathwayStep-00563,,,
GC-Pathway-00373,GC-BiochemicalReaction-00564,GC-Catalysis-00564,GC-BiochemicalPathwayStep-00564,,,
GC-Pathway-00374,GC-BiochemicalReaction-00565,GC-Catalysis-00565,GC-BiochemicalPathwayStep-00565,GC-PublicationXref-427,Pathway,E.coli O66
GC-Pathway-00374,GC-BiochemicalReaction-00566,GC-Catalysis-00566,GC-BiochemicalPathwayStep-00566,GC-PublicationXref-428,,
GC-Pathway-00374,GC-BiochemicalReaction-00567,GC-Catalysis-00567,GC-BiochemicalPathwayStep-00567,,,
GC-Pathway-00374,GC-BiochemicalReaction-00568,GC-Catalysis-00568,GC-BiochemicalPathwayStep-00568,,,
GC-Pathway-00375,GC-BiochemicalReaction-00569,GC-Catalysis-00569,GC-BiochemicalPathwayStep-00569,GC-PublicationXref-429,Pathway,E.coli O68
GC-Pathway-00375,GC-BiochemicalReaction-00570,GC-Catalysis-00570,GC-BiochemicalPathwayStep-00570,,,
GC-Pathway-00375,GC-BiochemicalReaction-00571,GC-Catalysis-00571,GC-BiochemicalPathwayStep-00571,,,
GC-Pathway-00375,GC-BiochemicalReaction-00572,GC-Catalysis-00572,GC-BiochemicalPathwayStep-00572,,,
GC-Pathway-00375,GC-BiochemicalReaction-00573,GC-Catalysis-00573,GC-BiochemicalPathwayStep-00573,,,
GC-Pathway-00375,GC-BiochemicalReaction-00574,GC-Catalysis-00574,GC-BiochemicalPathwayStep-00574,,,
GC-Pathway-00376,GC-BiochemicalReaction-00575,GC-Catalysis-00575,GC-BiochemicalPathwayStep-00575,GC-PublicationXref-430,Pathway,E.coli O69
GC-Pathway-00376,GC-BiochemicalReaction-00576,GC-Catalysis-00576,GC-BiochemicalPathwayStep-00576,,,
GC-Pathway-00376,GC-BiochemicalReaction-00577,GC-Catalysis-00577,GC-BiochemicalPathwayStep-00577,,,
GC-Pathway-00376,GC-BiochemicalReaction-00578,GC-Catalysis-00578,GC-BiochemicalPathwayStep-00578,,,
GC-Pathway-00377,GC-BiochemicalReaction-00579,GC-Catalysis-00579,GC-BiochemicalPathwayStep-00579,GC-PublicationXref-431,Pathway,E.coli O70
GC-Pathway-00377,GC-BiochemicalReaction-00580,GC-Catalysis-00580,GC-BiochemicalPathwayStep-00580,,,
GC-Pathway-00377,GC-BiochemicalReaction-00581,GC-Catalysis-00581,GC-BiochemicalPathwayStep-00581,,,
GC-Pathway-00377,GC-BiochemicalReaction-00582,GC-Catalysis-00582,GC-BiochemicalPathwayStep-00582,,,
GC-Pathway-00378,GC-BiochemicalReaction-00583,GC-Catalysis-00583,GC-BiochemicalPathwayStep-00583,GC-PublicationXref-432,Pathway,E.coli O71
GC-Pathway-00378,GC-BiochemicalReaction-00584,GC-Catalysis-00584,GC-BiochemicalPathwayStep-00584,,,
GC-Pathway-00378,GC-BiochemicalReaction-00585,GC-Catalysis-00585,GC-BiochemicalPathwayStep-00585,,,
GC-Pathway-00379,GC-BiochemicalReaction-00586,GC-Catalysis-00586,GC-BiochemicalPathwayStep-00586,GC-PublicationXref-433,Pathway,E.coli O73
GC-Pathway-00379,GC-BiochemicalReaction-00587,GC-Catalysis-00587,GC-BiochemicalPathwayStep-00587,,,
GC-Pathway-00379,GC-BiochemicalReaction-00588,GC-Catalysis-00588,GC-BiochemicalPathwayStep-00588,,,
GC-Pathway-00379,GC-BiochemicalReaction-00589,GC-Catalysis-00589,GC-BiochemicalPathwayStep-00589,,,
GC-Pathway-00379,GC-BiochemicalReaction-00590,GC-Catalysis-00590,GC-BiochemicalPathwayStep-00590,,,
GC-Pathway-00380,GC-BiochemicalReaction-00591,GC-Catalysis-00591,GC-BiochemicalPathwayStep-00591,GC-PublicationXref-434,Pathway,E.coli O73ab
GC-Pathway-00380,GC-BiochemicalReaction-00592,GC-Catalysis-00592,GC-BiochemicalPathwayStep-00592,GC-PublicationXref-435,,
GC-Pathway-00380,GC-BiochemicalReaction-00593,GC-Catalysis-00593,GC-BiochemicalPathwayStep-00593,,,
GC-Pathway-00380,GC-BiochemicalReaction-00594,GC-Catalysis-00594,GC-BiochemicalPathwayStep-00594,,,
GC-Pathway-00381,GC-BiochemicalReaction-00595,GC-Catalysis-00595,GC-BiochemicalPathwayStep-00595,GC-PublicationXref-436,Pathway,E.coli O74
GC-Pathway-00381,GC-BiochemicalReaction-00596,GC-Catalysis-00596,GC-BiochemicalPathwayStep-00596,GC-PublicationXref-437,,
GC-Pathway-00381,GC-BiochemicalReaction-00597,GC-Catalysis-00597,GC-BiochemicalPathwayStep-00597,,,
GC-Pathway-00382,GC-BiochemicalReaction-00598,GC-Catalysis-00598,GC-BiochemicalPathwayStep-00598,GC-PublicationXref-438,Pathway,E.coli O75
GC-Pathway-00382,GC-BiochemicalReaction-00599,GC-Catalysis-00599,GC-BiochemicalPathwayStep-00599,GC-PublicationXref-439,,
GC-Pathway-00382,GC-BiochemicalReaction-00600,GC-Catalysis-00600,GC-BiochemicalPathwayStep-00600,,,
GC-Pathway-00383,GC-BiochemicalReaction-00601,GC-Catalysis-00601,GC-BiochemicalPathwayStep-00601,GC-PublicationXref-440,Pathway,E.coli O76
GC-Pathway-00383,GC-BiochemicalReaction-00602,GC-Catalysis-00602,GC-BiochemicalPathwayStep-00602,,,
GC-Pathway-00383,GC-BiochemicalReaction-00603,GC-Catalysis-00603,GC-BiochemicalPathwayStep-00603,,,
GC-Pathway-00384,GC-BiochemicalReaction-00604,GC-Catalysis-00604,GC-BiochemicalPathwayStep-00604,GC-PublicationXref-441,Pathway,E.coli O77
GC-Pathway-00384,GC-BiochemicalReaction-00605,GC-Catalysis-00605,GC-BiochemicalPathwayStep-00605,GC-PublicationXref-442,,
GC-Pathway-00384,GC-BiochemicalReaction-00606,GC-Catalysis-00606,GC-BiochemicalPathwayStep-00606,,,
GC-Pathway-00385,GC-BiochemicalReaction-00607,GC-Catalysis-00607,GC-BiochemicalPathwayStep-00607,GC-PublicationXref-443,Pathway,E.coli O78
GC-Pathway-00385,GC-BiochemicalReaction-00608,GC-Catalysis-00608,GC-BiochemicalPathwayStep-00608,GC-PublicationXref-444,,
GC-Pathway-00385,GC-BiochemicalReaction-00609,GC-Catalysis-00609,GC-BiochemicalPathwayStep-00609,,,
GC-Pathway-00386,GC-BiochemicalReaction-00610,GC-Catalysis-00610,GC-BiochemicalPathwayStep-00610,GC-PublicationXref-445,Pathway,E.coli O79
GC-Pathway-00386,GC-BiochemicalReaction-00611,GC-Catalysis-00611,GC-BiochemicalPathwayStep-00611,GC-PublicationXref-446,,
GC-Pathway-00386,GC-BiochemicalReaction-00612,GC-Catalysis-00612,GC-BiochemicalPathwayStep-00612,,,
GC-Pathway-00386,GC-BiochemicalReaction-00613,GC-Catalysis-00613,GC-BiochemicalPathwayStep-00613,,,
GC-Pathway-00386,GC-BiochemicalReaction-00614,GC-Catalysis-00614,GC-BiochemicalPathwayStep-00614,,,
GC-Pathway-00387,GC-BiochemicalReaction-00615,GC-Catalysis-00615,GC-BiochemicalPathwayStep-00615,GC-PublicationXref-447,Pathway,E.coli O82
GC-Pathway-00387,GC-BiochemicalReaction-00616,GC-Catalysis-00616,GC-BiochemicalPathwayStep-00616,,,
GC-Pathway-00387,GC-BiochemicalReaction-00617,GC-Catalysis-00617,GC-BiochemicalPathwayStep-00617,,,
GC-Pathway-00387,GC-BiochemicalReaction-00618,GC-Catalysis-00618,GC-BiochemicalPathwayStep-00618,,,
GC-Pathway-00388,GC-BiochemicalReaction-00619,GC-Catalysis-00619,GC-BiochemicalPathwayStep-00619,GC-PublicationXref-448,Pathway,E.coli O83
GC-Pathway-00388,GC-BiochemicalReaction-00620,GC-Catalysis-00620,GC-BiochemicalPathwayStep-00620,,,
GC-Pathway-00388,GC-BiochemicalReaction-00621,GC-Catalysis-00621,GC-BiochemicalPathwayStep-00621,,,
GC-Pathway-00388,GC-BiochemicalReaction-00622,GC-Catalysis-00622,GC-BiochemicalPathwayStep-00622,,,
GC-Pathway-00389,GC-BiochemicalReaction-00623,GC-Catalysis-00623,GC-BiochemicalPathwayStep-00623,GC-PublicationXref-449,Pathway,E.coli O85
GC-Pathway-00389,GC-BiochemicalReaction-00624,GC-Catalysis-00624,GC-BiochemicalPathwayStep-00624,,,
GC-Pathway-00389,GC-BiochemicalReaction-00625,GC-Catalysis-00625,GC-BiochemicalPathwayStep-00625,,,
GC-Pathway-00389,GC-BiochemicalReaction-00626,GC-Catalysis-00626,GC-BiochemicalPathwayStep-00626,,,
GC-Pathway-00390,GC-BiochemicalReaction-00627,GC-Catalysis-00627,GC-BiochemicalPathwayStep-00627,GC-PublicationXref-450,Pathway,E.coli O86H2K62
GC-Pathway-00390,GC-BiochemicalReaction-00628,GC-Catalysis-00628,GC-BiochemicalPathwayStep-00628,GC-PublicationXref-451,,
GC-Pathway-00390,GC-BiochemicalReaction-00629,GC-Catalysis-00629,GC-BiochemicalPathwayStep-00629,,,
GC-Pathway-00390,GC-BiochemicalReaction-00630,GC-Catalysis-00630,GC-BiochemicalPathwayStep-00630,,,
GC-Pathway-00391,GC-BiochemicalReaction-00631,GC-Catalysis-00631,GC-BiochemicalPathwayStep-00631,GC-PublicationXref-452,Pathway,E.coli O86
GC-Pathway-00391,GC-BiochemicalReaction-00632,GC-Catalysis-00632,GC-BiochemicalPathwayStep-00632,GC-PublicationXref-453,,
GC-Pathway-00391,GC-BiochemicalReaction-00633,GC-Catalysis-00633,GC-BiochemicalPathwayStep-00633,GC-PublicationXref-454,,
GC-Pathway-00391,GC-BiochemicalReaction-00634,GC-Catalysis-00634,GC-BiochemicalPathwayStep-00634,,,
GC-Pathway-00392,GC-BiochemicalReaction-00635,GC-Catalysis-00635,GC-BiochemicalPathwayStep-00635,GC-PublicationXref-455,Pathway,E.coli O86H2K2
GC-Pathway-00392,GC-BiochemicalReaction-00636,GC-Catalysis-00636,GC-BiochemicalPathwayStep-00636,GC-PublicationXref-456,,
GC-Pathway-00392,GC-BiochemicalReaction-00637,GC-Catalysis-00637,GC-BiochemicalPathwayStep-00637,,,
GC-Pathway-00392,GC-BiochemicalReaction-00638,GC-Catalysis-00638,GC-BiochemicalPathwayStep-00638,,,
GC-Pathway-00393,GC-BiochemicalReaction-00639,GC-Catalysis-00639,GC-BiochemicalPathwayStep-00639,GC-PublicationXref-457,Pathway,E.coli O87
GC-Pathway-00393,GC-BiochemicalReaction-00640,GC-Catalysis-00640,GC-BiochemicalPathwayStep-00640,,,
GC-Pathway-00393,GC-BiochemicalReaction-00641,GC-Catalysis-00641,GC-BiochemicalPathwayStep-00641,,,
GC-Pathway-00394,GC-BiochemicalReaction-00642,GC-Catalysis-00642,GC-BiochemicalPathwayStep-00642,GC-PublicationXref-458,Pathway,E.coli O88
GC-Pathway-00394,GC-BiochemicalReaction-00643,GC-Catalysis-00643,GC-BiochemicalPathwayStep-00643,,,
GC-Pathway-00394,GC-BiochemicalReaction-00644,GC-Catalysis-00644,GC-BiochemicalPathwayStep-00644,,,
GC-Pathway-00395,GC-BiochemicalReaction-00645,GC-Catalysis-00645,GC-BiochemicalPathwayStep-00645,GC-PublicationXref-459,Pathway,E.coli O90
GC-Pathway-00395,GC-BiochemicalReaction-00646,GC-Catalysis-00646,GC-BiochemicalPathwayStep-00646,,,
GC-Pathway-00395,GC-BiochemicalReaction-00647,GC-Catalysis-00647,GC-BiochemicalPathwayStep-00647,,,
GC-Pathway-00396,GC-BiochemicalReaction-00648,GC-Catalysis-00648,GC-BiochemicalPathwayStep-00648,GC-PublicationXref-460,Pathway,E.coli O91
GC-Pathway-00396,GC-BiochemicalReaction-00649,GC-Catalysis-00649,GC-BiochemicalPathwayStep-00649,GC-PublicationXref-461,,
GC-Pathway-00396,GC-BiochemicalReaction-00650,GC-Catalysis-00650,GC-BiochemicalPathwayStep-00650,,,
GC-Pathway-00396,GC-BiochemicalReaction-00651,GC-Catalysis-00651,GC-BiochemicalPathwayStep-00651,,,
GC-Pathway-00397,GC-BiochemicalReaction-00652,GC-Catalysis-00652,GC-BiochemicalPathwayStep-00652,GC-PublicationXref-462,Pathway,E.coli O96
GC-Pathway-00397,GC-BiochemicalReaction-00653,GC-Catalysis-00653,GC-BiochemicalPathwayStep-00653,,,
GC-Pathway-00397,GC-BiochemicalReaction-00654,GC-Catalysis-00654,GC-BiochemicalPathwayStep-00654,,,
GC-Pathway-00397,GC-BiochemicalReaction-00655,GC-Catalysis-00655,GC-BiochemicalPathwayStep-00655,,,
GC-Pathway-00398,GC-BiochemicalReaction-00656,GC-Catalysis-00656,GC-BiochemicalPathwayStep-00656,GC-PublicationXref-463,Pathway,E.coli O97
GC-Pathway-00398,GC-BiochemicalReaction-00657,GC-Catalysis-00657,GC-BiochemicalPathwayStep-00657,GC-PublicationXref-464,,
GC-Pathway-00398,GC-BiochemicalReaction-00658,GC-Catalysis-00658,GC-BiochemicalPathwayStep-00658,GC-PublicationXref-465,,
GC-Pathway-00399,GC-BiochemicalReaction-00659,GC-Catalysis-00659,GC-BiochemicalPathwayStep-00659,GC-PublicationXref-466,Pathway,E.coli O98
GC-Pathway-00399,GC-BiochemicalReaction-00660,GC-Catalysis-00660,GC-BiochemicalPathwayStep-00660,GC-PublicationXref-467,,
GC-Pathway-00399,GC-BiochemicalReaction-00661,GC-Catalysis-00661,GC-BiochemicalPathwayStep-00661,,,
GC-Pathway-00400,GC-BiochemicalReaction-00662,GC-Catalysis-00662,GC-BiochemicalPathwayStep-00662,GC-PublicationXref-468,Pathway,E.coli O99
GC-Pathway-00400,GC-BiochemicalReaction-00663,GC-Catalysis-00663,GC-BiochemicalPathwayStep-00663,,,
GC-Pathway-00400,GC-BiochemicalReaction-00664,GC-Catalysis-00664,GC-BiochemicalPathwayStep-00664,,,
GC-Pathway-00400,GC-BiochemicalReaction-00665,GC-Catalysis-00665,GC-BiochemicalPathwayStep-00665,,,
GC-Pathway-00400,GC-BiochemicalReaction-00666,GC-Catalysis-00666,GC-BiochemicalPathwayStep-00666,,,
GC-Pathway-00401,GC-BiochemicalReaction-00667,GC-Catalysis-00667,GC-BiochemicalPathwayStep-00667,GC-PublicationXref-469,Pathway,E.coli O100
GC-Pathway-00401,GC-BiochemicalReaction-00668,GC-Catalysis-00668,GC-BiochemicalPathwayStep-00668,GC-PublicationXref-470,,
GC-Pathway-00401,GC-BiochemicalReaction-00669,GC-Catalysis-00669,GC-BiochemicalPathwayStep-00669,,,
GC-Pathway-00401,GC-BiochemicalReaction-00670,GC-Catalysis-00670,GC-BiochemicalPathwayStep-00670,,,
GC-Pathway-00402,GC-BiochemicalReaction-00671,GC-Catalysis-00671,GC-BiochemicalPathwayStep-00671,GC-PublicationXref-471,Pathway,E.coli O101
GC-Pathway-00403,GC-BiochemicalReaction-00672,GC-Catalysis-00672,GC-BiochemicalPathwayStep-00672,GC-PublicationXref-472,Pathway,E.coli O102
GC-Pathway-00403,GC-BiochemicalReaction-00673,GC-Catalysis-00673,GC-BiochemicalPathwayStep-00673,,,
GC-Pathway-00403,GC-BiochemicalReaction-00674,GC-Catalysis-00674,GC-BiochemicalPathwayStep-00674,,,
GC-Pathway-00403,GC-BiochemicalReaction-00675,GC-Catalysis-00675,GC-BiochemicalPathwayStep-00675,,,
GC-Pathway-00404,GC-BiochemicalReaction-00676,GC-Catalysis-00676,GC-BiochemicalPathwayStep-00676,GC-PublicationXref-473,Pathway,E.coli O103
GC-Pathway-00404,GC-BiochemicalReaction-00677,GC-Catalysis-00677,GC-BiochemicalPathwayStep-00677,GC-PublicationXref-474,,
GC-Pathway-00404,GC-BiochemicalReaction-00678,GC-Catalysis-00678,GC-BiochemicalPathwayStep-00678,,,
GC-Pathway-00404,GC-BiochemicalReaction-00679,GC-Catalysis-00679,GC-BiochemicalPathwayStep-00679,,,
GC-Pathway-00405,GC-BiochemicalReaction-00680,GC-Catalysis-00680,GC-BiochemicalPathwayStep-00680,GC-PublicationXref-475,Pathway,E.coli O104
GC-Pathway-00405,GC-BiochemicalReaction-00681,GC-Catalysis-00681,GC-BiochemicalPathwayStep-00681,GC-PublicationXref-476,,
GC-Pathway-00405,GC-BiochemicalReaction-00682,GC-Catalysis-00682,GC-BiochemicalPathwayStep-00682,GC-PublicationXref-477,,
GC-Pathway-00406,GC-BiochemicalReaction-00683,GC-Catalysis-00683,GC-BiochemicalPathwayStep-00683,GC-PublicationXref-478,Pathway,E.coli O105
GC-Pathway-00406,GC-BiochemicalReaction-00684,GC-Catalysis-00684,GC-BiochemicalPathwayStep-00684,GC-PublicationXref-479,,
GC-Pathway-00406,GC-BiochemicalReaction-00685,GC-Catalysis-00685,GC-BiochemicalPathwayStep-00685,GC-PublicationXref-480,,
GC-Pathway-00406,GC-BiochemicalReaction-00686,GC-Catalysis-00686,GC-BiochemicalPathwayStep-00686,,,
GC-Pathway-00406,GC-BiochemicalReaction-00687,GC-Catalysis-00687,GC-BiochemicalPathwayStep-00687,,,
GC-Pathway-00407,GC-BiochemicalReaction-00688,GC-Catalysis-00688,GC-BiochemicalPathwayStep-00688,GC-PublicationXref-481,Pathway,E.coli O107
GC-Pathway-00407,GC-BiochemicalReaction-00689,GC-Catalysis-00689,GC-BiochemicalPathwayStep-00689,,,
GC-Pathway-00407,GC-BiochemicalReaction-00690,GC-Catalysis-00690,GC-BiochemicalPathwayStep-00690,,,
GC-Pathway-00407,GC-BiochemicalReaction-00691,GC-Catalysis-00691,GC-BiochemicalPathwayStep-00691,,,
GC-Pathway-00408,GC-BiochemicalReaction-00692,GC-Catalysis-00692,GC-BiochemicalPathwayStep-00692,GC-PublicationXref-482,Pathway,E.coli O108
GC-Pathway-00408,GC-BiochemicalReaction-00693,GC-Catalysis-00693,GC-BiochemicalPathwayStep-00693,,,
GC-Pathway-00408,GC-BiochemicalReaction-00694,GC-Catalysis-00694,GC-BiochemicalPathwayStep-00694,,,
GC-Pathway-00409,GC-BiochemicalReaction-00695,GC-Catalysis-00695,GC-BiochemicalPathwayStep-00695,GC-PublicationXref-483,Pathway,E.coli O109
GC-Pathway-00409,GC-BiochemicalReaction-00696,GC-Catalysis-00696,GC-BiochemicalPathwayStep-00696,,,
GC-Pathway-00409,GC-BiochemicalReaction-00697,GC-Catalysis-00697,GC-BiochemicalPathwayStep-00697,,,
GC-Pathway-00410,GC-BiochemicalReaction-00698,GC-Catalysis-00698,GC-BiochemicalPathwayStep-00698,GC-PublicationXref-484,Pathway,E.coli O110
GC-Pathway-00410,GC-BiochemicalReaction-00699,GC-Catalysis-00699,GC-BiochemicalPathwayStep-00699,,,
GC-Pathway-00410,GC-BiochemicalReaction-00700,GC-Catalysis-00700,GC-BiochemicalPathwayStep-00700,,,
GC-Pathway-00411,GC-BiochemicalReaction-00701,GC-Catalysis-00701,GC-BiochemicalPathwayStep-00701,GC-PublicationXref-485,Pathway,E.coli O111
GC-Pathway-00411,GC-BiochemicalReaction-00702,GC-Catalysis-00702,GC-BiochemicalPathwayStep-00702,GC-PublicationXref-486,,
GC-Pathway-00411,GC-BiochemicalReaction-00703,GC-Catalysis-00703,GC-BiochemicalPathwayStep-00703,GC-PublicationXref-487,,
GC-Pathway-00411,GC-BiochemicalReaction-00704,GC-Catalysis-00704,GC-BiochemicalPathwayStep-00704,GC-PublicationXref-488,,
GC-Pathway-00411,,,,GC-PublicationXref-489,,
GC-Pathway-00412,GC-BiochemicalReaction-00705,GC-Catalysis-00705,GC-BiochemicalPathwayStep-00705,GC-PublicationXref-490,Pathway,E.coli O112ab
GC-Pathway-00412,GC-BiochemicalReaction-00706,GC-Catalysis-00706,GC-BiochemicalPathwayStep-00706,GC-PublicationXref-491,,
GC-Pathway-00412,GC-BiochemicalReaction-00707,GC-Catalysis-00707,GC-BiochemicalPathwayStep-00707,,,
GC-Pathway-00412,GC-BiochemicalReaction-00708,GC-Catalysis-00708,GC-BiochemicalPathwayStep-00708,,,
GC-Pathway-00413,GC-BiochemicalReaction-00709,GC-Catalysis-00709,GC-BiochemicalPathwayStep-00709,GC-PublicationXref-492,Pathway,E.coli O112ac
GC-Pathway-00413,GC-BiochemicalReaction-00710,GC-Catalysis-00710,GC-BiochemicalPathwayStep-00710,GC-PublicationXref-493,,
GC-Pathway-00413,GC-BiochemicalReaction-00711,GC-Catalysis-00711,GC-BiochemicalPathwayStep-00711,,,
GC-Pathway-00413,GC-BiochemicalReaction-00712,GC-Catalysis-00712,GC-BiochemicalPathwayStep-00712,,,
GC-Pathway-00414,GC-BiochemicalReaction-00713,GC-Catalysis-00713,GC-BiochemicalPathwayStep-00713,GC-PublicationXref-494,Pathway,E.coli O113
GC-Pathway-00414,GC-BiochemicalReaction-00714,GC-Catalysis-00714,GC-BiochemicalPathwayStep-00714,GC-PublicationXref-495,,
GC-Pathway-00414,GC-BiochemicalReaction-00715,GC-Catalysis-00715,GC-BiochemicalPathwayStep-00715,,,
GC-Pathway-00414,GC-BiochemicalReaction-00716,GC-Catalysis-00716,GC-BiochemicalPathwayStep-00716,,,
GC-Pathway-00415,GC-BiochemicalReaction-00717,GC-Catalysis-00717,GC-BiochemicalPathwayStep-00717,GC-PublicationXref-496,Pathway,E.coli O114
GC-Pathway-00415,GC-BiochemicalReaction-00718,GC-Catalysis-00718,GC-BiochemicalPathwayStep-00718,GC-PublicationXref-497,,
GC-Pathway-00415,GC-BiochemicalReaction-00719,GC-Catalysis-00719,GC-BiochemicalPathwayStep-00719,,,
GC-Pathway-00416,GC-BiochemicalReaction-00720,GC-Catalysis-00720,GC-BiochemicalPathwayStep-00720,GC-PublicationXref-498,Pathway,E.coli O115
GC-Pathway-00416,GC-BiochemicalReaction-00721,GC-Catalysis-00721,GC-BiochemicalPathwayStep-00721,GC-PublicationXref-499,,
GC-Pathway-00416,GC-BiochemicalReaction-00722,GC-Catalysis-00722,GC-BiochemicalPathwayStep-00722,,,
GC-Pathway-00416,GC-BiochemicalReaction-00723,GC-Catalysis-00723,GC-BiochemicalPathwayStep-00723,,,
GC-Pathway-00417,GC-BiochemicalReaction-00724,GC-Catalysis-00724,GC-BiochemicalPathwayStep-00724,GC-PublicationXref-500,Pathway,E.coli O116
GC-Pathway-00417,GC-BiochemicalReaction-00725,GC-Catalysis-00725,GC-BiochemicalPathwayStep-00725,,,
GC-Pathway-00417,GC-BiochemicalReaction-00726,GC-Catalysis-00726,GC-BiochemicalPathwayStep-00726,,,
GC-Pathway-00417,GC-BiochemicalReaction-00727,GC-Catalysis-00727,GC-BiochemicalPathwayStep-00727,,,
GC-Pathway-00418,GC-BiochemicalReaction-00728,GC-Catalysis-00728,GC-BiochemicalPathwayStep-00728,GC-PublicationXref-501,Pathway,E.coli O117
GC-Pathway-00418,GC-BiochemicalReaction-00729,GC-Catalysis-00729,GC-BiochemicalPathwayStep-00729,GC-PublicationXref-502,,
GC-Pathway-00418,GC-BiochemicalReaction-00730,GC-Catalysis-00730,GC-BiochemicalPathwayStep-00730,GC-PublicationXref-503,,
GC-Pathway-00418,GC-BiochemicalReaction-00731,GC-Catalysis-00731,GC-BiochemicalPathwayStep-00731,,,
GC-Pathway-00419,GC-BiochemicalReaction-00732,GC-Catalysis-00732,GC-BiochemicalPathwayStep-00732,GC-PublicationXref-504,Pathway,E.coli O118
GC-Pathway-00419,GC-BiochemicalReaction-00733,GC-Catalysis-00733,GC-BiochemicalPathwayStep-00733,GC-PublicationXref-505,,
GC-Pathway-00419,GC-BiochemicalReaction-00734,GC-Catalysis-00734,GC-BiochemicalPathwayStep-00734,,,
GC-Pathway-00420,GC-BiochemicalReaction-00735,GC-Catalysis-00735,GC-BiochemicalPathwayStep-00735,GC-PublicationXref-506,Pathway,E.coli O119
GC-Pathway-00420,GC-BiochemicalReaction-00736,GC-Catalysis-00736,GC-BiochemicalPathwayStep-00736,GC-PublicationXref-507,,
GC-Pathway-00420,GC-BiochemicalReaction-00737,GC-Catalysis-00737,GC-BiochemicalPathwayStep-00737,,,
GC-Pathway-00420,GC-BiochemicalReaction-00738,GC-Catalysis-00738,GC-BiochemicalPathwayStep-00738,,,
GC-Pathway-00421,GC-BiochemicalReaction-00739,GC-Catalysis-00739,GC-BiochemicalPathwayStep-00739,GC-PublicationXref-508,Pathway,E.coli O120
GC-Pathway-00421,GC-BiochemicalReaction-00740,GC-Catalysis-00740,GC-BiochemicalPathwayStep-00740,,,
GC-Pathway-00421,GC-BiochemicalReaction-00741,GC-Catalysis-00741,GC-BiochemicalPathwayStep-00741,,,
GC-Pathway-00421,GC-BiochemicalReaction-00742,GC-Catalysis-00742,GC-BiochemicalPathwayStep-00742,,,
GC-Pathway-00421,GC-BiochemicalReaction-00743,GC-Catalysis-00743,GC-BiochemicalPathwayStep-00743,,,
GC-Pathway-00422,GC-BiochemicalReaction-00744,GC-Catalysis-00744,GC-BiochemicalPathwayStep-00744,GC-PublicationXref-509,Pathway,E.coli O121
GC-Pathway-00422,GC-BiochemicalReaction-00745,GC-Catalysis-00745,GC-BiochemicalPathwayStep-00745,GC-PublicationXref-510,,
GC-Pathway-00422,GC-BiochemicalReaction-00746,GC-Catalysis-00746,GC-BiochemicalPathwayStep-00746,,,
GC-Pathway-00423,GC-BiochemicalReaction-00747,GC-Catalysis-00747,GC-BiochemicalPathwayStep-00747,GC-PublicationXref-511,Pathway,E.coli O123
GC-Pathway-00423,GC-BiochemicalReaction-00748,GC-Catalysis-00748,GC-BiochemicalPathwayStep-00748,GC-PublicationXref-512,,
GC-Pathway-00423,GC-BiochemicalReaction-00749,GC-Catalysis-00749,GC-BiochemicalPathwayStep-00749,GC-PublicationXref-513,,
GC-Pathway-00424,GC-BiochemicalReaction-00750,GC-Catalysis-00750,GC-BiochemicalPathwayStep-00750,GC-PublicationXref-514,Pathway,E.coli O124
GC-Pathway-00424,GC-BiochemicalReaction-00751,GC-Catalysis-00751,GC-BiochemicalPathwayStep-00751,GC-PublicationXref-515,,
GC-Pathway-00424,GC-BiochemicalReaction-00752,GC-Catalysis-00752,GC-BiochemicalPathwayStep-00752,GC-PublicationXref-516,,
GC-Pathway-00424,GC-BiochemicalReaction-00753,GC-Catalysis-00753,GC-BiochemicalPathwayStep-00753,GC-PublicationXref-517,,
GC-Pathway-00425,GC-BiochemicalReaction-00754,GC-Catalysis-00754,GC-BiochemicalPathwayStep-00754,GC-PublicationXref-518,Pathway,E.coli O125ab
GC-Pathway-00425,GC-BiochemicalReaction-00755,GC-Catalysis-00755,GC-BiochemicalPathwayStep-00755,,,
GC-Pathway-00425,GC-BiochemicalReaction-00756,GC-Catalysis-00756,GC-BiochemicalPathwayStep-00756,,,
GC-Pathway-00425,GC-BiochemicalReaction-00757,GC-Catalysis-00757,GC-BiochemicalPathwayStep-00757,,,
GC-Pathway-00425,GC-BiochemicalReaction-00758,GC-Catalysis-00758,GC-BiochemicalPathwayStep-00758,,,
GC-Pathway-00426,GC-BiochemicalReaction-00759,GC-Catalysis-00759,GC-BiochemicalPathwayStep-00759,GC-PublicationXref-519,Pathway,E.coli O126H27
GC-Pathway-00426,GC-BiochemicalReaction-00760,GC-Catalysis-00760,GC-BiochemicalPathwayStep-00760,GC-PublicationXref-520,,
GC-Pathway-00426,GC-BiochemicalReaction-00761,GC-Catalysis-00761,GC-BiochemicalPathwayStep-00761,GC-PublicationXref-521,,
GC-Pathway-00426,GC-BiochemicalReaction-00762,GC-Catalysis-00762,GC-BiochemicalPathwayStep-00762,,,
GC-Pathway-00427,GC-BiochemicalReaction-00763,GC-Catalysis-00763,GC-BiochemicalPathwayStep-00763,GC-PublicationXref-522,Pathway,E.coli O126
GC-Pathway-00427,GC-BiochemicalReaction-00764,GC-Catalysis-00764,GC-BiochemicalPathwayStep-00764,,,
GC-Pathway-00427,GC-BiochemicalReaction-00765,GC-Catalysis-00765,GC-BiochemicalPathwayStep-00765,,,
GC-Pathway-00428,GC-BiochemicalReaction-00766,GC-Catalysis-00766,GC-BiochemicalPathwayStep-00766,GC-PublicationXref-523,Pathway,E.coli O127
GC-Pathway-00428,GC-BiochemicalReaction-00767,GC-Catalysis-00767,GC-BiochemicalPathwayStep-00767,GC-PublicationXref-524,,
GC-Pathway-00428,GC-BiochemicalReaction-00768,GC-Catalysis-00768,GC-BiochemicalPathwayStep-00768,,,
GC-Pathway-00429,GC-BiochemicalReaction-00769,GC-Catalysis-00769,GC-BiochemicalPathwayStep-00769,GC-PublicationXref-525,Pathway,E.coli O128ab
GC-Pathway-00429,GC-BiochemicalReaction-00770,GC-Catalysis-00770,GC-BiochemicalPathwayStep-00770,GC-PublicationXref-526,,
GC-Pathway-00429,GC-BiochemicalReaction-00771,GC-Catalysis-00771,GC-BiochemicalPathwayStep-00771,GC-PublicationXref-527,,
GC-Pathway-00429,GC-BiochemicalReaction-00772,GC-Catalysis-00772,GC-BiochemicalPathwayStep-00772,,,
GC-Pathway-00430,GC-BiochemicalReaction-00773,GC-Catalysis-00773,GC-BiochemicalPathwayStep-00773,GC-PublicationXref-528,Pathway,E.coli O128ab-H27
GC-Pathway-00430,GC-BiochemicalReaction-00774,GC-Catalysis-00774,GC-BiochemicalPathwayStep-00774,,,
GC-Pathway-00430,GC-BiochemicalReaction-00775,GC-Catalysis-00775,GC-BiochemicalPathwayStep-00775,,,
GC-Pathway-00430,GC-BiochemicalReaction-00776,GC-Catalysis-00776,GC-BiochemicalPathwayStep-00776,,,
GC-Pathway-00431,GC-BiochemicalReaction-00777,GC-Catalysis-00777,GC-BiochemicalPathwayStep-00777,GC-PublicationXref-529,Pathway,E.coli O128ac
GC-Pathway-00431,GC-BiochemicalReaction-00778,GC-Catalysis-00778,GC-BiochemicalPathwayStep-00778,,,
GC-Pathway-00431,GC-BiochemicalReaction-00779,GC-Catalysis-00779,GC-BiochemicalPathwayStep-00779,,,
GC-Pathway-00431,GC-BiochemicalReaction-00780,GC-Catalysis-00780,GC-BiochemicalPathwayStep-00780,,,
GC-Pathway-00432,GC-BiochemicalReaction-00781,GC-Catalysis-00781,GC-BiochemicalPathwayStep-00781,GC-PublicationXref-530,Pathway,E.coli O129
GC-Pathway-00432,GC-BiochemicalReaction-00782,GC-Catalysis-00782,GC-BiochemicalPathwayStep-00782,GC-PublicationXref-531,,
GC-Pathway-00432,GC-BiochemicalReaction-00783,GC-Catalysis-00783,GC-BiochemicalPathwayStep-00783,,,
GC-Pathway-00432,GC-BiochemicalReaction-00784,GC-Catalysis-00784,GC-BiochemicalPathwayStep-00784,,,
GC-Pathway-00433,GC-BiochemicalReaction-00785,GC-Catalysis-00785,GC-BiochemicalPathwayStep-00785,GC-PublicationXref-532,Pathway,E.coli O130
GC-Pathway-00433,GC-BiochemicalReaction-00786,GC-Catalysis-00786,GC-BiochemicalPathwayStep-00786,GC-PublicationXref-533,,
GC-Pathway-00433,GC-BiochemicalReaction-00787,GC-Catalysis-00787,GC-BiochemicalPathwayStep-00787,,,
GC-Pathway-00433,GC-BiochemicalReaction-00788,GC-Catalysis-00788,GC-BiochemicalPathwayStep-00788,,,
GC-Pathway-00434,GC-BiochemicalReaction-00789,GC-Catalysis-00789,GC-BiochemicalPathwayStep-00789,GC-PublicationXref-534,Pathway,E.coli O131
GC-Pathway-00434,GC-BiochemicalReaction-00790,GC-Catalysis-00790,GC-BiochemicalPathwayStep-00790,GC-PublicationXref-535,,
GC-Pathway-00434,GC-BiochemicalReaction-00791,GC-Catalysis-00791,GC-BiochemicalPathwayStep-00791,,,
GC-Pathway-00435,GC-BiochemicalReaction-00792,GC-Catalysis-00792,GC-BiochemicalPathwayStep-00792,GC-PublicationXref-536,Pathway,E.coli O132
GC-Pathway-00435,GC-BiochemicalReaction-00793,GC-Catalysis-00793,GC-BiochemicalPathwayStep-00793,GC-PublicationXref-537,,
GC-Pathway-00435,GC-BiochemicalReaction-00794,GC-Catalysis-00794,GC-BiochemicalPathwayStep-00794,,,
GC-Pathway-00435,GC-BiochemicalReaction-00795,GC-Catalysis-00795,GC-BiochemicalPathwayStep-00795,,,
GC-Pathway-00436,GC-BiochemicalReaction-00796,GC-Catalysis-00796,GC-BiochemicalPathwayStep-00796,GC-PublicationXref-538,Pathway,E.coli O133
GC-Pathway-00436,GC-BiochemicalReaction-00797,GC-Catalysis-00797,GC-BiochemicalPathwayStep-00797,GC-PublicationXref-539,,
GC-Pathway-00436,GC-BiochemicalReaction-00798,GC-Catalysis-00798,GC-BiochemicalPathwayStep-00798,,,
GC-Pathway-00436,GC-BiochemicalReaction-00799,GC-Catalysis-00799,GC-BiochemicalPathwayStep-00799,,,
GC-Pathway-00436,GC-BiochemicalReaction-00800,GC-Catalysis-00800,GC-BiochemicalPathwayStep-00800,,,
GC-Pathway-00437,GC-BiochemicalReaction-00801,GC-Catalysis-00801,GC-BiochemicalPathwayStep-00801,GC-PublicationXref-540,Pathway,E.coli O134
GC-Pathway-00437,GC-BiochemicalReaction-00802,GC-Catalysis-00802,GC-BiochemicalPathwayStep-00802,GC-PublicationXref-541,,
GC-Pathway-00437,GC-BiochemicalReaction-00803,GC-Catalysis-00803,GC-BiochemicalPathwayStep-00803,,,
GC-Pathway-00438,GC-BiochemicalReaction-00804,GC-Catalysis-00804,GC-BiochemicalPathwayStep-00804,GC-PublicationXref-542,Pathway,E.coli O135
GC-Pathway-00438,GC-BiochemicalReaction-00805,GC-Catalysis-00805,GC-BiochemicalPathwayStep-00805,GC-PublicationXref-543,,
GC-Pathway-00438,GC-BiochemicalReaction-00806,GC-Catalysis-00806,GC-BiochemicalPathwayStep-00806,,,
GC-Pathway-00438,GC-BiochemicalReaction-00807,GC-Catalysis-00807,GC-BiochemicalPathwayStep-00807,,,
GC-Pathway-00439,GC-BiochemicalReaction-00808,GC-Catalysis-00808,GC-BiochemicalPathwayStep-00808,GC-PublicationXref-544,Pathway,E.coli O136
GC-Pathway-00439,GC-BiochemicalReaction-00809,GC-Catalysis-00809,GC-BiochemicalPathwayStep-00809,GC-PublicationXref-545,,
GC-Pathway-00439,,,,GC-PublicationXref-546,,
GC-Pathway-00440,GC-BiochemicalReaction-00810,GC-Catalysis-00810,GC-BiochemicalPathwayStep-00810,GC-PublicationXref-547,Pathway,E.coli O137
GC-Pathway-00440,GC-BiochemicalReaction-00811,GC-Catalysis-00811,GC-BiochemicalPathwayStep-00811,GC-PublicationXref-548,,
GC-Pathway-00440,GC-BiochemicalReaction-00812,GC-Catalysis-00812,GC-BiochemicalPathwayStep-00812,,,
GC-Pathway-00441,GC-BiochemicalReaction-00813,GC-Catalysis-00813,GC-BiochemicalPathwayStep-00813,GC-PublicationXref-549,Pathway,E.coli O138
GC-Pathway-00441,GC-BiochemicalReaction-00814,GC-Catalysis-00814,GC-BiochemicalPathwayStep-00814,GC-PublicationXref-550,,
GC-Pathway-00441,GC-BiochemicalReaction-00815,GC-Catalysis-00815,GC-BiochemicalPathwayStep-00815,,,
GC-Pathway-00442,GC-BiochemicalReaction-00816,GC-Catalysis-00816,GC-BiochemicalPathwayStep-00816,GC-PublicationXref-551,Pathway,E.coli O139
GC-Pathway-00442,GC-BiochemicalReaction-00817,GC-Catalysis-00817,GC-BiochemicalPathwayStep-00817,GC-PublicationXref-552,,
GC-Pathway-00442,GC-BiochemicalReaction-00818,GC-Catalysis-00818,GC-BiochemicalPathwayStep-00818,GC-PublicationXref-553,,
GC-Pathway-00442,GC-BiochemicalReaction-00819,GC-Catalysis-00819,GC-BiochemicalPathwayStep-00819,,,
GC-Pathway-00442,GC-BiochemicalReaction-00820,GC-Catalysis-00820,GC-BiochemicalPathwayStep-00820,,,
GC-Pathway-00442,GC-BiochemicalReaction-00821,GC-Catalysis-00821,GC-BiochemicalPathwayStep-00821,,,
GC-Pathway-00443,GC-BiochemicalReaction-00822,GC-Catalysis-00822,GC-BiochemicalPathwayStep-00822,GC-PublicationXref-554,Pathway,E.coli O140
GC-Pathway-00443,GC-BiochemicalReaction-00823,GC-Catalysis-00823,GC-BiochemicalPathwayStep-00823,,,
GC-Pathway-00443,GC-BiochemicalReaction-00824,GC-Catalysis-00824,GC-BiochemicalPathwayStep-00824,,,
GC-Pathway-00443,GC-BiochemicalReaction-00825,GC-Catalysis-00825,GC-BiochemicalPathwayStep-00825,,,
GC-Pathway-00443,GC-BiochemicalReaction-00826,GC-Catalysis-00826,GC-BiochemicalPathwayStep-00826,,,
GC-Pathway-00444,GC-BiochemicalReaction-00827,GC-Catalysis-00827,GC-BiochemicalPathwayStep-00827,GC-PublicationXref-555,Pathway,E.coli O141
GC-Pathway-00444,GC-BiochemicalReaction-00828,GC-Catalysis-00828,GC-BiochemicalPathwayStep-00828,GC-PublicationXref-556,,
GC-Pathway-00444,GC-BiochemicalReaction-00829,GC-Catalysis-00829,GC-BiochemicalPathwayStep-00829,,,
GC-Pathway-00444,GC-BiochemicalReaction-00830,GC-Catalysis-00830,GC-BiochemicalPathwayStep-00830,,,
GC-Pathway-00445,GC-BiochemicalReaction-00831,GC-Catalysis-00831,GC-BiochemicalPathwayStep-00831,GC-PublicationXref-557,Pathway,E.coli O142
GC-Pathway-00445,GC-BiochemicalReaction-00832,GC-Catalysis-00832,GC-BiochemicalPathwayStep-00832,GC-PublicationXref-558,,
GC-Pathway-00445,GC-BiochemicalReaction-00833,GC-Catalysis-00833,GC-BiochemicalPathwayStep-00833,,,
GC-Pathway-00445,GC-BiochemicalReaction-00834,GC-Catalysis-00834,GC-BiochemicalPathwayStep-00834,,,
GC-Pathway-00446,GC-BiochemicalReaction-00835,GC-Catalysis-00835,GC-BiochemicalPathwayStep-00835,GC-PublicationXref-559,Pathway,E.coli O143
GC-Pathway-00446,GC-BiochemicalReaction-00836,GC-Catalysis-00836,GC-BiochemicalPathwayStep-00836,GC-PublicationXref-560,,
GC-Pathway-00446,GC-BiochemicalReaction-00837,GC-Catalysis-00837,GC-BiochemicalPathwayStep-00837,GC-PublicationXref-561,,
GC-Pathway-00446,GC-BiochemicalReaction-00838,GC-Catalysis-00838,GC-BiochemicalPathwayStep-00838,,,
GC-Pathway-00447,GC-BiochemicalReaction-00839,GC-Catalysis-00839,GC-BiochemicalPathwayStep-00839,GC-PublicationXref-562,Pathway,E.coli O145
GC-Pathway-00447,GC-BiochemicalReaction-00840,GC-Catalysis-00840,GC-BiochemicalPathwayStep-00840,,,
GC-Pathway-00448,GC-BiochemicalReaction-00841,GC-Catalysis-00841,GC-BiochemicalPathwayStep-00841,GC-PublicationXref-563,Pathway,E.coli O146
GC-Pathway-00448,GC-BiochemicalReaction-00842,GC-Catalysis-00842,GC-BiochemicalPathwayStep-00842,,,
GC-Pathway-00448,GC-BiochemicalReaction-00843,GC-Catalysis-00843,GC-BiochemicalPathwayStep-00843,,,
GC-Pathway-00448,GC-BiochemicalReaction-00844,GC-Catalysis-00844,GC-BiochemicalPathwayStep-00844,,,
GC-Pathway-00449,GC-BiochemicalReaction-00845,GC-Catalysis-00845,GC-BiochemicalPathwayStep-00845,GC-PublicationXref-564,Pathway,E.coli O147
GC-Pathway-00449,GC-BiochemicalReaction-00846,GC-Catalysis-00846,GC-BiochemicalPathwayStep-00846,GC-PublicationXref-565,,
GC-Pathway-00449,GC-BiochemicalReaction-00847,GC-Catalysis-00847,GC-BiochemicalPathwayStep-00847,,,
GC-Pathway-00450,GC-BiochemicalReaction-00848,GC-Catalysis-00848,GC-BiochemicalPathwayStep-00848,GC-PublicationXref-566,Pathway,E.coli O148
GC-Pathway-00450,GC-BiochemicalReaction-00849,GC-Catalysis-00849,GC-BiochemicalPathwayStep-00849,GC-PublicationXref-567,,
GC-Pathway-00450,GC-BiochemicalReaction-00850,GC-Catalysis-00850,GC-BiochemicalPathwayStep-00850,,,
GC-Pathway-00451,GC-BiochemicalReaction-00851,GC-Catalysis-00851,GC-BiochemicalPathwayStep-00851,GC-PublicationXref-568,Pathway,E.coli O149
GC-Pathway-00451,GC-BiochemicalReaction-00852,GC-Catalysis-00852,GC-BiochemicalPathwayStep-00852,GC-PublicationXref-569,,
GC-Pathway-00451,,,,GC-PublicationXref-570,,
GC-Pathway-00452,GC-BiochemicalReaction-00853,GC-Catalysis-00853,GC-BiochemicalPathwayStep-00853,GC-PublicationXref-571,Pathway,E.coli O150
GC-Pathway-00452,GC-BiochemicalReaction-00854,GC-Catalysis-00854,GC-BiochemicalPathwayStep-00854,GC-PublicationXref-572,,
GC-Pathway-00452,GC-BiochemicalReaction-00855,GC-Catalysis-00855,GC-BiochemicalPathwayStep-00855,,,
GC-Pathway-00452,GC-BiochemicalReaction-00856,GC-Catalysis-00856,GC-BiochemicalPathwayStep-00856,,,
GC-Pathway-00452,GC-BiochemicalReaction-00857,GC-Catalysis-00857,GC-BiochemicalPathwayStep-00857,,,
GC-Pathway-00453,GC-BiochemicalReaction-00858,GC-Catalysis-00858,GC-BiochemicalPathwayStep-00858,GC-PublicationXref-573,Pathway,E.coli O151
GC-Pathway-00453,GC-BiochemicalReaction-00859,GC-Catalysis-00859,GC-BiochemicalPathwayStep-00859,GC-PublicationXref-574,,
GC-Pathway-00453,GC-BiochemicalReaction-00860,GC-Catalysis-00860,GC-BiochemicalPathwayStep-00860,,,
GC-Pathway-00453,GC-BiochemicalReaction-00861,GC-Catalysis-00861,GC-BiochemicalPathwayStep-00861,,,
GC-Pathway-00454,GC-BiochemicalReaction-00862,GC-Catalysis-00862,GC-BiochemicalPathwayStep-00862,GC-PublicationXref-575,Pathway,E.coli O152
GC-Pathway-00454,GC-BiochemicalReaction-00863,GC-Catalysis-00863,GC-BiochemicalPathwayStep-00863,GC-PublicationXref-576,,
GC-Pathway-00454,GC-BiochemicalReaction-00864,GC-Catalysis-00864,GC-BiochemicalPathwayStep-00864,GC-PublicationXref-577,,
GC-Pathway-00454,GC-BiochemicalReaction-00865,GC-Catalysis-00865,GC-BiochemicalPathwayStep-00865,,,
GC-Pathway-00455,GC-BiochemicalReaction-00866,GC-Catalysis-00866,GC-BiochemicalPathwayStep-00866,GC-PublicationXref-578,Pathway,E.coli O153
GC-Pathway-00455,GC-BiochemicalReaction-00867,GC-Catalysis-00867,GC-BiochemicalPathwayStep-00867,,,
GC-Pathway-00455,GC-BiochemicalReaction-00868,GC-Catalysis-00868,GC-BiochemicalPathwayStep-00868,,,
GC-Pathway-00455,GC-BiochemicalReaction-00869,GC-Catalysis-00869,GC-BiochemicalPathwayStep-00869,,,
GC-Pathway-00456,GC-BiochemicalReaction-00870,GC-Catalysis-00870,GC-BiochemicalPathwayStep-00870,GC-PublicationXref-579,Pathway,E.coli O154
GC-Pathway-00456,GC-BiochemicalReaction-00871,GC-Catalysis-00871,GC-BiochemicalPathwayStep-00871,,,
GC-Pathway-00456,GC-BiochemicalReaction-00872,GC-Catalysis-00872,GC-BiochemicalPathwayStep-00872,,,
GC-Pathway-00456,GC-BiochemicalReaction-00873,GC-Catalysis-00873,GC-BiochemicalPathwayStep-00873,,,
GC-Pathway-00457,GC-BiochemicalReaction-00874,GC-Catalysis-00874,GC-BiochemicalPathwayStep-00874,GC-PublicationXref-580,Pathway,E.coli O155
GC-Pathway-00457,GC-BiochemicalReaction-00875,GC-Catalysis-00875,GC-BiochemicalPathwayStep-00875,,,
GC-Pathway-00457,GC-BiochemicalReaction-00876,GC-Catalysis-00876,GC-BiochemicalPathwayStep-00876,,,
GC-Pathway-00457,GC-BiochemicalReaction-00877,GC-Catalysis-00877,GC-BiochemicalPathwayStep-00877,,,
GC-Pathway-00458,GC-BiochemicalReaction-00878,GC-Catalysis-00878,GC-BiochemicalPathwayStep-00878,GC-PublicationXref-581,Pathway,E.coli O156
GC-Pathway-00458,GC-BiochemicalReaction-00879,GC-Catalysis-00879,GC-BiochemicalPathwayStep-00879,GC-PublicationXref-582,,
GC-Pathway-00458,GC-BiochemicalReaction-00880,GC-Catalysis-00880,GC-BiochemicalPathwayStep-00880,,,
GC-Pathway-00458,GC-BiochemicalReaction-00881,GC-Catalysis-00881,GC-BiochemicalPathwayStep-00881,,,
GC-Pathway-00459,GC-BiochemicalReaction-00882,GC-Catalysis-00882,GC-BiochemicalPathwayStep-00882,GC-PublicationXref-583,Pathway,E.coli O157
GC-Pathway-00459,GC-BiochemicalReaction-00883,GC-Catalysis-00883,GC-BiochemicalPathwayStep-00883,GC-PublicationXref-584,,
GC-Pathway-00459,GC-BiochemicalReaction-00884,GC-Catalysis-00884,GC-BiochemicalPathwayStep-00884,GC-PublicationXref-585,,
GC-Pathway-00459,,,,GC-PublicationXref-586,,
GC-Pathway-00459,,,,GC-PublicationXref-587,,
GC-Pathway-00459,,,,GC-PublicationXref-588,,
GC-Pathway-00460,GC-BiochemicalReaction-00885,GC-Catalysis-00885,GC-BiochemicalPathwayStep-00885,GC-PublicationXref-589,Pathway,E.coli O158ab
GC-Pathway-00460,GC-BiochemicalReaction-00886,GC-Catalysis-00886,GC-BiochemicalPathwayStep-00886,,,
GC-Pathway-00460,GC-BiochemicalReaction-00887,GC-Catalysis-00887,GC-BiochemicalPathwayStep-00887,,,
GC-Pathway-00460,GC-BiochemicalReaction-00888,GC-Catalysis-00888,GC-BiochemicalPathwayStep-00888,,,
GC-Pathway-00461,GC-BiochemicalReaction-00889,GC-Catalysis-00889,GC-BiochemicalPathwayStep-00889,GC-PublicationXref-590,Pathway,E.coli O158ac
GC-Pathway-00461,GC-BiochemicalReaction-00890,GC-Catalysis-00890,GC-BiochemicalPathwayStep-00890,GC-PublicationXref-591,,
GC-Pathway-00461,GC-BiochemicalReaction-00891,GC-Catalysis-00891,GC-BiochemicalPathwayStep-00891,,,
GC-Pathway-00461,GC-BiochemicalReaction-00892,GC-Catalysis-00892,GC-BiochemicalPathwayStep-00892,,,
GC-Pathway-00462,GC-BiochemicalReaction-00893,GC-Catalysis-00893,GC-BiochemicalPathwayStep-00893,GC-PublicationXref-592,Pathway,E.coli O159
GC-Pathway-00462,GC-BiochemicalReaction-00894,GC-Catalysis-00894,GC-BiochemicalPathwayStep-00894,GC-PublicationXref-593,,
GC-Pathway-00462,GC-BiochemicalReaction-00895,GC-Catalysis-00895,GC-BiochemicalPathwayStep-00895,,,
GC-Pathway-00462,GC-BiochemicalReaction-00896,GC-Catalysis-00896,GC-BiochemicalPathwayStep-00896,,,
GC-Pathway-00463,GC-BiochemicalReaction-00897,GC-Catalysis-00897,GC-BiochemicalPathwayStep-00897,GC-PublicationXref-594,Pathway,E.coli O160
GC-Pathway-00463,GC-BiochemicalReaction-00898,GC-Catalysis-00898,GC-BiochemicalPathwayStep-00898,,,
GC-Pathway-00463,GC-BiochemicalReaction-00899,GC-Catalysis-00899,GC-BiochemicalPathwayStep-00899,,,
GC-Pathway-00463,GC-BiochemicalReaction-00900,GC-Catalysis-00900,GC-BiochemicalPathwayStep-00900,,,
GC-Pathway-00464,GC-BiochemicalReaction-00901,GC-Catalysis-00901,GC-BiochemicalPathwayStep-00901,GC-PublicationXref-595,Pathway,E.coli O161
GC-Pathway-00464,GC-BiochemicalReaction-00902,GC-Catalysis-00902,GC-BiochemicalPathwayStep-00902,,,
GC-Pathway-00465,GC-BiochemicalReaction-00903,GC-Catalysis-00903,GC-BiochemicalPathwayStep-00903,GC-PublicationXref-596,Pathway,E.coli O163
GC-Pathway-00465,GC-BiochemicalReaction-00904,GC-Catalysis-00904,GC-BiochemicalPathwayStep-00904,,,
GC-Pathway-00465,GC-BiochemicalReaction-00905,GC-Catalysis-00905,GC-BiochemicalPathwayStep-00905,,,
GC-Pathway-00466,GC-BiochemicalReaction-00906,GC-Catalysis-00906,GC-BiochemicalPathwayStep-00906,GC-PublicationXref-597,Pathway,E.coli O164
GC-Pathway-00466,GC-BiochemicalReaction-00907,GC-Catalysis-00907,GC-BiochemicalPathwayStep-00907,GC-PublicationXref-598,,
GC-Pathway-00466,GC-BiochemicalReaction-00908,GC-Catalysis-00908,GC-BiochemicalPathwayStep-00908,,,
GC-Pathway-00466,GC-BiochemicalReaction-00909,GC-Catalysis-00909,GC-BiochemicalPathwayStep-00909,,,
GC-Pathway-00467,GC-BiochemicalReaction-00910,GC-Catalysis-00910,GC-BiochemicalPathwayStep-00910,GC-PublicationXref-599,Pathway,E.coli O165
GC-Pathway-00467,GC-BiochemicalReaction-00911,GC-Catalysis-00911,GC-BiochemicalPathwayStep-00911,GC-PublicationXref-600,,
GC-Pathway-00467,GC-BiochemicalReaction-00912,GC-Catalysis-00912,GC-BiochemicalPathwayStep-00912,,,
GC-Pathway-00468,GC-BiochemicalReaction-00913,GC-Catalysis-00913,GC-BiochemicalPathwayStep-00913,GC-PublicationXref-601,Pathway,E.coli O166
GC-Pathway-00468,GC-BiochemicalReaction-00914,GC-Catalysis-00914,GC-BiochemicalPathwayStep-00914,,,
GC-Pathway-00468,GC-BiochemicalReaction-00915,GC-Catalysis-00915,GC-BiochemicalPathwayStep-00915,,,
GC-Pathway-00468,GC-BiochemicalReaction-00916,GC-Catalysis-00916,GC-BiochemicalPathwayStep-00916,,,
GC-Pathway-00469,GC-BiochemicalReaction-00917,GC-Catalysis-00917,GC-BiochemicalPathwayStep-00917,GC-PublicationXref-602,Pathway,E.coli O167
GC-Pathway-00469,GC-BiochemicalReaction-00918,GC-Catalysis-00918,GC-BiochemicalPathwayStep-00918,GC-PublicationXref-603,,
GC-Pathway-00469,GC-BiochemicalReaction-00919,GC-Catalysis-00919,GC-BiochemicalPathwayStep-00919,GC-PublicationXref-604,,
GC-Pathway-00469,GC-BiochemicalReaction-00920,GC-Catalysis-00920,GC-BiochemicalPathwayStep-00920,,,
GC-Pathway-00469,GC-BiochemicalReaction-00921,GC-Catalysis-00921,GC-BiochemicalPathwayStep-00921,,,
GC-Pathway-00470,GC-BiochemicalReaction-00922,GC-Catalysis-00922,GC-BiochemicalPathwayStep-00922,GC-PublicationXref-605,Pathway,E.coli O168
GC-Pathway-00470,GC-BiochemicalReaction-00923,GC-Catalysis-00923,GC-BiochemicalPathwayStep-00923,GC-PublicationXref-606,,
GC-Pathway-00470,GC-BiochemicalReaction-00924,GC-Catalysis-00924,GC-BiochemicalPathwayStep-00924,GC-PublicationXref-607,,
GC-Pathway-00470,GC-BiochemicalReaction-00925,GC-Catalysis-00925,GC-BiochemicalPathwayStep-00925,,,
GC-Pathway-00471,GC-BiochemicalReaction-00926,GC-Catalysis-00926,GC-BiochemicalPathwayStep-00926,GC-PublicationXref-608,Pathway,E.coli O169
GC-Pathway-00471,GC-BiochemicalReaction-00927,GC-Catalysis-00927,GC-BiochemicalPathwayStep-00927,,,
GC-Pathway-00471,GC-BiochemicalReaction-00928,GC-Catalysis-00928,GC-BiochemicalPathwayStep-00928,,,
GC-Pathway-00471,GC-BiochemicalReaction-00929,GC-Catalysis-00929,GC-BiochemicalPathwayStep-00929,,,
GC-Pathway-00471,GC-BiochemicalReaction-00930,GC-Catalysis-00930,GC-BiochemicalPathwayStep-00930,,,
GC-Pathway-00472,GC-BiochemicalReaction-00931,GC-Catalysis-00931,GC-BiochemicalPathwayStep-00931,GC-PublicationXref-609,Pathway,E.coli O170
GC-Pathway-00472,GC-BiochemicalReaction-00932,GC-Catalysis-00932,GC-BiochemicalPathwayStep-00932,GC-PublicationXref-610,,
GC-Pathway-00472,GC-BiochemicalReaction-00933,GC-Catalysis-00933,GC-BiochemicalPathwayStep-00933,,,
GC-Pathway-00472,GC-BiochemicalReaction-00934,GC-Catalysis-00934,GC-BiochemicalPathwayStep-00934,,,
GC-Pathway-00473,GC-BiochemicalReaction-00935,GC-Catalysis-00935,GC-BiochemicalPathwayStep-00935,GC-PublicationXref-611,Pathway,E.coli O171
GC-Pathway-00473,GC-BiochemicalReaction-00936,GC-Catalysis-00936,GC-BiochemicalPathwayStep-00936,,,
GC-Pathway-00473,GC-BiochemicalReaction-00937,GC-Catalysis-00937,GC-BiochemicalPathwayStep-00937,,,
GC-Pathway-00473,GC-BiochemicalReaction-00938,GC-Catalysis-00938,GC-BiochemicalPathwayStep-00938,,,
GC-Pathway-00474,GC-BiochemicalReaction-00939,GC-Catalysis-00939,GC-BiochemicalPathwayStep-00939,GC-PublicationXref-612,Pathway,E.coli O172
GC-Pathway-00474,GC-BiochemicalReaction-00940,GC-Catalysis-00940,GC-BiochemicalPathwayStep-00940,GC-PublicationXref-613,,
GC-Pathway-00474,GC-BiochemicalReaction-00941,GC-Catalysis-00941,GC-BiochemicalPathwayStep-00941,GC-PublicationXref-614,,
GC-Pathway-00474,GC-BiochemicalReaction-00942,GC-Catalysis-00942,GC-BiochemicalPathwayStep-00942,,,
GC-Pathway-00475,GC-BiochemicalReaction-00943,GC-Catalysis-00943,GC-BiochemicalPathwayStep-00943,GC-PublicationXref-615,Pathway,E.coli O173
GC-Pathway-00475,GC-BiochemicalReaction-00944,GC-Catalysis-00944,GC-BiochemicalPathwayStep-00944,GC-PublicationXref-616,,
GC-Pathway-00475,GC-BiochemicalReaction-00945,GC-Catalysis-00945,GC-BiochemicalPathwayStep-00945,,,
GC-Pathway-00475,GC-BiochemicalReaction-00946,GC-Catalysis-00946,GC-BiochemicalPathwayStep-00946,,,
GC-Pathway-00476,GC-BiochemicalReaction-00947,GC-Catalysis-00947,GC-BiochemicalPathwayStep-00947,GC-PublicationXref-617,Pathway,E.coli O174ab
GC-Pathway-00476,GC-BiochemicalReaction-00948,GC-Catalysis-00948,GC-BiochemicalPathwayStep-00948,GC-PublicationXref-618,,
GC-Pathway-00476,GC-BiochemicalReaction-00949,GC-Catalysis-00949,GC-BiochemicalPathwayStep-00949,GC-PublicationXref-619,,
GC-Pathway-00476,,,,GC-PublicationXref-620,,
GC-Pathway-00477,GC-BiochemicalReaction-00950,GC-Catalysis-00950,GC-BiochemicalPathwayStep-00950,GC-PublicationXref-621,Pathway,E.coli O174ac
GC-Pathway-00477,GC-BiochemicalReaction-00951,GC-Catalysis-00951,GC-BiochemicalPathwayStep-00951,,,
GC-Pathway-00477,GC-BiochemicalReaction-00952,GC-Catalysis-00952,GC-BiochemicalPathwayStep-00952,,,
GC-Pathway-00478,GC-BiochemicalReaction-00953,GC-Catalysis-00953,GC-BiochemicalPathwayStep-00953,GC-PublicationXref-622,Pathway,E.coli O175
GC-Pathway-00478,GC-BiochemicalReaction-00954,GC-Catalysis-00954,GC-BiochemicalPathwayStep-00954,GC-PublicationXref-623,,
GC-Pathway-00478,GC-BiochemicalReaction-00955,GC-Catalysis-00955,GC-BiochemicalPathwayStep-00955,,,
GC-Pathway-00478,GC-BiochemicalReaction-00956,GC-Catalysis-00956,GC-BiochemicalPathwayStep-00956,,,
GC-Pathway-00479,GC-BiochemicalReaction-00957,GC-Catalysis-00957,GC-BiochemicalPathwayStep-00957,GC-PublicationXref-624,Pathway,E.coli O176
GC-Pathway-00479,GC-BiochemicalReaction-00958,GC-Catalysis-00958,GC-BiochemicalPathwayStep-00958,GC-PublicationXref-625,,
GC-Pathway-00479,GC-BiochemicalReaction-00959,GC-Catalysis-00959,GC-BiochemicalPathwayStep-00959,,,
GC-Pathway-00480,GC-BiochemicalReaction-00960,GC-Catalysis-00960,GC-BiochemicalPathwayStep-00960,GC-PublicationXref-626,Pathway,E.coli O177
GC-Pathway-00480,GC-BiochemicalReaction-00961,GC-Catalysis-00961,GC-BiochemicalPathwayStep-00961,GC-PublicationXref-627,,
GC-Pathway-00480,GC-BiochemicalReaction-00962,GC-Catalysis-00962,GC-BiochemicalPathwayStep-00962,GC-PublicationXref-628,,
GC-Pathway-00481,GC-BiochemicalReaction-00963,GC-Catalysis-00963,GC-BiochemicalPathwayStep-00963,GC-PublicationXref-629,Pathway,E.coli O178
GC-Pathway-00481,GC-BiochemicalReaction-00964,GC-Catalysis-00964,GC-BiochemicalPathwayStep-00964,GC-PublicationXref-630,,
GC-Pathway-00481,GC-BiochemicalReaction-00965,GC-Catalysis-00965,GC-BiochemicalPathwayStep-00965,,,
GC-Pathway-00481,GC-BiochemicalReaction-00966,GC-Catalysis-00966,GC-BiochemicalPathwayStep-00966,,,
GC-Pathway-00482,GC-BiochemicalReaction-00967,GC-Catalysis-00967,GC-BiochemicalPathwayStep-00967,GC-PublicationXref-631,Pathway,E.coli O180
GC-Pathway-00482,GC-BiochemicalReaction-00968,GC-Catalysis-00968,GC-BiochemicalPathwayStep-00968,,,
GC-Pathway-00482,GC-BiochemicalReaction-00969,GC-Catalysis-00969,GC-BiochemicalPathwayStep-00969,,,
GC-Pathway-00483,GC-BiochemicalReaction-00970,GC-Catalysis-00970,GC-BiochemicalPathwayStep-00970,GC-PublicationXref-632,Pathway,E.coli O181
GC-Pathway-00483,GC-BiochemicalReaction-00971,GC-Catalysis-00971,GC-BiochemicalPathwayStep-00971,,,
GC-Pathway-00483,GC-BiochemicalReaction-00972,GC-Catalysis-00972,GC-BiochemicalPathwayStep-00972,,,
GC-Pathway-00483,GC-BiochemicalReaction-00973,GC-Catalysis-00973,GC-BiochemicalPathwayStep-00973,,,
GC-Pathway-00484,GC-BiochemicalReaction-00974,GC-Catalysis-00974,GC-BiochemicalPathwayStep-00974,GC-PublicationXref-633,Pathway,E.coli O182
GC-Pathway-00484,GC-BiochemicalReaction-00975,GC-Catalysis-00975,GC-BiochemicalPathwayStep-00975,,,
GC-Pathway-00484,GC-BiochemicalReaction-00976,GC-Catalysis-00976,GC-BiochemicalPathwayStep-00976,,,
GC-Pathway-00485,GC-BiochemicalReaction-00977,GC-Catalysis-00977,GC-BiochemicalPathwayStep-00977,GC-PublicationXref-634,Pathway,E.coli O183
GC-Pathway-00485,GC-BiochemicalReaction-00978,GC-Catalysis-00978,GC-BiochemicalPathwayStep-00978,,,
GC-Pathway-00485,GC-BiochemicalReaction-00979,GC-Catalysis-00979,GC-BiochemicalPathwayStep-00979,,,
GC-Pathway-00485,GC-BiochemicalReaction-00980,GC-Catalysis-00980,GC-BiochemicalPathwayStep-00980,,,
GC-Pathway-00485,GC-BiochemicalReaction-00981,GC-Catalysis-00981,GC-BiochemicalPathwayStep-00981,,,
GC-Pathway-00486,GC-BiochemicalReaction-00982,GC-Catalysis-00982,GC-BiochemicalPathwayStep-00982,GC-PublicationXref-635,Pathway,E.coli O184
GC-Pathway-00486,GC-BiochemicalReaction-00983,GC-Catalysis-00983,GC-BiochemicalPathwayStep-00983,,,
GC-Pathway-00486,GC-BiochemicalReaction-00984,GC-Catalysis-00984,GC-BiochemicalPathwayStep-00984,,,
GC-Pathway-00487,GC-BiochemicalReaction-00985,GC-Catalysis-00985,GC-BiochemicalPathwayStep-00985,GC-PublicationXref-636,Pathway,E.coli O185
GC-Pathway-00487,GC-BiochemicalReaction-00986,GC-Catalysis-00986,GC-BiochemicalPathwayStep-00986,,,
GC-Pathway-00487,GC-BiochemicalReaction-00987,GC-Catalysis-00987,GC-BiochemicalPathwayStep-00987,,,
GC-Pathway-00487,GC-BiochemicalReaction-00988,GC-Catalysis-00988,GC-BiochemicalPathwayStep-00988,,,
GC-Pathway-00488,GC-BiochemicalReaction-00989,GC-Catalysis-00989,GC-BiochemicalPathwayStep-00989,GC-PublicationXref-637,Pathway,E.coli O186
GC-Pathway-00488,GC-BiochemicalReaction-00990,GC-Catalysis-00990,GC-BiochemicalPathwayStep-00990,,,
GC-Pathway-00488,GC-BiochemicalReaction-00991,GC-Catalysis-00991,GC-BiochemicalPathwayStep-00991,,,
GC-Pathway-00489,GC-BiochemicalReaction-00992,GC-Catalysis-00992,GC-BiochemicalPathwayStep-00992,GC-PublicationXref-638,Pathway,E.coli O187
GC-Pathway-00489,GC-BiochemicalReaction-00993,GC-Catalysis-00993,GC-BiochemicalPathwayStep-00993,,,
GC-Pathway-00489,GC-BiochemicalReaction-00994,GC-Catalysis-00994,GC-BiochemicalPathwayStep-00994,,,
GC-Pathway-00489,GC-BiochemicalReaction-00995,GC-Catalysis-00995,GC-BiochemicalPathwayStep-00995,,,
GC-Pathway-00489,GC-BiochemicalReaction-00996,GC-Catalysis-00996,GC-BiochemicalPathwayStep-00996,,,
GC-Pathway-00490,GC-BiochemicalReaction-00997,GC-Catalysis-00997,GC-BiochemicalPathwayStep-00992,GC-PublicationXref-639,Pathway,E.coli O51
GC-Pathway-00490,GC-BiochemicalReaction-00998,GC-Catalysis-00998,GC-BiochemicalPathwayStep-00993,,,
GC-Pathway-00490,GC-BiochemicalReaction-00999,GC-Catalysis-00999,GC-BiochemicalPathwayStep-00994,,,
GC-Pathway-00490,GC-BiochemicalReaction-01000,GC-Catalysis-01000,GC-BiochemicalPathwayStep-00995,,,
GC-Pathway-00491,GC-BiochemicalReaction-01001,GC-Catalysis-01001,GC-BiochemicalPathwayStep-00996,GC-PublicationXref-640,Pathway,E.coli O54
GC-Pathway-00491,GC-BiochemicalReaction-01002,GC-Catalysis-01002,GC-BiochemicalPathwayStep-00997,,,
GC-Pathway-00491,GC-BiochemicalReaction-01003,GC-Catalysis-01003,GC-BiochemicalPathwayStep-00998,,,
GC-Pathway-00491,GC-BiochemicalReaction-01004,GC-Catalysis-01004,GC-BiochemicalPathwayStep-00999,,,
GC-Pathway-00492,GC-BiochemicalReaction-01005,GC-Catalysis-01005,GC-BiochemicalPathwayStep-01000,GC-PublicationXref-641,Pathway,E.coli O63
GC-Pathway-00492,GC-BiochemicalReaction-01006,GC-Catalysis-01006,GC-BiochemicalPathwayStep-01001,,,
GC-Pathway-00492,GC-BiochemicalReaction-01007,GC-Catalysis-01007,GC-BiochemicalPathwayStep-01002,,,
GC-Pathway-00493,GC-BiochemicalReaction-01008,GC-Catalysis-01008,GC-BiochemicalPathwayStep-01003,GC-PublicationXref-642,Pathway,E.coli O81
GC-Pathway-00493,GC-BiochemicalReaction-01009,GC-Catalysis-01009,GC-BiochemicalPathwayStep-01004,,,
GC-Pathway-00493,GC-BiochemicalReaction-01010,GC-Catalysis-01010,GC-BiochemicalPathwayStep-01005,,,
GC-Pathway-00493,GC-BiochemicalReaction-01011,GC-Catalysis-01011,GC-BiochemicalPathwayStep-01006,,,
GC-Pathway-00493,GC-BiochemicalReaction-01012,GC-Catalysis-01012,GC-BiochemicalPathwayStep-01007,,,
GC-Pathway-00494,GC-BiochemicalReaction-01013,GC-Catalysis-01013,GC-BiochemicalPathwayStep-01008,GC-PublicationXref-643,Pathway,E.coli O84
GC-Pathway-00494,GC-BiochemicalReaction-01014,GC-Catalysis-01014,GC-BiochemicalPathwayStep-01009,,,
GC-Pathway-00494,GC-BiochemicalReaction-01015,GC-Catalysis-01015,GC-BiochemicalPathwayStep-01010,,,
GC-Pathway-00494,GC-BiochemicalReaction-01016,GC-Catalysis-01016,GC-BiochemicalPathwayStep-01011,,,
GC-Pathway-00495,GC-BiochemicalReaction-01017,GC-Catalysis-01017,GC-BiochemicalPathwayStep-01012,GC-PublicationXref-644,Pathway,E.coli O188
GC-Pathway-00495,GC-BiochemicalReaction-01018,GC-Catalysis-01018,GC-BiochemicalPathwayStep-01013,,,
GC-Pathway-00495,GC-BiochemicalReaction-01019,GC-Catalysis-01019,GC-BiochemicalPathwayStep-01014,,,
GC-Pathway-00495,GC-BiochemicalReaction-01020,GC-Catalysis-01020,GC-BiochemicalPathwayStep-01015,,,