PublicationXref,bp:id,rdfs:seeAlso,type,bp:db,
GC-PublicationXref-301,1773429,http://www.ncbi.nlm.nih.gov/pubmed/1773429?dopt=Abstract,PublicationXref,Pubmed,
GC-PublicationXref-302,,,PublicationXref,Pubmed,
GC-PublicationXref-303,1281148,http://www.ncbi.nlm.nih.gov/pubmed/1281148?dopt=Abstract,PublicationXref,Pubmed,
GC-PublicationXref-304,1281148,http://www.ncbi.nlm.nih.gov/pubmed/1281148?dopt=Abstract,PublicationXref,Pubmed,
GC-PublicationXref-305,3555792,http://www.ncbi.nlm.nih.gov/pubmed/3555792?dopt=Abstract,PublicationXref,Pubmed,
GC-PublicationXref-306,20453897,http://www.ncbi.nlm.nih.gov/pubmed/20453897?dopt=Abstract,PublicationXref,Pubmed,
GC-PublicationXref-307,18700154,http://www.ncbi.nlm.nih.gov/pubmed/18700154?dopt=Abstract,PublicationXref,Pubmed,
GC-PublicationXref-308,7521299,http://www.ncbi.nlm.nih.gov/pubmed/7521299?dopt=Abstract,PublicationXref,Pubmed,
GC-PublicationXref-309,7504581,http://www.ncbi.nlm.nih.gov/pubmed/7504581?dopt=Abstract,PublicationXref,Pubmed,
GC-PublicationXref-310,7504581,http://www.ncbi.nlm.nih.gov/pubmed/7504581?dopt=Abstract,PublicationXref,Pubmed,
GC-PublicationXref-311,15727817,http://www.ncbi.nlm.nih.gov/pubmed/15727817?dopt=Abstract,PublicationXref,Pubmed,
GC-PublicationXref-312,6360684,http://www.ncbi.nlm.nih.gov/pubmed/6360684?dopt=Abstract,PublicationXref,Pubmed,
GC-PublicationXref-313,9404639,http://www.ncbi.nlm.nih.gov/pubmed/9404639?dopt=Abstract,PublicationXref,Pubmed,
GC-PublicationXref-314,23721050,http://www.ncbi.nlm.nih.gov/pubmed/23721050?dopt=Abstract,PublicationXref,Pubmed,
GC-PublicationXref-315,25428893,http://www.ncbi.nlm.nih.gov/pubmed/25428893?dopt=Abstract,PublicationXref,Pubmed,
GC-PublicationXref-316,9404639,http://www.ncbi.nlm.nih.gov/pubmed/9404639?dopt=Abstract,PublicationXref,Pubmed,
GC-PublicationXref-317,15721335,http://www.ncbi.nlm.nih.gov/pubmed/15721335?dopt=Abstract,PublicationXref,Pubmed,
GC-PublicationXref-318,23721050,http://www.ncbi.nlm.nih.gov/pubmed/23721050?dopt=Abstract,PublicationXref,Pubmed,
GC-PublicationXref-319,6207916,http://www.ncbi.nlm.nih.gov/pubmed/6207916?dopt=Abstract,PublicationXref,Pubmed,
GC-PublicationXref-320,7528640,http://www.ncbi.nlm.nih.gov/pubmed/7528640?dopt=Abstract,PublicationXref,Pubmed,
GC-PublicationXref-321,7528640,http://www.ncbi.nlm.nih.gov/pubmed/7528640?dopt=Abstract,PublicationXref,Pubmed,
GC-PublicationXref-322,12374825,http://www.ncbi.nlm.nih.gov/pubmed/12374825?dopt=Abstract,PublicationXref,Pubmed,
GC-PublicationXref-323,24047996,http://www.ncbi.nlm.nih.gov/pubmed/24047996?dopt=Abstract,PublicationXref,Pubmed,
GC-PublicationXref-324,6370430,http://www.ncbi.nlm.nih.gov/pubmed/6370430?dopt=Abstract,PublicationXref,Pubmed,
GC-PublicationXref-325,10517601,http://www.ncbi.nlm.nih.gov/pubmed/10517601?dopt=Abstract,PublicationXref,Pubmed,
GC-PublicationXref-326,18536883,http://www.ncbi.nlm.nih.gov/pubmed/18536883?dopt=Abstract,PublicationXref,Pubmed,
GC-PublicationXref-327,24303583,http://www.ncbi.nlm.nih.gov/pubmed/24303583?dopt=Abstract,PublicationXref,Pubmed,
GC-PublicationXref-328,3912042,http://www.ncbi.nlm.nih.gov/pubmed/3912042?dopt=Abstract,PublicationXref,Pubmed,
GC-PublicationXref-329,1713181,http://www.ncbi.nlm.nih.gov/pubmed/1713181?dopt=Abstract,PublicationXref,Pubmed,
GC-PublicationXref-330,1959117,http://www.ncbi.nlm.nih.gov/pubmed/1959117?dopt=Abstract,PublicationXref,Pubmed,
GC-PublicationXref-331,9573168,http://www.ncbi.nlm.nih.gov/pubmed/9573168?dopt=Abstract,PublicationXref,Pubmed,
GC-PublicationXref-332,3539334,http://www.ncbi.nlm.nih.gov/pubmed/3539334?dopt=Abstract,PublicationXref,Pubmed,
GC-PublicationXref-333,786626,http://www.ncbi.nlm.nih.gov/pubmed/786626?dopt=Abstract,PublicationXref,Pubmed,
GC-PublicationXref-334,11454340,http://www.ncbi.nlm.nih.gov/pubmed/11454340?dopt=Abstract,PublicationXref,Pubmed,
GC-PublicationXref-335,11335142,http://www.ncbi.nlm.nih.gov/pubmed/11335142?dopt=Abstract,PublicationXref,Pubmed,
GC-PublicationXref-336,7536735,http://www.ncbi.nlm.nih.gov/pubmed/7536735?dopt=Abstract,PublicationXref,Pubmed,
GC-PublicationXref-337,3539334,http://www.ncbi.nlm.nih.gov/pubmed/3539334?dopt=Abstract,PublicationXref,Pubmed,
GC-PublicationXref-338,9573168,http://www.ncbi.nlm.nih.gov/pubmed/9573168?dopt=Abstract,PublicationXref,Pubmed,
GC-PublicationXref-339,3533255,http://www.ncbi.nlm.nih.gov/pubmed/3533255?dopt=Abstract,PublicationXref,Pubmed,
GC-PublicationXref-340,21205000,http://www.ncbi.nlm.nih.gov/pubmed/21205000?dopt=Abstract,PublicationXref,Pubmed,
GC-PublicationXref-341,25428893,http://www.ncbi.nlm.nih.gov/pubmed/25428893?dopt=Abstract,PublicationXref,Pubmed,
GC-PublicationXref-342,27293097,http://www.ncbi.nlm.nih.gov/pubmed/27293097?dopt=Abstract,PublicationXref,Pubmed,
GC-PublicationXref-343,18422615,http://www.ncbi.nlm.nih.gov/pubmed/18422615?dopt=Abstract,PublicationXref,Pubmed,
GC-PublicationXref-344,20546712,http://www.ncbi.nlm.nih.gov/pubmed/20546712?dopt=Abstract,PublicationXref,Pubmed,
GC-PublicationXref-345,15695667,http://www.ncbi.nlm.nih.gov/pubmed/15695667?dopt=Abstract,PublicationXref,Pubmed,
GC-PublicationXref-346,21167479,http://www.ncbi.nlm.nih.gov/pubmed/21167479?dopt=Abstract,PublicationXref,Pubmed,
GC-PublicationXref-347,7517391,http://www.ncbi.nlm.nih.gov/pubmed/7517391?dopt=Abstract,PublicationXref,Pubmed,
GC-PublicationXref-348,25428893,http://www.ncbi.nlm.nih.gov/pubmed/25428893?dopt=Abstract,PublicationXref,Pubmed,
GC-PublicationXref-349,9373936,http://www.ncbi.nlm.nih.gov/pubmed/9373936?dopt=Abstract,PublicationXref,Pubmed,
GC-PublicationXref-350,7528642,http://www.ncbi.nlm.nih.gov/pubmed/7528642?dopt=Abstract,PublicationXref,Pubmed,
GC-PublicationXref-351,9213433,http://www.ncbi.nlm.nih.gov/pubmed/9213433?dopt=Abstract,PublicationXref,Pubmed,
GC-PublicationXref-352,17600060,http://www.ncbi.nlm.nih.gov/pubmed/17600060?dopt=Abstract,PublicationXref,Pubmed,
GC-PublicationXref-353,1280216,http://www.ncbi.nlm.nih.gov/pubmed/1280216?dopt=Abstract,PublicationXref,Pubmed,
GC-PublicationXref-354,1280216,http://www.ncbi.nlm.nih.gov/pubmed/1280216?dopt=Abstract,PublicationXref,Pubmed,
GC-PublicationXref-355,22704196,http://www.ncbi.nlm.nih.gov/pubmed/22704196?dopt=Abstract,PublicationXref,Pubmed,
GC-PublicationXref-356,1280216,http://www.ncbi.nlm.nih.gov/pubmed/1280216?dopt=Abstract,PublicationXref,Pubmed,
GC-PublicationXref-357,2422032,http://www.ncbi.nlm.nih.gov/pubmed/2422032?dopt=Abstract,PublicationXref,Pubmed,
GC-PublicationXref-358,2482127,http://www.ncbi.nlm.nih.gov/pubmed/2482127?dopt=Abstract,PublicationXref,Pubmed,
GC-PublicationXref-359,1280216,http://www.ncbi.nlm.nih.gov/pubmed/1280216?dopt=Abstract,PublicationXref,Pubmed,
GC-PublicationXref-360,1280216,http://www.ncbi.nlm.nih.gov/pubmed/1280216?dopt=Abstract,PublicationXref,Pubmed,
GC-PublicationXref-361,22015401,http://www.ncbi.nlm.nih.gov/pubmed/22015401?dopt=Abstract,PublicationXref,Pubmed,
GC-PublicationXref-362,23059767,http://www.ncbi.nlm.nih.gov/pubmed/23059767?dopt=Abstract,PublicationXref,Pubmed,
GC-PublicationXref-363,10542071,http://www.ncbi.nlm.nih.gov/pubmed/10542071?dopt=Abstract,PublicationXref,Pubmed,
GC-PublicationXref-364,18700154,http://www.ncbi.nlm.nih.gov/pubmed/18700154?dopt=Abstract,PublicationXref,Pubmed,
GC-PublicationXref-365,7514095,http://www.ncbi.nlm.nih.gov/pubmed/7514095?dopt=Abstract,PublicationXref,Pubmed,
GC-PublicationXref-366,7504580,http://www.ncbi.nlm.nih.gov/pubmed/7504580?dopt=Abstract,PublicationXref,Pubmed,
GC-PublicationXref-367,7544238,http://www.ncbi.nlm.nih.gov/pubmed/7544238?dopt=Abstract,PublicationXref,Pubmed,
GC-PublicationXref-368,7525286,http://www.ncbi.nlm.nih.gov/pubmed/7525286?dopt=Abstract,PublicationXref,Pubmed,
GC-PublicationXref-369,7679327,http://www.ncbi.nlm.nih.gov/pubmed/7679327?dopt=Abstract,PublicationXref,Pubmed,
GC-PublicationXref-370,17072668,http://www.ncbi.nlm.nih.gov/pubmed/17072668?dopt=Abstract,PublicationXref,Pubmed,
GC-PublicationXref-371,6200224,http://www.ncbi.nlm.nih.gov/pubmed/6200224?dopt=Abstract,PublicationXref,Pubmed,
GC-PublicationXref-372,20351209,http://www.ncbi.nlm.nih.gov/pubmed/20351209?dopt=Abstract,PublicationXref,Pubmed,
GC-PublicationXref-373,8839182,http://www.ncbi.nlm.nih.gov/pubmed/8839182?dopt=Abstract,PublicationXref,Pubmed,
GC-PublicationXref-374,12384293,http://www.ncbi.nlm.nih.gov/pubmed/12384293?dopt=Abstract,PublicationXref,Pubmed,
GC-PublicationXref-375,29220644,http://www.ncbi.nlm.nih.gov/pubmed/29220644?dopt=Abstract,PublicationXref,Pubmed,
GC-PublicationXref-376,25428893,http://www.ncbi.nlm.nih.gov/pubmed/25428893?dopt=Abstract,PublicationXref,Pubmed,
GC-PublicationXref-377,27058293,http://www.ncbi.nlm.nih.gov/pubmed/27058293?dopt=Abstract,PublicationXref,Pubmed,
GC-PublicationXref-378,8864227,http://www.ncbi.nlm.nih.gov/pubmed/8864227?dopt=Abstract,PublicationXref,Pubmed,
GC-PublicationXref-379,18422615,http://www.ncbi.nlm.nih.gov/pubmed/18422615?dopt=Abstract,PublicationXref,Pubmed,
GC-PublicationXref-380,16784735,http://www.ncbi.nlm.nih.gov/pubmed/16784735?dopt=Abstract,PublicationXref,Pubmed,
GC-PublicationXref-381,24745322,https://www.ncbi.nlm.nih.gov/pubmed/24745322?dopt=Abstract,PublicationXref,Pubmed,
GC-PublicationXref-382,18422615,http://www.ncbi.nlm.nih.gov/pubmed/18422615?dopt=Abstract,PublicationXref,Pubmed,
GC-PublicationXref-383,27301288,https://www.ncbi.nlm.nih.gov/pubmed/27301288?dopt=Abstract,PublicationXref,Pubmed,
GC-PublicationXref-384,9851702,http://www.ncbi.nlm.nih.gov/pubmed/9851702?dopt=Abstract,PublicationXref,Pubmed,
GC-PublicationXref-385,19932572,http://www.ncbi.nlm.nih.gov/pubmed/19932572?dopt=Abstract,PublicationXref,Pubmed,
GC-PublicationXref-386,24699003,http://www.ncbi.nlm.nih.gov/pubmed/24699003?dopt=Abstract,PublicationXref,Pubmed,
GC-PublicationXref-387,25428893,http://www.ncbi.nlm.nih.gov/pubmed/25428893?dopt=Abstract,PublicationXref,Pubmed,
GC-PublicationXref-388,27301288,http://www.ncbi.nlm.nih.gov/pubmed/27301288?dopt=Abstract,PublicationXref,Pubmed,
GC-PublicationXref-389,25428893,http://www.ncbi.nlm.nih.gov/pubmed/25428893?dopt=Abstract,PublicationXref,Pubmed,
GC-PublicationXref-390,27301288,http://www.ncbi.nlm.nih.gov/pubmed/27301288?dopt=Abstract,PublicationXref,Pubmed,
GC-PublicationXref-391,24607538,http://www.ncbi.nlm.nih.gov/pubmed/24607538?dopt=Abstract,PublicationXref,Pubmed,
GC-PublicationXref-392,18422615,http://www.ncbi.nlm.nih.gov/pubmed/18422615?dopt=Abstract,PublicationXref,Pubmed,
GC-PublicationXref-393,17395169,http://www.ncbi.nlm.nih.gov/pubmed/17395169?dopt=Abstract,PublicationXref,Pubmed,
GC-PublicationXref-394,22244340,http://www.ncbi.nlm.nih.gov/pubmed/22244340?dopt=Abstract,PublicationXref,Pubmed,
GC-PublicationXref-395,24909379,http://www.ncbi.nlm.nih.gov/pubmed/24909379?dopt=Abstract,PublicationXref,Pubmed,
GC-PublicationXref-396,25428893,http://www.ncbi.nlm.nih.gov/pubmed/25428893?dopt=Abstract,PublicationXref,Pubmed,
GC-PublicationXref-397,26342864,http://www.ncbi.nlm.nih.gov/pubmed/26342864?dopt=Abstract,PublicationXref,Pubmed,
GC-PublicationXref-398,7588790,http://www.ncbi.nlm.nih.gov/pubmed/7588790?dopt=Abstract,PublicationXref,Pubmed,
GC-PublicationXref-399,17600060,http://www.ncbi.nlm.nih.gov/pubmed/17600060?dopt=Abstract,PublicationXref,Pubmed,
GC-PublicationXref-400,8536267,http://www.ncbi.nlm.nih.gov/pubmed/8536267?dopt=Abstract,PublicationXref,Pubmed,
GC-PublicationXref-401,16085897,http://www.ncbi.nlm.nih.gov/pubmed/16085897?dopt=Abstract,PublicationXref,Pubmed,
GC-PublicationXref-402,8536267,http://www.ncbi.nlm.nih.gov/pubmed/8536267?dopt=Abstract,PublicationXref,Pubmed,
GC-PublicationXref-403,25428893,http://www.ncbi.nlm.nih.gov/pubmed/25428893?dopt=Abstract,PublicationXref,Pubmed,
GC-PublicationXref-404,25898391,http://www.ncbi.nlm.nih.gov/pubmed/25898391?dopt=Abstract,PublicationXref,Pubmed,
GC-PublicationXref-405,16949062,http://www.ncbi.nlm.nih.gov/pubmed/16949062?dopt=Abstract,PublicationXref,Pubmed,
GC-PublicationXref-406,18457569,http://www.ncbi.nlm.nih.gov/pubmed/18457569?dopt=Abstract,PublicationXref,Pubmed,
GC-PublicationXref-407,15231783,http://www.ncbi.nlm.nih.gov/pubmed/15231783?dopt=Abstract,PublicationXref,Pubmed,
GC-PublicationXref-408,11598067,http://www.ncbi.nlm.nih.gov/pubmed/11598067?dopt=Abstract,PublicationXref,Pubmed,
GC-PublicationXref-409,27301288,http://www.ncbi.nlm.nih.gov/pubmed/27301288?dopt=Abstract,PublicationXref,Pubmed,
GC-PublicationXref-410,18227260,http://www.ncbi.nlm.nih.gov/pubmed/18227260?dopt=Abstract,PublicationXref,Pubmed,
GC-PublicationXref-411,6339053,http://www.ncbi.nlm.nih.gov/pubmed/6339053?dopt=Abstract,PublicationXref,Pubmed,
GC-PublicationXref-412,11976290,http://www.ncbi.nlm.nih.gov/pubmed/11976290?dopt=Abstract,PublicationXref,Pubmed,
GC-PublicationXref-413,7544238,http://www.ncbi.nlm.nih.gov/pubmed/7544238?dopt=Abstract,PublicationXref,Pubmed,
GC-PublicationXref-414,7525286,http://www.ncbi.nlm.nih.gov/pubmed/7525286?dopt=Abstract,PublicationXref,Pubmed,
GC-PublicationXref-415,17072668,http://www.ncbi.nlm.nih.gov/pubmed/17072668?dopt=Abstract,PublicationXref,Pubmed,
GC-PublicationXref-416,7679326,http://www.ncbi.nlm.nih.gov/pubmed/7679326?dopt=Abstract,PublicationXref,Pubmed,
GC-PublicationXref-417,18487334,http://www.ncbi.nlm.nih.gov/pubmed/18487334?dopt=Abstract,PublicationXref,Pubmed,
GC-PublicationXref-418,18422615,http://www.ncbi.nlm.nih.gov/pubmed/18422615?dopt=Abstract,PublicationXref,Pubmed,
GC-PublicationXref-419,334542,http://www.ncbi.nlm.nih.gov/pubmed/334542?dopt=Abstract,PublicationXref,Pubmed,
GC-PublicationXref-420,18695724,http://www.ncbi.nlm.nih.gov/pubmed/18695724?dopt=Abstract,PublicationXref,Pubmed,
GC-PublicationXref-421,15990253,http://www.ncbi.nlm.nih.gov/pubmed/15990253?dopt=Abstract,PublicationXref,Pubmed,
GC-PublicationXref-422,24558268,http://www.ncbi.nlm.nih.gov/pubmed/24558268?dopt=Abstract,PublicationXref,Pubmed,
GC-PublicationXref-423,,,PublicationXref,Pubmed,
GC-PublicationXref-424,28402541,http://www.ncbi.nlm.nih.gov/pubmed/28402541?dopt=Abstract,PublicationXref,Pubmed,
GC-PublicationXref-425,7504582,http://www.ncbi.nlm.nih.gov/pubmed/7504582?dopt=Abstract,PublicationXref,Pubmed,
GC-PublicationXref-426,10629949,http://www.ncbi.nlm.nih.gov/pubmed/10629949?dopt=Abstract,PublicationXref,Pubmed,
GC-PublicationXref-427,8536267,http://www.ncbi.nlm.nih.gov/pubmed/8536267?dopt=Abstract,PublicationXref,Pubmed,
GC-PublicationXref-428,17342059,http://www.ncbi.nlm.nih.gov/pubmed/17342059?dopt=Abstract,PublicationXref,Pubmed,
GC-PublicationXref-429,25193381,http://www.ncbi.nlm.nih.gov/pubmed/25193381?dopt=Abstract,PublicationXref,Pubmed,
GC-PublicationXref-430,332362,http://www.ncbi.nlm.nih.gov/pubmed/332362?dopt=Abstract,PublicationXref,Pubmed,
GC-PublicationXref-431,20110088,http://www.ncbi.nlm.nih.gov/pubmed/20110088?dopt=Abstract,PublicationXref,Pubmed,
GC-PublicationXref-432,20482625,http://www.ncbi.nlm.nih.gov/pubmed/20482625?dopt=Abstract,PublicationXref,Pubmed,
GC-PublicationXref-433,17600060,http://www.ncbi.nlm.nih.gov/pubmed/17600060?dopt=Abstract,PublicationXref,Pubmed,
GC-PublicationXref-434,7682949,http://www.ncbi.nlm.nih.gov/pubmed/7682949?dopt=Abstract,PublicationXref,Pubmed,
GC-PublicationXref-435,16594963,http://www.ncbi.nlm.nih.gov/pubmed/16594963?dopt=Abstract,PublicationXref,Pubmed,
GC-PublicationXref-436,19423083,http://www.ncbi.nlm.nih.gov/pubmed/19423083?dopt=Abstract,PublicationXref,Pubmed,
GC-PublicationXref-437,25428893,http://www.ncbi.nlm.nih.gov/pubmed/25428893?dopt=Abstract,PublicationXref,Pubmed,
GC-PublicationXref-438,1106850,http://www.ncbi.nlm.nih.gov/pubmed/1106850?dopt=Abstract,PublicationXref,Pubmed,
GC-PublicationXref-439,20434495,http://www.ncbi.nlm.nih.gov/pubmed/20434495?dopt=Abstract,PublicationXref,Pubmed,
GC-PublicationXref-440,23770694,http://www.ncbi.nlm.nih.gov/pubmed/23770694?dopt=Abstract,PublicationXref,Pubmed,
GC-PublicationXref-441,17600060,http://www.ncbi.nlm.nih.gov/pubmed/17600060?dopt=Abstract,PublicationXref,Pubmed,
GC-PublicationXref-442,11448680,http://www.ncbi.nlm.nih.gov/pubmed/11448680?dopt=Abstract,PublicationXref,Pubmed,
GC-PublicationXref-443,2444338,http://www.ncbi.nlm.nih.gov/pubmed/2444338?dopt=Abstract,PublicationXref,Pubmed,
GC-PublicationXref-444,19932572,http://www.ncbi.nlm.nih.gov/pubmed/19932572?dopt=Abstract,PublicationXref,Pubmed,
GC-PublicationXref-445,18422615,http://www.ncbi.nlm.nih.gov/pubmed/18422615?dopt=Abstract,PublicationXref,Pubmed,
GC-PublicationXref-446,27301288,http://www.ncbi.nlm.nih.gov/pubmed/27301288?dopt=Abstract,PublicationXref,Pubmed,
GC-PublicationXref-447,19836728,http://www.ncbi.nlm.nih.gov/pubmed/19836728?dopt=Abstract,PublicationXref,Pubmed,
GC-PublicationXref-448,7954513,http://www.ncbi.nlm.nih.gov/pubmed/7954513?dopt=Abstract,PublicationXref,Pubmed,
GC-PublicationXref-449,20501518,http://www.ncbi.nlm.nih.gov/pubmed/20501518?dopt=Abstract,PublicationXref,Pubmed,
GC-PublicationXref-450,2471591,http://www.ncbi.nlm.nih.gov/pubmed/2471591?dopt=Abstract,PublicationXref,Pubmed,
GC-PublicationXref-451,15713070,http://www.ncbi.nlm.nih.gov/pubmed/15713070?dopt=Abstract,PublicationXref,Pubmed,
GC-PublicationXref-452,18842005,http://www.ncbi.nlm.nih.gov/pubmed/18842005?dopt=Abstract,PublicationXref,Pubmed,
GC-PublicationXref-453,16332778,http://www.ncbi.nlm.nih.gov/pubmed/16332778?dopt=Abstract,PublicationXref,Pubmed,
GC-PublicationXref-454,16313893,http://www.ncbi.nlm.nih.gov/pubmed/16313893?dopt=Abstract,PublicationXref,Pubmed,
GC-PublicationXref-455,2471591,http://www.ncbi.nlm.nih.gov/pubmed/2471591?dopt=Abstract,PublicationXref,Pubmed,
GC-PublicationXref-456,15778030,http://www.ncbi.nlm.nih.gov/pubmed/15778030?dopt=Abstract,PublicationXref,Pubmed,
GC-PublicationXref-457,18422615,http://www.ncbi.nlm.nih.gov/pubmed/18422615?dopt=Abstract,PublicationXref,Pubmed,
GC-PublicationXref-458,8901274,http://www.ncbi.nlm.nih.gov/pubmed/8901274?dopt=Abstract,PublicationXref,Pubmed,
GC-PublicationXref-459,7528639,http://www.ncbi.nlm.nih.gov/pubmed/7528639?dopt=Abstract,PublicationXref,Pubmed,
GC-PublicationXref-460,10493787,http://www.ncbi.nlm.nih.gov/pubmed/10493787?dopt=Abstract,PublicationXref,Pubmed,
GC-PublicationXref-461,12392520,http://www.ncbi.nlm.nih.gov/pubmed/12392520?dopt=Abstract,PublicationXref,Pubmed,
GC-PublicationXref-462,25428893,http://www.ncbi.nlm.nih.gov/pubmed/25428893?dopt=Abstract,PublicationXref,Pubmed,
GC-PublicationXref-463,3566966,http://www.ncbi.nlm.nih.gov/pubmed/3566966?dopt=Abstract,PublicationXref,Pubmed,
GC-PublicationXref-464,6338031,http://www.ncbi.nlm.nih.gov/pubmed/6338031?dopt=Abstract,PublicationXref,Pubmed,
GC-PublicationXref-465,2422030,http://www.ncbi.nlm.nih.gov/pubmed/2422030?dopt=Abstract,PublicationXref,Pubmed,
GC-PublicationXref-466,7530967,http://www.ncbi.nlm.nih.gov/pubmed/7530967?dopt=Abstract,PublicationXref,Pubmed,
GC-PublicationXref-467,17400574,http://www.ncbi.nlm.nih.gov/pubmed/17400574?dopt=Abstract,PublicationXref,Pubmed,
GC-PublicationXref-468,19682076,http://www.ncbi.nlm.nih.gov/pubmed/19682076?dopt=Abstract,PublicationXref,Pubmed,
GC-PublicationXref-469,25428893,http://www.ncbi.nlm.nih.gov/pubmed/25428893?dopt=Abstract,PublicationXref,Pubmed,
GC-PublicationXref-470,27058293,http://www.ncbi.nlm.nih.gov/pubmed/27058293?dopt=Abstract,PublicationXref,Pubmed,
GC-PublicationXref-471,9060191,http://www.ncbi.nlm.nih.gov/pubmed/9060191?dopt=Abstract,PublicationXref,Pubmed,
GC-PublicationXref-472,22982615,http://www.ncbi.nlm.nih.gov/pubmed/22982615?dopt=Abstract,PublicationXref,Pubmed,
GC-PublicationXref-473,16121232,http://www.ncbi.nlm.nih.gov/pubmed/16121232?dopt=Abstract,PublicationXref,Pubmed,
GC-PublicationXref-474,20555398,http://www.ncbi.nlm.nih.gov/pubmed/20555398?dopt=Abstract,PublicationXref,Pubmed,
GC-PublicationXref-475,1291048,http://www.ncbi.nlm.nih.gov/pubmed/1291048?dopt=Abstract,PublicationXref,Pubmed,
GC-PublicationXref-476,3325166,http://www.ncbi.nlm.nih.gov/pubmed/3325166?dopt=Abstract,PublicationXref,Pubmed,
GC-PublicationXref-477,11404020,http://www.ncbi.nlm.nih.gov/pubmed/11404020?dopt=Abstract,PublicationXref,Pubmed,
GC-PublicationXref-478,15109730,http://www.ncbi.nlm.nih.gov/pubmed/15109730?dopt=Abstract,PublicationXref,Pubmed,
GC-PublicationXref-479,1712200,http://www.ncbi.nlm.nih.gov/pubmed/1712200?dopt=Abstract,PublicationXref,Pubmed,
GC-PublicationXref-480,27301288,http://www.ncbi.nlm.nih.gov/pubmed/27301288?dopt=Abstract,PublicationXref,Pubmed,
GC-PublicationXref-481,19040662,http://www.ncbi.nlm.nih.gov/pubmed/19040662?dopt=Abstract,PublicationXref,Pubmed,
GC-PublicationXref-482,20331420,http://www.ncbi.nlm.nih.gov/pubmed/20331420?dopt=Abstract,PublicationXref,Pubmed,
GC-PublicationXref-483,20964722,http://www.ncbi.nlm.nih.gov/pubmed/20964722?dopt=Abstract,PublicationXref,Pubmed,
GC-PublicationXref-484,23333950,http://www.ncbi.nlm.nih.gov/pubmed/23333950?dopt=Abstract,PublicationXref,Pubmed,
GC-PublicationXref-485,6339053,http://www.ncbi.nlm.nih.gov/pubmed/6339053?dopt=Abstract,PublicationXref,Pubmed,
GC-PublicationXref-486,4863044,http://www.ncbi.nlm.nih.gov/pubmed/4863044?dopt=Abstract,PublicationXref,Pubmed,
GC-PublicationXref-487,7542631,http://www.ncbi.nlm.nih.gov/pubmed/7542631?dopt=Abstract,PublicationXref,Pubmed,
GC-PublicationXref-488,9774562,http://www.ncbi.nlm.nih.gov/pubmed/9774562?dopt=Abstract,PublicationXref,Pubmed,
GC-PublicationXref-489,18156323,http://www.ncbi.nlm.nih.gov/pubmed/18156323?dopt=Abstract,PublicationXref,Pubmed,
GC-PublicationXref-490,18422615,http://www.ncbi.nlm.nih.gov/pubmed/18422615?dopt=Abstract,PublicationXref,Pubmed,
GC-PublicationXref-491,18062946,http://www.ncbi.nlm.nih.gov/pubmed/18062946?dopt=Abstract,PublicationXref,Pubmed,
GC-PublicationXref-492,18422615,http://www.ncbi.nlm.nih.gov/pubmed/18422615?dopt=Abstract,PublicationXref,Pubmed,
GC-PublicationXref-493,18308298,http://www.ncbi.nlm.nih.gov/pubmed/18308298?dopt=Abstract,PublicationXref,Pubmed,
GC-PublicationXref-494,7534644,http://www.ncbi.nlm.nih.gov/pubmed/7534644?dopt=Abstract,PublicationXref,Pubmed,
GC-PublicationXref-495,10531250,http://www.ncbi.nlm.nih.gov/pubmed/10531250?dopt=Abstract,PublicationXref,Pubmed,
GC-PublicationXref-496,6309515,http://www.ncbi.nlm.nih.gov/pubmed/6309515?dopt=Abstract,PublicationXref,Pubmed,
GC-PublicationXref-497,15297533,http://www.ncbi.nlm.nih.gov/pubmed/15297533?dopt=Abstract,PublicationXref,Pubmed,
GC-PublicationXref-498,23193180,http://www.ncbi.nlm.nih.gov/pubmed/23193180?dopt=Abstract,PublicationXref,Pubmed,
GC-PublicationXref-499,20561581,http://www.ncbi.nlm.nih.gov/pubmed/20561581?dopt=Abstract,PublicationXref,Pubmed,
GC-PublicationXref-500,10614068,http://www.ncbi.nlm.nih.gov/pubmed/10614068?dopt=Abstract,PublicationXref,Pubmed,
GC-PublicationXref-501,19040662,http://www.ncbi.nlm.nih.gov/pubmed/19040662?dopt=Abstract,PublicationXref,Pubmed,
GC-PublicationXref-502,17452091,http://www.ncbi.nlm.nih.gov/pubmed/17452091?dopt=Abstract,PublicationXref,Pubmed,
GC-PublicationXref-503,10782292,http://www.ncbi.nlm.nih.gov/pubmed/10782292?dopt=Abstract,PublicationXref,Pubmed,
GC-PublicationXref-504,21039922,http://www.ncbi.nlm.nih.gov/pubmed/21039922?dopt=Abstract,PublicationXref,Pubmed,
GC-PublicationXref-505,18673069,http://www.ncbi.nlm.nih.gov/pubmed/18673069?dopt=Abstract,PublicationXref,Pubmed,
GC-PublicationXref-506,1284112,http://www.ncbi.nlm.nih.gov/pubmed/1284112?dopt=Abstract,PublicationXref,Pubmed,
GC-PublicationXref-507,19932572,http://www.ncbi.nlm.nih.gov/pubmed/19932572?dopt=Abstract,PublicationXref,Pubmed,
GC-PublicationXref-508,22520503,http://www.ncbi.nlm.nih.gov/pubmed/22520503?dopt=Abstract,PublicationXref,Pubmed,
GC-PublicationXref-509,9373937,http://www.ncbi.nlm.nih.gov/pubmed/9373937?dopt=Abstract,PublicationXref,Pubmed,
GC-PublicationXref-510,12843098,http://www.ncbi.nlm.nih.gov/pubmed/12843098?dopt=Abstract,PublicationXref,Pubmed,
GC-PublicationXref-511,19502376,http://www.ncbi.nlm.nih.gov/pubmed/19502376?dopt=Abstract,PublicationXref,Pubmed,
GC-PublicationXref-512,17244797,http://www.ncbi.nlm.nih.gov/pubmed/17244797?dopt=Abstract,PublicationXref,Pubmed,
GC-PublicationXref-513,20181329,http://www.ncbi.nlm.nih.gov/pubmed/20181329?dopt=Abstract,PublicationXref,Pubmed,
GC-PublicationXref-514,18422615,http://www.ncbi.nlm.nih.gov/pubmed/18422615?dopt=Abstract,PublicationXref,Pubmed,
GC-PublicationXref-515,819266,http://www.ncbi.nlm.nih.gov/pubmed/819266?dopt=Abstract,PublicationXref,Pubmed,
GC-PublicationXref-516,328145,http://www.ncbi.nlm.nih.gov/pubmed/328145?dopt=Abstract,PublicationXref,Pubmed,
GC-PublicationXref-517,17081507,http://www.ncbi.nlm.nih.gov/pubmed/17081507?dopt=Abstract,PublicationXref,Pubmed,
GC-PublicationXref-518,8706764,http://www.ncbi.nlm.nih.gov/pubmed/8706764?dopt=Abstract,PublicationXref,Pubmed,
GC-PublicationXref-519,17452091,http://www.ncbi.nlm.nih.gov/pubmed/17452091?dopt=Abstract,PublicationXref,Pubmed,
GC-PublicationXref-520,15178392,http://www.ncbi.nlm.nih.gov/pubmed/15178392?dopt=Abstract,PublicationXref,Pubmed,
GC-PublicationXref-521,7514096,http://www.ncbi.nlm.nih.gov/pubmed/7514096?dopt=Abstract,PublicationXref,Pubmed,
GC-PublicationXref-522,7514096,http://www.ncbi.nlm.nih.gov/pubmed/7514096?dopt=Abstract,PublicationXref,Pubmed,
GC-PublicationXref-523,7693348,http://www.ncbi.nlm.nih.gov/pubmed/7693348?dopt=Abstract,PublicationXref,Pubmed,
GC-PublicationXref-524,20594547,http://www.ncbi.nlm.nih.gov/pubmed/20594547?dopt=Abstract,PublicationXref,Pubmed,
GC-PublicationXref-525,8556736,http://www.ncbi.nlm.nih.gov/pubmed/8556736?dopt=Abstract,PublicationXref,Pubmed,
GC-PublicationXref-526,14550554,http://www.ncbi.nlm.nih.gov/pubmed/14550554?dopt=Abstract,PublicationXref,Pubmed,
GC-PublicationXref-527,18237721,http://www.ncbi.nlm.nih.gov/pubmed/18237721?dopt=Abstract,PublicationXref,Pubmed,
GC-PublicationXref-528,18237721,http://www.ncbi.nlm.nih.gov/pubmed/18237721?dopt=Abstract,PublicationXref,Pubmed,
GC-PublicationXref-529,18237721,http://www.ncbi.nlm.nih.gov/pubmed/18237721?dopt=Abstract,PublicationXref,Pubmed,
GC-PublicationXref-530,18422615,http://www.ncbi.nlm.nih.gov/pubmed/18422615?dopt=Abstract,PublicationXref,Pubmed,
GC-PublicationXref-531,20546712,http://www.ncbi.nlm.nih.gov/pubmed/20546712?dopt=Abstract,PublicationXref,Pubmed,
GC-PublicationXref-532,18422615,http://www.ncbi.nlm.nih.gov/pubmed/18422615?dopt=Abstract,PublicationXref,Pubmed,
GC-PublicationXref-533,17375660,http://www.ncbi.nlm.nih.gov/pubmed/17375660?dopt=Abstract,PublicationXref,Pubmed,
GC-PublicationXref-534,25428893,http://www.ncbi.nlm.nih.gov/pubmed/25428893?dopt=Abstract,PublicationXref,Pubmed,
GC-PublicationXref-535,27863302,http://www.ncbi.nlm.nih.gov/pubmed/27863302?dopt=Abstract,PublicationXref,Pubmed,
GC-PublicationXref-536,25428893,http://www.ncbi.nlm.nih.gov/pubmed/25428893?dopt=Abstract,PublicationXref,Pubmed,
GC-PublicationXref-537,27101383,http://www.ncbi.nlm.nih.gov/pubmed/27101383?dopt=Abstract,PublicationXref,Pubmed,
GC-PublicationXref-538,25428893,http://www.ncbi.nlm.nih.gov/pubmed/25428893?dopt=Abstract,PublicationXref,Pubmed,
GC-PublicationXref-539,27203746,http://www.ncbi.nlm.nih.gov/pubmed/27203746?dopt=Abstract,PublicationXref,Pubmed,
GC-PublicationXref-540,25428893,http://www.ncbi.nlm.nih.gov/pubmed/25428893?dopt=Abstract,PublicationXref,Pubmed,
GC-PublicationXref-541,25898391,http://www.ncbi.nlm.nih.gov/pubmed/25898391?dopt=Abstract,PublicationXref,Pubmed,
GC-PublicationXref-542,18422615,http://www.ncbi.nlm.nih.gov/pubmed/18422615?dopt=Abstract,PublicationXref,Pubmed,
GC-PublicationXref-543,20546712,http://www.ncbi.nlm.nih.gov/pubmed/20546712?dopt=Abstract,PublicationXref,Pubmed,
GC-PublicationXref-544,10469128,http://www.ncbi.nlm.nih.gov/pubmed/10469128?dopt=Abstract,PublicationXref,Pubmed,
GC-PublicationXref-545,6189854,http://www.ncbi.nlm.nih.gov/pubmed/6189854?dopt=Abstract,PublicationXref,Pubmed,
GC-PublicationXref-546,25428893,http://www.ncbi.nlm.nih.gov/pubmed/25428893?dopt=Abstract,PublicationXref,Pubmed,
GC-PublicationXref-547,20561581,http://www.ncbi.nlm.nih.gov/pubmed/20561581?dopt=Abstract,PublicationXref,Pubmed,
GC-PublicationXref-548,26845703,http://www.ncbi.nlm.nih.gov/pubmed/26845703?dopt=Abstract,PublicationXref,Pubmed,
GC-PublicationXref-549,16280204,http://www.ncbi.nlm.nih.gov/pubmed/16280204?dopt=Abstract,PublicationXref,Pubmed,
GC-PublicationXref-550,9266698,http://www.ncbi.nlm.nih.gov/pubmed/9266698?dopt=Abstract,PublicationXref,Pubmed,
GC-PublicationXref-551,6338031,http://www.ncbi.nlm.nih.gov/pubmed/6338031?dopt=Abstract,PublicationXref,Pubmed,
GC-PublicationXref-552,9660194,http://www.ncbi.nlm.nih.gov/pubmed/9660194?dopt=Abstract,PublicationXref,Pubmed,
GC-PublicationXref-553,16280204,http://www.ncbi.nlm.nih.gov/pubmed/16280204?dopt=Abstract,PublicationXref,Pubmed,
GC-PublicationXref-554,25428893,http://www.ncbi.nlm.nih.gov/pubmed/25428893?dopt=Abstract,PublicationXref,Pubmed,
GC-PublicationXref-555,17449692,http://www.ncbi.nlm.nih.gov/pubmed/17449692?dopt=Abstract,PublicationXref,Pubmed,
GC-PublicationXref-556,9652410,http://www.ncbi.nlm.nih.gov/pubmed/9652410?dopt=Abstract,PublicationXref,Pubmed,
GC-PublicationXref-557,9119011,http://www.ncbi.nlm.nih.gov/pubmed/9119011?dopt=Abstract,PublicationXref,Pubmed,
GC-PublicationXref-558,21858784,http://www.ncbi.nlm.nih.gov/pubmed/21858784?dopt=Abstract,PublicationXref,Pubmed,
GC-PublicationXref-559,18422615,http://www.ncbi.nlm.nih.gov/pubmed/18422615?dopt=Abstract,PublicationXref,Pubmed,
GC-PublicationXref-560,8864232,http://www.ncbi.nlm.nih.gov/pubmed/8864232?dopt=Abstract,PublicationXref,Pubmed,
GC-PublicationXref-561,25061042,http://www.ncbi.nlm.nih.gov/pubmed/25061042?dopt=Abstract,PublicationXref,Pubmed,
GC-PublicationXref-562,15629947,http://www.ncbi.nlm.nih.gov/pubmed/15629947?dopt=Abstract,PublicationXref,Pubmed,
GC-PublicationXref-563,17452091,http://www.ncbi.nlm.nih.gov/pubmed/17452091?dopt=Abstract,PublicationXref,Pubmed,
GC-PublicationXref-564,17449692,http://www.ncbi.nlm.nih.gov/pubmed/17449692?dopt=Abstract,PublicationXref,Pubmed,
GC-PublicationXref-565,9492329,http://www.ncbi.nlm.nih.gov/pubmed/9492329?dopt=Abstract,PublicationXref,Pubmed,
GC-PublicationXref-566,18422615,http://www.ncbi.nlm.nih.gov/pubmed/18422615?dopt=Abstract,PublicationXref,Pubmed,
GC-PublicationXref-567,17185542,http://www.ncbi.nlm.nih.gov/pubmed/17185542?dopt=Abstract,PublicationXref,Pubmed,
GC-PublicationXref-568,18422615,http://www.ncbi.nlm.nih.gov/pubmed/18422615?dopt=Abstract,PublicationXref,Pubmed,
GC-PublicationXref-569,3046745,http://www.ncbi.nlm.nih.gov/pubmed/3046745?dopt=Abstract,PublicationXref,Pubmed,
GC-PublicationXref-570,17449692,http://www.ncbi.nlm.nih.gov/pubmed/17449692?dopt=Abstract,PublicationXref,Pubmed,
GC-PublicationXref-571,18422615,http://www.ncbi.nlm.nih.gov/pubmed/18422615?dopt=Abstract,PublicationXref,Pubmed,
GC-PublicationXref-572,16997291,http://www.ncbi.nlm.nih.gov/pubmed/16997291?dopt=Abstract,PublicationXref,Pubmed,
GC-PublicationXref-573,21039922,http://www.ncbi.nlm.nih.gov/pubmed/21039922?dopt=Abstract,PublicationXref,Pubmed,
GC-PublicationXref-574,18673069,http://www.ncbi.nlm.nih.gov/pubmed/18673069?dopt=Abstract,PublicationXref,Pubmed,
GC-PublicationXref-575,18422615,http://www.ncbi.nlm.nih.gov/pubmed/18422615?dopt=Abstract,PublicationXref,Pubmed,
GC-PublicationXref-576,18487334,http://www.ncbi.nlm.nih.gov/pubmed/18487334?dopt=Abstract,PublicationXref,Pubmed,
GC-PublicationXref-577,15620681,http://www.ncbi.nlm.nih.gov/pubmed/15620681?dopt=Abstract,PublicationXref,Pubmed,
GC-PublicationXref-578,7834647,http://www.ncbi.nlm.nih.gov/pubmed/7834647?dopt=Abstract,PublicationXref,Pubmed,
GC-PublicationXref-579,23872328,http://www.ncbi.nlm.nih.gov/pubmed/23872328?dopt=Abstract,PublicationXref,Pubmed,
GC-PublicationXref-580,15990253,http://www.ncbi.nlm.nih.gov/pubmed/15990253?dopt=Abstract,PublicationXref,Pubmed,
GC-PublicationXref-581,25428893,http://www.ncbi.nlm.nih.gov/pubmed/25428893?dopt=Abstract,PublicationXref,Pubmed,
GC-PublicationXref-582,27177202,http://www.ncbi.nlm.nih.gov/pubmed/27177202,PublicationXref,Pubmed,
GC-PublicationXref-583,10799808,http://www.ncbi.nlm.nih.gov/pubmed/10799808?dopt=Abstract,PublicationXref,Pubmed,
GC-PublicationXref-584,3008786,http://www.ncbi.nlm.nih.gov/pubmed/3008786?dopt=Abstract,PublicationXref,Pubmed,
GC-PublicationXref-585,10981707,http://www.ncbi.nlm.nih.gov/pubmed/10981707?dopt=Abstract,PublicationXref,Pubmed,
GC-PublicationXref-586,1691146,http://www.ncbi.nlm.nih.gov/pubmed/1691146?dopt=Abstract,PublicationXref,Pubmed,
GC-PublicationXref-587,3815404,http://www.ncbi.nlm.nih.gov/pubmed/3815404?dopt=Abstract,PublicationXref,Pubmed,
GC-PublicationXref-588,9673232,https://www.ncbi.nlm.nih.gov/pubmed/9673232?dopt=Abstract,PublicationXref,Pubmed,
GC-PublicationXref-589,10637986,http://www.ncbi.nlm.nih.gov/pubmed/10637986?dopt=Abstract,PublicationXref,Pubmed,
GC-PublicationXref-590,21861990,http://www.ncbi.nlm.nih.gov/pubmed/21861990?dopt=Abstract,PublicationXref,Pubmed,
GC-PublicationXref-591,20561581,http://www.ncbi.nlm.nih.gov/pubmed/20561581?dopt=Abstract,PublicationXref,Pubmed,
GC-PublicationXref-592,18422615,http://www.ncbi.nlm.nih.gov/pubmed/18422615?dopt=Abstract,PublicationXref,Pubmed,
GC-PublicationXref-593,10542072,http://www.ncbi.nlm.nih.gov/pubmed/10542072?dopt=Abstract,PublicationXref,Pubmed,
GC-PublicationXref-594,,,PublicationXref,Pubmed,
GC-PublicationXref-595,20510395,http://www.ncbi.nlm.nih.gov/pubmed/20510395?dopt=Abstract,PublicationXref,Pubmed,
GC-PublicationXref-596,25665776,http://www.ncbi.nlm.nih.gov/pubmed/25665776?dopt=Abstract,PublicationXref,Pubmed,
GC-PublicationXref-597,18422615,http://www.ncbi.nlm.nih.gov/pubmed/18422615?dopt=Abstract,PublicationXref,Pubmed,
GC-PublicationXref-598,10561586,http://www.ncbi.nlm.nih.gov/pubmed/10561586?dopt=Abstract,PublicationXref,Pubmed,
GC-PublicationXref-599,20561581,http://www.ncbi.nlm.nih.gov/pubmed/20561581?dopt=Abstract,PublicationXref,Pubmed,
GC-PublicationXref-600,26582605,http://www.ncbi.nlm.nih.gov/pubmed/26582605?dopt=Abstract,PublicationXref,Pubmed,
GC-PublicationXref-601, P17182015,http://www.ncbi.nlm.nih.gov/pubmed/P17182015?dopt=Abstract,PublicationXref,Pubmed,
GC-PublicationXref-602,18422615,http://www.ncbi.nlm.nih.gov/pubmed/18422615?dopt=Abstract,PublicationXref,Pubmed,
GC-PublicationXref-603,9208951,http://www.ncbi.nlm.nih.gov/pubmed/9208951?dopt=Abstract,PublicationXref,Pubmed,
GC-PublicationXref-604,6341404,http://www.ncbi.nlm.nih.gov/pubmed/6341404?dopt=Abstract,PublicationXref,Pubmed,
GC-PublicationXref-605,18422615,http://www.ncbi.nlm.nih.gov/pubmed/18422615?dopt=Abstract,PublicationXref,Pubmed,
GC-PublicationXref-606,18695724,http://www.ncbi.nlm.nih.gov/pubmed/18695724?dopt=Abstract,PublicationXref,Pubmed,
GC-PublicationXref-607,17880932,http://www.ncbi.nlm.nih.gov/pubmed/17880932?dopt=Abstract,PublicationXref,Pubmed,
GC-PublicationXref-608,25428893,http://www.ncbi.nlm.nih.gov/pubmed/25428893?dopt=Abstract,PublicationXref,Pubmed,
GC-PublicationXref-609,25428893,http://www.ncbi.nlm.nih.gov/pubmed/25428893?dopt=Abstract,PublicationXref,Pubmed,
GC-PublicationXref-610,26382081,http://www.ncbi.nlm.nih.gov/pubmed/26382081?dopt=Abstract,PublicationXref,Pubmed,
GC-PublicationXref-611,16697991,http://www.ncbi.nlm.nih.gov/pubmed/16697991?dopt=Abstract,PublicationXref,Pubmed,
GC-PublicationXref-612,11298740,http://www.ncbi.nlm.nih.gov/pubmed/11298740?dopt=Abstract,PublicationXref,Pubmed,
GC-PublicationXref-613,14702307,http://www.ncbi.nlm.nih.gov/pubmed/14702307?dopt=Abstract,PublicationXref,Pubmed,
GC-PublicationXref-614,15186455,http://www.ncbi.nlm.nih.gov/pubmed/15186455?dopt=Abstract,PublicationXref,Pubmed,
GC-PublicationXref-615,10573858,http://www.ncbi.nlm.nih.gov/pubmed/10573858?dopt=Abstract,PublicationXref,Pubmed,
GC-PublicationXref-616,20561581,http://www.ncbi.nlm.nih.gov/pubmed/20561581?dopt=Abstract,PublicationXref,Pubmed,
GC-PublicationXref-617,15601305,http://www.ncbi.nlm.nih.gov/pubmed/15601305?dopt=Abstract,PublicationXref,Pubmed,
GC-PublicationXref-618,16207976,http://www.ncbi.nlm.nih.gov/pubmed/16207976?dopt=Abstract,PublicationXref,Pubmed,
GC-PublicationXref-619,10200954,http://www.ncbi.nlm.nih.gov/pubmed/10200954?dopt=Abstract,PublicationXref,Pubmed,
GC-PublicationXref-620,22572125,http://www.ncbi.nlm.nih.gov/pubmed/22572125?dopt=Abstract,PublicationXref,Pubmed,
GC-PublicationXref-621,23567515,http://www.ncbi.nlm.nih.gov/pubmed/23567515?dopt=Abstract,PublicationXref,Pubmed,
GC-PublicationXref-622,15601305,http://www.ncbi.nlm.nih.gov/pubmed/15601305?dopt=Abstract,PublicationXref,Pubmed,
GC-PublicationXref-623,21215391,http://www.ncbi.nlm.nih.gov/pubmed/21215391?dopt=Abstract,PublicationXref,Pubmed,
GC-PublicationXref-624,15601305,http://www.ncbi.nlm.nih.gov/pubmed/15601305?dopt=Abstract,PublicationXref,Pubmed,
GC-PublicationXref-625,18237723,http://www.ncbi.nlm.nih.gov/pubmed/18237723?dopt=Abstract,PublicationXref,Pubmed,
GC-PublicationXref-626,15601305,http://www.ncbi.nlm.nih.gov/pubmed/15601305?dopt=Abstract,PublicationXref,Pubmed,
GC-PublicationXref-627,16207976,http://www.ncbi.nlm.nih.gov/pubmed/16207976?dopt=Abstract,PublicationXref,Pubmed,
GC-PublicationXref-628,21867992,http://www.ncbi.nlm.nih.gov/pubmed/21867992?dopt=Abstract,PublicationXref,Pubmed,
GC-PublicationXref-629,16005446,http://www.ncbi.nlm.nih.gov/pubmed/16005446?dopt=Abstract,PublicationXref,Pubmed,
GC-PublicationXref-630,1804534,http://www.ncbi.nlm.nih.gov/pubmed/1804534?dopt=Abstract,PublicationXref,Pubmed,
GC-PublicationXref-631,22730467,http://www.ncbi.nlm.nih.gov/pubmed/22730467?dopt=Abstract,PublicationXref,Pubmed,
GC-PublicationXref-632,15601305,http://www.ncbi.nlm.nih.gov/pubmed/15601305?dopt=Abstract,PublicationXref,Pubmed,
GC-PublicationXref-633,25428893,http://www.ncbi.nlm.nih.gov/pubmed/25428893?dopt=Abstract,PublicationXref,Pubmed,
GC-PublicationXref-634,25428893,http://www.ncbi.nlm.nih.gov/pubmed/25428893?dopt=Abstract,PublicationXref,Pubmed,
GC-PublicationXref-635,25428893,http://www.ncbi.nlm.nih.gov/pubmed/25428893?dopt=Abstract,PublicationXref,Pubmed,
GC-PublicationXref-636,25428893,http://www.ncbi.nlm.nih.gov/pubmed/25428893?dopt=Abstract,PublicationXref,Pubmed,
GC-PublicationXref-637,25428893,http://www.ncbi.nlm.nih.gov/pubmed/25428893?dopt=Abstract,PublicationXref,Pubmed,
GC-PublicationXref-638,25428893,http://www.ncbi.nlm.nih.gov/pubmed/25428893?dopt=Abstract,PublicationXref,Pubmed,
GC-PublicationXref-639,21439556,https://www.ncbi.nlm.nih.gov/pubmed/21439556?dopt=Abstract,PublicationXref,Pubmed,
GC-PublicationXref-640,29660546,https://www.ncbi.nlm.nih.gov/pubmed/29660546?dopt=Abstract,PublicationXref,Pubmed,
GC-PublicationXref-641,30346540,https://www.ncbi.nlm.nih.gov/pubmed/30346540?dopt=Abstract,PublicationXref,Pubmed,
GC-PublicationXref-642,29738687,https://www.ncbi.nlm.nih.gov/pubmed/29738687?dopt=Abstract,PublicationXref,Pubmed,
GC-PublicationXref-643,27083849,https://www.ncbi.nlm.nih.gov/pubmed/27083849?dopt=Abstract,PublicationXref,Pubmed,
GC-PublicationXref-644,26297000,https://www.ncbi.nlm.nih.gov/pubmed/26297000?dopt=Abstract,PublicationXref,Pubmed,