ProteinReference,bp:xref,bp:type,
GC-ProteinReference-00301,GC-UniXref-05001,ProteinReference,
GC-ProteinReference-00302,GC-UniXref-05002,ProteinReference,
GC-ProteinReference-00303,GC-UniXref-05003,ProteinReference,
GC-ProteinReference-00304,GC-UniXref-05004,ProteinReference,
GC-ProteinReference-00305,GC-UniXref-05005,ProteinReference,
GC-ProteinReference-00306,GC-UniXref-05006,ProteinReference,
GC-ProteinReference-00307,GC-UniXref-05007,ProteinReference,
GC-ProteinReference-00308,GC-UniXref-05008,ProteinReference,
GC-ProteinReference-00309,GC-UniXref-05009,ProteinReference,
GC-ProteinReference-00310,GC-UniXref-05010,ProteinReference,
GC-ProteinReference-00311,GC-UniXref-05011,ProteinReference,
GC-ProteinReference-00312,GC-UniXref-05012,ProteinReference,
GC-ProteinReference-00313,GC-UniXref-05013,ProteinReference,
GC-ProteinReference-00314,GC-UniXref-05014,ProteinReference,
GC-ProteinReference-00315,GC-UniXref-05015,ProteinReference,
GC-ProteinReference-00316,GC-UniXref-05016,ProteinReference,
GC-ProteinReference-00317,GC-UniXref-05017,ProteinReference,
GC-ProteinReference-00318,GC-UniXref-05018,ProteinReference,
GC-ProteinReference-00319,GC-UniXref-05019,ProteinReference,
GC-ProteinReference-00320,GC-UniXref-05020,ProteinReference,
GC-ProteinReference-00321,GC-UniXref-05021,ProteinReference,
GC-ProteinReference-00322,GC-UniXref-05022,ProteinReference,
GC-ProteinReference-00323,GC-UniXref-05023,ProteinReference,
GC-ProteinReference-00324,GC-UniXref-05024,ProteinReference,
GC-ProteinReference-00325,GC-UniXref-05025,ProteinReference,
GC-ProteinReference-00326,GC-UniXref-05026,ProteinReference,
GC-ProteinReference-00327,GC-UniXref-05027,ProteinReference,
GC-ProteinReference-00328,GC-UniXref-05028,ProteinReference,
GC-ProteinReference-00329,GC-UniXref-05029,ProteinReference,
GC-ProteinReference-00330,GC-UniXref-05030,ProteinReference,
GC-ProteinReference-00331,GC-UniXref-05031,ProteinReference,
GC-ProteinReference-00332,GC-UniXref-05032,ProteinReference,
GC-ProteinReference-00333,GC-UniXref-05033,ProteinReference,
GC-ProteinReference-00334,GC-UniXref-05034,ProteinReference,
GC-ProteinReference-00335,GC-UniXref-05035,ProteinReference,
GC-ProteinReference-00336,GC-UniXref-05036,ProteinReference,
GC-ProteinReference-00337,GC-UniXref-05037,ProteinReference,
GC-ProteinReference-00338,GC-UniXref-05038,ProteinReference,
GC-ProteinReference-00339,GC-UniXref-05039,ProteinReference,
GC-ProteinReference-00340,GC-UniXref-05040,ProteinReference,
GC-ProteinReference-00341,GC-UniXref-05041,ProteinReference,
GC-ProteinReference-00342,GC-UniXref-05042,ProteinReference,
GC-ProteinReference-00343,GC-UniXref-05043,ProteinReference,
GC-ProteinReference-00344,GC-UniXref-05044,ProteinReference,
GC-ProteinReference-00345,GC-UniXref-05045,ProteinReference,
GC-ProteinReference-00346,GC-UniXref-05046,ProteinReference,
GC-ProteinReference-00347,GC-UniXref-05047,ProteinReference,
GC-ProteinReference-00348,GC-UniXref-05048,ProteinReference,
GC-ProteinReference-00349,GC-UniXref-05049,ProteinReference,
GC-ProteinReference-00350,GC-UniXref-05050,ProteinReference,
GC-ProteinReference-00351,GC-UniXref-05051,ProteinReference,
GC-ProteinReference-00352,GC-UniXref-05052,ProteinReference,
GC-ProteinReference-00353,GC-UniXref-05053,ProteinReference,
GC-ProteinReference-00354,GC-UniXref-05054,ProteinReference,
GC-ProteinReference-00355,GC-UniXref-05055,ProteinReference,
GC-ProteinReference-00356,GC-UniXref-05056,ProteinReference,
GC-ProteinReference-00357,GC-UniXref-05057,ProteinReference,
GC-ProteinReference-00358,GC-UniXref-05058,ProteinReference,
GC-ProteinReference-00359,GC-UniXref-05059,ProteinReference,
GC-ProteinReference-00360,GC-UniXref-05060,ProteinReference,
GC-ProteinReference-00361,GC-UniXref-05061,ProteinReference,
GC-ProteinReference-00362,GC-UniXref-05062,ProteinReference,
GC-ProteinReference-00363,GC-UniXref-05063,ProteinReference,
GC-ProteinReference-00364,GC-UniXref-05064,ProteinReference,
GC-ProteinReference-00365,GC-UniXref-05065,ProteinReference,
GC-ProteinReference-00366,GC-UniXref-05066,ProteinReference,
GC-ProteinReference-00367,GC-UniXref-05067,ProteinReference,
GC-ProteinReference-00368,GC-UniXref-05068,ProteinReference,
GC-ProteinReference-00369,GC-UniXref-05069,ProteinReference,
GC-ProteinReference-00370,GC-UniXref-05070,ProteinReference,
GC-ProteinReference-00371,GC-UniXref-05071,ProteinReference,
GC-ProteinReference-00372,GC-UniXref-05072,ProteinReference,
GC-ProteinReference-00373,GC-UniXref-05073,ProteinReference,
GC-ProteinReference-00374,GC-UniXref-05074,ProteinReference,
GC-ProteinReference-00375,GC-UniXref-05075,ProteinReference,
GC-ProteinReference-00376,GC-UniXref-05076,ProteinReference,
GC-ProteinReference-00377,GC-UniXref-05077,ProteinReference,
GC-ProteinReference-00378,GC-UniXref-05078,ProteinReference,
GC-ProteinReference-00379,GC-UniXref-05079,ProteinReference,
GC-ProteinReference-00380,GC-UniXref-05080,ProteinReference,
GC-ProteinReference-00381,GC-UniXref-05081,ProteinReference,
GC-ProteinReference-00382,GC-UniXref-05082,ProteinReference,
GC-ProteinReference-00383,GC-UniXref-05083,ProteinReference,
GC-ProteinReference-00384,GC-UniXref-05084,ProteinReference,
GC-ProteinReference-00385,GC-UniXref-05085,ProteinReference,
GC-ProteinReference-00386,GC-UniXref-05086,ProteinReference,
GC-ProteinReference-00387,GC-UniXref-05087,ProteinReference,
GC-ProteinReference-00388,GC-UniXref-05088,ProteinReference,
GC-ProteinReference-00389,GC-UniXref-05089,ProteinReference,
GC-ProteinReference-00390,GC-UniXref-05090,ProteinReference,
GC-ProteinReference-00391,GC-UniXref-05091,ProteinReference,
GC-ProteinReference-00392,GC-UniXref-05092,ProteinReference,
GC-ProteinReference-00393,GC-UniXref-05093,ProteinReference,
GC-ProteinReference-00394,GC-UniXref-05094,ProteinReference,
GC-ProteinReference-00395,GC-UniXref-05095,ProteinReference,
GC-ProteinReference-00396,GC-UniXref-05096,ProteinReference,
GC-ProteinReference-00397,GC-UniXref-05097,ProteinReference,
GC-ProteinReference-00398,GC-UniXref-05098,ProteinReference,
GC-ProteinReference-00399,GC-UniXref-05099,ProteinReference,
GC-ProteinReference-00400,GC-UniXref-05100,ProteinReference,
GC-ProteinReference-00401,GC-UniXref-05101,ProteinReference,
GC-ProteinReference-00402,GC-UniXref-05102,ProteinReference,
GC-ProteinReference-00403,GC-UniXref-05103,ProteinReference,
GC-ProteinReference-00404,GC-UniXref-05104,ProteinReference,
GC-ProteinReference-00405,GC-UniXref-05105,ProteinReference,
GC-ProteinReference-00406,GC-UniXref-05106,ProteinReference,
GC-ProteinReference-00407,GC-UniXref-05107,ProteinReference,
GC-ProteinReference-00408,GC-UniXref-05108,ProteinReference,
GC-ProteinReference-00409,GC-UniXref-05109,ProteinReference,
GC-ProteinReference-00410,GC-UniXref-05110,ProteinReference,
GC-ProteinReference-00411,GC-UniXref-05111,ProteinReference,
GC-ProteinReference-00412,GC-UniXref-05112,ProteinReference,
GC-ProteinReference-00413,GC-UniXref-05113,ProteinReference,
GC-ProteinReference-00414,GC-UniXref-05114,ProteinReference,
GC-ProteinReference-00415,GC-UniXref-05115,ProteinReference,
GC-ProteinReference-00416,GC-UniXref-05116,ProteinReference,
GC-ProteinReference-00417,GC-UniXref-05117,ProteinReference,
GC-ProteinReference-00418,GC-UniXref-05118,ProteinReference,
GC-ProteinReference-00419,GC-UniXref-05119,ProteinReference,
GC-ProteinReference-00420,GC-UniXref-05120,ProteinReference,
GC-ProteinReference-00421,GC-UniXref-05121,ProteinReference,
GC-ProteinReference-00422,GC-UniXref-05122,ProteinReference,
GC-ProteinReference-00423,GC-UniXref-05123,ProteinReference,
GC-ProteinReference-00424,GC-UniXref-05124,ProteinReference,
GC-ProteinReference-00425,GC-UniXref-05125,ProteinReference,
GC-ProteinReference-00426,GC-UniXref-05126,ProteinReference,
GC-ProteinReference-00427,GC-UniXref-05127,ProteinReference,
GC-ProteinReference-00428,GC-UniXref-05128,ProteinReference,
GC-ProteinReference-00429,GC-UniXref-05129,ProteinReference,
GC-ProteinReference-00430,GC-UniXref-05130,ProteinReference,
GC-ProteinReference-00431,GC-UniXref-05131,ProteinReference,
GC-ProteinReference-00432,GC-UniXref-05132,ProteinReference,
GC-ProteinReference-00433,GC-UniXref-05133,ProteinReference,
GC-ProteinReference-00434,GC-UniXref-05134,ProteinReference,
GC-ProteinReference-00435,GC-UniXref-05135,ProteinReference,
GC-ProteinReference-00436,GC-UniXref-05136,ProteinReference,
GC-ProteinReference-00437,GC-UniXref-05137,ProteinReference,
GC-ProteinReference-00438,GC-UniXref-05138,ProteinReference,
GC-ProteinReference-00439,GC-UniXref-05139,ProteinReference,
GC-ProteinReference-00440,GC-UniXref-05140,ProteinReference,
GC-ProteinReference-00441,GC-UniXref-05141,ProteinReference,
GC-ProteinReference-00442,GC-UniXref-05142,ProteinReference,
GC-ProteinReference-00443,GC-UniXref-05143,ProteinReference,
GC-ProteinReference-00444,GC-UniXref-05144,ProteinReference,
GC-ProteinReference-00445,GC-UniXref-05145,ProteinReference,
GC-ProteinReference-00446,GC-UniXref-05146,ProteinReference,
GC-ProteinReference-00447,GC-UniXref-05147,ProteinReference,
GC-ProteinReference-00448,GC-UniXref-05148,ProteinReference,
GC-ProteinReference-00449,GC-UniXref-05149,ProteinReference,
GC-ProteinReference-00450,GC-UniXref-05150,ProteinReference,
GC-ProteinReference-00451,GC-UniXref-05151,ProteinReference,
GC-ProteinReference-00452,GC-UniXref-05152,ProteinReference,
GC-ProteinReference-00453,GC-UniXref-05153,ProteinReference,
GC-ProteinReference-00454,GC-UniXref-05154,ProteinReference,
GC-ProteinReference-00455,GC-UniXref-05155,ProteinReference,
GC-ProteinReference-00456,GC-UniXref-05156,ProteinReference,
GC-ProteinReference-00457,GC-UniXref-05157,ProteinReference,
GC-ProteinReference-00458,GC-UniXref-05158,ProteinReference,
GC-ProteinReference-00459,GC-UniXref-05159,ProteinReference,
GC-ProteinReference-00460,GC-UniXref-05160,ProteinReference,
GC-ProteinReference-00461,GC-UniXref-05161,ProteinReference,
GC-ProteinReference-00462,GC-UniXref-05162,ProteinReference,
GC-ProteinReference-00463,GC-UniXref-05163,ProteinReference,
GC-ProteinReference-00464,GC-UniXref-05164,ProteinReference,
GC-ProteinReference-00465,GC-UniXref-05165,ProteinReference,
GC-ProteinReference-00466,GC-UniXref-05166,ProteinReference,
GC-ProteinReference-00467,GC-UniXref-05167,ProteinReference,
GC-ProteinReference-00468,GC-UniXref-05168,ProteinReference,
GC-ProteinReference-00469,GC-UniXref-05169,ProteinReference,
GC-ProteinReference-00470,GC-UniXref-05170,ProteinReference,
GC-ProteinReference-00471,GC-UniXref-05171,ProteinReference,
GC-ProteinReference-00472,GC-UniXref-05172,ProteinReference,
GC-ProteinReference-00473,GC-UniXref-05173,ProteinReference,
GC-ProteinReference-00474,GC-UniXref-05174,ProteinReference,
GC-ProteinReference-00475,GC-UniXref-05175,ProteinReference,
GC-ProteinReference-00476,GC-UniXref-05176,ProteinReference,
GC-ProteinReference-00477,GC-UniXref-05177,ProteinReference,
GC-ProteinReference-00478,GC-UniXref-05178,ProteinReference,
GC-ProteinReference-00479,GC-UniXref-05179,ProteinReference,
GC-ProteinReference-00480,GC-UniXref-05180,ProteinReference,
GC-ProteinReference-00481,GC-UniXref-05181,ProteinReference,
GC-ProteinReference-00482,GC-UniXref-05182,ProteinReference,
GC-ProteinReference-00483,GC-UniXref-05183,ProteinReference,
GC-ProteinReference-00484,GC-UniXref-05184,ProteinReference,
GC-ProteinReference-00485,GC-UniXref-05185,ProteinReference,
GC-ProteinReference-00486,GC-UniXref-05186,ProteinReference,
GC-ProteinReference-00487,GC-UniXref-05187,ProteinReference,
GC-ProteinReference-00488,GC-UniXref-05188,ProteinReference,
GC-ProteinReference-00489,GC-UniXref-05189,ProteinReference,
GC-ProteinReference-00490,GC-UniXref-05190,ProteinReference,
GC-ProteinReference-00491,GC-UniXref-05191,ProteinReference,
GC-ProteinReference-00492,GC-UniXref-05192,ProteinReference,
GC-ProteinReference-00493,GC-UniXref-05193,ProteinReference,
GC-ProteinReference-00494,GC-UniXref-05194,ProteinReference,
GC-ProteinReference-00495,GC-UniXref-05195,ProteinReference,
GC-ProteinReference-00496,GC-UniXref-05196,ProteinReference,
GC-ProteinReference-00497,GC-UniXref-05197,ProteinReference,
GC-ProteinReference-00498,GC-UniXref-05198,ProteinReference,
GC-ProteinReference-00499,GC-UniXref-05199,ProteinReference,
GC-ProteinReference-00500,GC-UniXref-05200,ProteinReference,
GC-ProteinReference-00501,GC-UniXref-05201,ProteinReference,
GC-ProteinReference-00502,GC-UniXref-05202,ProteinReference,
GC-ProteinReference-00503,GC-UniXref-05203,ProteinReference,
GC-ProteinReference-00504,GC-UniXref-05204,ProteinReference,
GC-ProteinReference-00505,GC-UniXref-05205,ProteinReference,
GC-ProteinReference-00506,GC-UniXref-05206,ProteinReference,
GC-ProteinReference-00507,GC-UniXref-05207,ProteinReference,
GC-ProteinReference-00508,GC-UniXref-05208,ProteinReference,
GC-ProteinReference-00509,GC-UniXref-05209,ProteinReference,
GC-ProteinReference-00510,GC-UniXref-05210,ProteinReference,
GC-ProteinReference-00511,GC-UniXref-05211,ProteinReference,
GC-ProteinReference-00512,GC-UniXref-05212,ProteinReference,
GC-ProteinReference-00513,GC-UniXref-05213,ProteinReference,
GC-ProteinReference-00514,GC-UniXref-05214,ProteinReference,
GC-ProteinReference-00515,GC-UniXref-05215,ProteinReference,
GC-ProteinReference-00516,GC-UniXref-05216,ProteinReference,
GC-ProteinReference-00517,GC-UniXref-05217,ProteinReference,
GC-ProteinReference-00518,GC-UniXref-05218,ProteinReference,
GC-ProteinReference-00519,GC-UniXref-05219,ProteinReference,
GC-ProteinReference-00520,GC-UniXref-05220,ProteinReference,
GC-ProteinReference-00521,GC-UniXref-05221,ProteinReference,
GC-ProteinReference-00522,GC-UniXref-05222,ProteinReference,
GC-ProteinReference-00523,GC-UniXref-05223,ProteinReference,
GC-ProteinReference-00524,GC-UniXref-05224,ProteinReference,
GC-ProteinReference-00525,GC-UniXref-05225,ProteinReference,
GC-ProteinReference-00526,GC-UniXref-05226,ProteinReference,
GC-ProteinReference-00527,GC-UniXref-05227,ProteinReference,
GC-ProteinReference-00528,GC-UniXref-05228,ProteinReference,
GC-ProteinReference-00529,GC-UniXref-05229,ProteinReference,
GC-ProteinReference-00530,GC-UniXref-05230,ProteinReference,
GC-ProteinReference-00531,GC-UniXref-05231,ProteinReference,
GC-ProteinReference-00532,GC-UniXref-05232,ProteinReference,
GC-ProteinReference-00533,GC-UniXref-05233,ProteinReference,
GC-ProteinReference-00534,GC-UniXref-05234,ProteinReference,
GC-ProteinReference-00535,GC-UniXref-05235,ProteinReference,
GC-ProteinReference-00536,GC-UniXref-05236,ProteinReference,
GC-ProteinReference-00537,GC-UniXref-05237,ProteinReference,
GC-ProteinReference-00538,GC-UniXref-05238,ProteinReference,
GC-ProteinReference-00539,GC-UniXref-05239,ProteinReference,
GC-ProteinReference-00540,GC-UniXref-05240,ProteinReference,
GC-ProteinReference-00541,GC-UniXref-05241,ProteinReference,
GC-ProteinReference-00542,GC-UniXref-05242,ProteinReference,
GC-ProteinReference-00543,GC-UniXref-05243,ProteinReference,
GC-ProteinReference-00544,GC-UniXref-05244,ProteinReference,
GC-ProteinReference-00545,GC-UniXref-05245,ProteinReference,
GC-ProteinReference-00546,GC-UniXref-05246,ProteinReference,
GC-ProteinReference-00547,GC-UniXref-05247,ProteinReference,
GC-ProteinReference-00548,GC-UniXref-05248,ProteinReference,
GC-ProteinReference-00549,GC-UniXref-05249,ProteinReference,
GC-ProteinReference-00550,GC-UniXref-05250,ProteinReference,
GC-ProteinReference-00551,GC-UniXref-05251,ProteinReference,
GC-ProteinReference-00552,GC-UniXref-05252,ProteinReference,
GC-ProteinReference-00553,GC-UniXref-05253,ProteinReference,
GC-ProteinReference-00554,GC-UniXref-05254,ProteinReference,
GC-ProteinReference-00555,GC-UniXref-05255,ProteinReference,
GC-ProteinReference-00556,GC-UniXref-05256,ProteinReference,
GC-ProteinReference-00557,GC-UniXref-05257,ProteinReference,
GC-ProteinReference-00558,GC-UniXref-05258,ProteinReference,
GC-ProteinReference-00559,GC-UniXref-05259,ProteinReference,
GC-ProteinReference-00560,GC-UniXref-05260,ProteinReference,
GC-ProteinReference-00561,GC-UniXref-05261,ProteinReference,
GC-ProteinReference-00562,GC-UniXref-05262,ProteinReference,
GC-ProteinReference-00563,GC-UniXref-05263,ProteinReference,
GC-ProteinReference-00564,GC-UniXref-05264,ProteinReference,
GC-ProteinReference-00565,GC-UniXref-05265,ProteinReference,
GC-ProteinReference-00566,GC-UniXref-05266,ProteinReference,
GC-ProteinReference-00567,GC-UniXref-05267,ProteinReference,
GC-ProteinReference-00568,GC-UniXref-05268,ProteinReference,
GC-ProteinReference-00569,GC-UniXref-05269,ProteinReference,
GC-ProteinReference-00570,GC-UniXref-05270,ProteinReference,
GC-ProteinReference-00571,GC-UniXref-05271,ProteinReference,
GC-ProteinReference-00572,GC-UniXref-05272,ProteinReference,
GC-ProteinReference-00573,GC-UniXref-05273,ProteinReference,
GC-ProteinReference-00574,GC-UniXref-05274,ProteinReference,
GC-ProteinReference-00575,GC-UniXref-05275,ProteinReference,
GC-ProteinReference-00576,GC-UniXref-05276,ProteinReference,
GC-ProteinReference-00577,GC-UniXref-05277,ProteinReference,
GC-ProteinReference-00578,GC-UniXref-05278,ProteinReference,
GC-ProteinReference-00579,GC-UniXref-05279,ProteinReference,
GC-ProteinReference-00580,GC-UniXref-05280,ProteinReference,
GC-ProteinReference-00581,GC-UniXref-05281,ProteinReference,
GC-ProteinReference-00582,GC-UniXref-05282,ProteinReference,
GC-ProteinReference-00583,GC-UniXref-05283,ProteinReference,
GC-ProteinReference-00584,GC-UniXref-05284,ProteinReference,
GC-ProteinReference-00585,GC-UniXref-05285,ProteinReference,
GC-ProteinReference-00586,GC-UniXref-05286,ProteinReference,
GC-ProteinReference-00587,GC-UniXref-05287,ProteinReference,
GC-ProteinReference-00588,GC-UniXref-05288,ProteinReference,
GC-ProteinReference-00589,GC-UniXref-05289,ProteinReference,
GC-ProteinReference-00590,GC-UniXref-05290,ProteinReference,
GC-ProteinReference-00591,GC-UniXref-05291,ProteinReference,
GC-ProteinReference-00592,GC-UniXref-05292,ProteinReference,
GC-ProteinReference-00593,GC-UniXref-05293,ProteinReference,
GC-ProteinReference-00594,GC-UniXref-05294,ProteinReference,
GC-ProteinReference-00595,GC-UniXref-05295,ProteinReference,
GC-ProteinReference-00596,GC-UniXref-05296,ProteinReference,
GC-ProteinReference-00597,GC-UniXref-05297,ProteinReference,
GC-ProteinReference-00598,GC-UniXref-05298,ProteinReference,
GC-ProteinReference-00599,GC-UniXref-05299,ProteinReference,
GC-ProteinReference-00600,GC-UniXref-05300,ProteinReference,
GC-ProteinReference-00601,GC-UniXref-05301,ProteinReference,
GC-ProteinReference-00602,GC-UniXref-05302,ProteinReference,
GC-ProteinReference-00603,GC-UniXref-05303,ProteinReference,
GC-ProteinReference-00604,GC-UniXref-05304,ProteinReference,
GC-ProteinReference-00605,GC-UniXref-05305,ProteinReference,
GC-ProteinReference-00606,GC-UniXref-05306,ProteinReference,
GC-ProteinReference-00607,GC-UniXref-05307,ProteinReference,
GC-ProteinReference-00608,GC-UniXref-05308,ProteinReference,
GC-ProteinReference-00609,GC-UniXref-05309,ProteinReference,
GC-ProteinReference-00610,GC-UniXref-05310,ProteinReference,
GC-ProteinReference-00611,GC-UniXref-05311,ProteinReference,
GC-ProteinReference-00612,GC-UniXref-05312,ProteinReference,
GC-ProteinReference-00613,GC-UniXref-05313,ProteinReference,
GC-ProteinReference-00614,GC-UniXref-05314,ProteinReference,
GC-ProteinReference-00615,GC-UniXref-05315,ProteinReference,
GC-ProteinReference-00616,GC-UniXref-05316,ProteinReference,
GC-ProteinReference-00617,GC-UniXref-05317,ProteinReference,
GC-ProteinReference-00618,GC-UniXref-05318,ProteinReference,
GC-ProteinReference-00619,GC-UniXref-05319,ProteinReference,
GC-ProteinReference-00620,GC-UniXref-05320,ProteinReference,
GC-ProteinReference-00621,GC-UniXref-05321,ProteinReference,
GC-ProteinReference-00622,GC-UniXref-05322,ProteinReference,
GC-ProteinReference-00623,GC-UniXref-05323,ProteinReference,
GC-ProteinReference-00624,GC-UniXref-05324,ProteinReference,
GC-ProteinReference-00625,GC-UniXref-05325,ProteinReference,
GC-ProteinReference-00626,GC-UniXref-05326,ProteinReference,
GC-ProteinReference-00627,GC-UniXref-05327,ProteinReference,
GC-ProteinReference-00628,GC-UniXref-05328,ProteinReference,
GC-ProteinReference-00629,GC-UniXref-05329,ProteinReference,
GC-ProteinReference-00630,GC-UniXref-05330,ProteinReference,
GC-ProteinReference-00631,GC-UniXref-05331,ProteinReference,
GC-ProteinReference-00632,GC-UniXref-05332,ProteinReference,
GC-ProteinReference-00633,GC-UniXref-05333,ProteinReference,
GC-ProteinReference-00634,GC-UniXref-05334,ProteinReference,
GC-ProteinReference-00635,GC-UniXref-05335,ProteinReference,
GC-ProteinReference-00636,GC-UniXref-05336,ProteinReference,
GC-ProteinReference-00637,GC-UniXref-05337,ProteinReference,
GC-ProteinReference-00638,GC-UniXref-05338,ProteinReference,
GC-ProteinReference-00639,GC-UniXref-05339,ProteinReference,
GC-ProteinReference-00640,GC-UniXref-05340,ProteinReference,
GC-ProteinReference-00641,GC-UniXref-05341,ProteinReference,
GC-ProteinReference-00642,GC-UniXref-05342,ProteinReference,
GC-ProteinReference-00643,GC-UniXref-05343,ProteinReference,
GC-ProteinReference-00644,GC-UniXref-05344,ProteinReference,
GC-ProteinReference-00645,GC-UniXref-05345,ProteinReference,
GC-ProteinReference-00646,GC-UniXref-05346,ProteinReference,
GC-ProteinReference-00647,GC-UniXref-05347,ProteinReference,
GC-ProteinReference-00648,GC-UniXref-05348,ProteinReference,
GC-ProteinReference-00649,GC-UniXref-05349,ProteinReference,
GC-ProteinReference-00650,GC-UniXref-05350,ProteinReference,
GC-ProteinReference-00651,GC-UniXref-05351,ProteinReference,
GC-ProteinReference-00652,GC-UniXref-05352,ProteinReference,
GC-ProteinReference-00653,GC-UniXref-05353,ProteinReference,
GC-ProteinReference-00654,GC-UniXref-05354,ProteinReference,
GC-ProteinReference-00655,GC-UniXref-05355,ProteinReference,
GC-ProteinReference-00656,GC-UniXref-05356,ProteinReference,
GC-ProteinReference-00657,GC-UniXref-05357,ProteinReference,
GC-ProteinReference-00658,GC-UniXref-05358,ProteinReference,
GC-ProteinReference-00659,GC-UniXref-05359,ProteinReference,
GC-ProteinReference-00660,GC-UniXref-05360,ProteinReference,
GC-ProteinReference-00661,GC-UniXref-05361,ProteinReference,
GC-ProteinReference-00662,GC-UniXref-05362,ProteinReference,
GC-ProteinReference-00663,GC-UniXref-05363,ProteinReference,
GC-ProteinReference-00664,GC-UniXref-05364,ProteinReference,
GC-ProteinReference-00665,GC-UniXref-05365,ProteinReference,
GC-ProteinReference-00666,GC-UniXref-05366,ProteinReference,
GC-ProteinReference-00667,GC-UniXref-05367,ProteinReference,
GC-ProteinReference-00668,GC-UniXref-05368,ProteinReference,
GC-ProteinReference-00669,GC-UniXref-05369,ProteinReference,
GC-ProteinReference-00670,GC-UniXref-05370,ProteinReference,
GC-ProteinReference-00671,GC-UniXref-05371,ProteinReference,
GC-ProteinReference-00672,GC-UniXref-05372,ProteinReference,
GC-ProteinReference-00673,GC-UniXref-05373,ProteinReference,
GC-ProteinReference-00674,GC-UniXref-05374,ProteinReference,
GC-ProteinReference-00675,GC-UniXref-05375,ProteinReference,
GC-ProteinReference-00676,GC-UniXref-05376,ProteinReference,
GC-ProteinReference-00677,GC-UniXref-05377,ProteinReference,
GC-ProteinReference-00678,GC-UniXref-05378,ProteinReference,
GC-ProteinReference-00679,GC-UniXref-05379,ProteinReference,
GC-ProteinReference-00680,GC-UniXref-05380,ProteinReference,
GC-ProteinReference-00681,GC-UniXref-05381,ProteinReference,
GC-ProteinReference-00682,GC-UniXref-05382,ProteinReference,
GC-ProteinReference-00683,GC-UniXref-05383,ProteinReference,
GC-ProteinReference-00684,GC-UniXref-05384,ProteinReference,
GC-ProteinReference-00685,GC-UniXref-05385,ProteinReference,
GC-ProteinReference-00686,GC-UniXref-05386,ProteinReference,
GC-ProteinReference-00687,GC-UniXref-05387,ProteinReference,
GC-ProteinReference-00688,GC-UniXref-05388,ProteinReference,
GC-ProteinReference-00689,GC-UniXref-05389,ProteinReference,
GC-ProteinReference-00690,GC-UniXref-05390,ProteinReference,
GC-ProteinReference-00691,GC-UniXref-05391,ProteinReference,
GC-ProteinReference-00692,GC-UniXref-05392,ProteinReference,
GC-ProteinReference-00693,GC-UniXref-05393,ProteinReference,
GC-ProteinReference-00694,GC-UniXref-05394,ProteinReference,
GC-ProteinReference-00695,GC-UniXref-05395,ProteinReference,
GC-ProteinReference-00696,GC-UniXref-05396,ProteinReference,
GC-ProteinReference-00697,GC-UniXref-05397,ProteinReference,
GC-ProteinReference-00698,GC-UniXref-05398,ProteinReference,
GC-ProteinReference-00699,GC-UniXref-05399,ProteinReference,
GC-ProteinReference-00700,GC-UniXref-05400,ProteinReference,
GC-ProteinReference-00701,GC-UniXref-05401,ProteinReference,
GC-ProteinReference-00702,GC-UniXref-05402,ProteinReference,
GC-ProteinReference-00703,GC-UniXref-05403,ProteinReference,
GC-ProteinReference-00704,GC-UniXref-05404,ProteinReference,
GC-ProteinReference-00705,GC-UniXref-05405,ProteinReference,
GC-ProteinReference-00706,GC-UniXref-05406,ProteinReference,
GC-ProteinReference-00707,GC-UniXref-05407,ProteinReference,
GC-ProteinReference-00708,GC-UniXref-05408,ProteinReference,
GC-ProteinReference-00709,GC-UniXref-05409,ProteinReference,
GC-ProteinReference-00710,GC-UniXref-05410,ProteinReference,
GC-ProteinReference-00711,GC-UniXref-05411,ProteinReference,
GC-ProteinReference-00712,GC-UniXref-05412,ProteinReference,
GC-ProteinReference-00713,GC-UniXref-05413,ProteinReference,
GC-ProteinReference-00714,GC-UniXref-05414,ProteinReference,
GC-ProteinReference-00715,GC-UniXref-05415,ProteinReference,
GC-ProteinReference-00716,GC-UniXref-05416,ProteinReference,
GC-ProteinReference-00717,GC-UniXref-05417,ProteinReference,
GC-ProteinReference-00718,GC-UniXref-05418,ProteinReference,
GC-ProteinReference-00719,GC-UniXref-05419,ProteinReference,
GC-ProteinReference-00720,GC-UniXref-05420,ProteinReference,
GC-ProteinReference-00721,GC-UniXref-05421,ProteinReference,
GC-ProteinReference-00722,GC-UniXref-05422,ProteinReference,
GC-ProteinReference-00723,GC-UniXref-05423,ProteinReference,
GC-ProteinReference-00724,GC-UniXref-05424,ProteinReference,
GC-ProteinReference-00725,GC-UniXref-05425,ProteinReference,
GC-ProteinReference-00726,GC-UniXref-05426,ProteinReference,
GC-ProteinReference-00727,GC-UniXref-05427,ProteinReference,
GC-ProteinReference-00728,GC-UniXref-05428,ProteinReference,
GC-ProteinReference-00729,GC-UniXref-05429,ProteinReference,
GC-ProteinReference-00730,GC-UniXref-05430,ProteinReference,
GC-ProteinReference-00731,GC-UniXref-05431,ProteinReference,
GC-ProteinReference-00732,GC-UniXref-05432,ProteinReference,
GC-ProteinReference-00733,GC-UniXref-05433,ProteinReference,
GC-ProteinReference-00734,GC-UniXref-05434,ProteinReference,
GC-ProteinReference-00735,GC-UniXref-05435,ProteinReference,
GC-ProteinReference-00736,GC-UniXref-05436,ProteinReference,
GC-ProteinReference-00737,GC-UniXref-05437,ProteinReference,
GC-ProteinReference-00738,GC-UniXref-05438,ProteinReference,
GC-ProteinReference-00739,GC-UniXref-05439,ProteinReference,
GC-ProteinReference-00740,GC-UniXref-05440,ProteinReference,
GC-ProteinReference-00741,GC-UniXref-05441,ProteinReference,
GC-ProteinReference-00742,GC-UniXref-05442,ProteinReference,
GC-ProteinReference-00743,GC-UniXref-05443,ProteinReference,
GC-ProteinReference-00744,GC-UniXref-05444,ProteinReference,
GC-ProteinReference-00745,GC-UniXref-05445,ProteinReference,
GC-ProteinReference-00746,GC-UniXref-05446,ProteinReference,
GC-ProteinReference-00747,GC-UniXref-05447,ProteinReference,
GC-ProteinReference-00748,GC-UniXref-05448,ProteinReference,
GC-ProteinReference-00749,GC-UniXref-05449,ProteinReference,
GC-ProteinReference-00750,GC-UniXref-05450,ProteinReference,
GC-ProteinReference-00751,GC-UniXref-05451,ProteinReference,
GC-ProteinReference-00752,GC-UniXref-05452,ProteinReference,
GC-ProteinReference-00753,GC-UniXref-05453,ProteinReference,
GC-ProteinReference-00754,GC-UniXref-05454,ProteinReference,
GC-ProteinReference-00755,GC-UniXref-05455,ProteinReference,
GC-ProteinReference-00756,GC-UniXref-05456,ProteinReference,
GC-ProteinReference-00757,GC-UniXref-05457,ProteinReference,
GC-ProteinReference-00758,GC-UniXref-05458,ProteinReference,
GC-ProteinReference-00759,GC-UniXref-05459,ProteinReference,
GC-ProteinReference-00760,GC-UniXref-05460,ProteinReference,
GC-ProteinReference-00761,GC-UniXref-05461,ProteinReference,
GC-ProteinReference-00762,GC-UniXref-05462,ProteinReference,
GC-ProteinReference-00763,GC-UniXref-05463,ProteinReference,
GC-ProteinReference-00764,GC-UniXref-05464,ProteinReference,
GC-ProteinReference-00765,GC-UniXref-05465,ProteinReference,
GC-ProteinReference-00766,GC-UniXref-05466,ProteinReference,
GC-ProteinReference-00767,GC-UniXref-05467,ProteinReference,
GC-ProteinReference-00768,GC-UniXref-05468,ProteinReference,
GC-ProteinReference-00769,GC-UniXref-05469,ProteinReference,
GC-ProteinReference-00770,GC-UniXref-05470,ProteinReference,
GC-ProteinReference-00771,GC-UniXref-05471,ProteinReference,
GC-ProteinReference-00772,GC-UniXref-05472,ProteinReference,
GC-ProteinReference-00773,GC-UniXref-05473,ProteinReference,
GC-ProteinReference-00774,GC-UniXref-05474,ProteinReference,
GC-ProteinReference-00775,GC-UniXref-05475,ProteinReference,
GC-ProteinReference-00776,GC-UniXref-05476,ProteinReference,
GC-ProteinReference-00777,GC-UniXref-05477,ProteinReference,
GC-ProteinReference-00778,GC-UniXref-05478,ProteinReference,
GC-ProteinReference-00779,GC-UniXref-05479,ProteinReference,
GC-ProteinReference-00780,GC-UniXref-05480,ProteinReference,
GC-ProteinReference-00781,GC-UniXref-05481,ProteinReference,
GC-ProteinReference-00782,GC-UniXref-05482,ProteinReference,
GC-ProteinReference-00783,GC-UniXref-05483,ProteinReference,
GC-ProteinReference-00784,GC-UniXref-05484,ProteinReference,
GC-ProteinReference-00785,GC-UniXref-05485,ProteinReference,
GC-ProteinReference-00786,GC-UniXref-05486,ProteinReference,
GC-ProteinReference-00787,GC-UniXref-05487,ProteinReference,
GC-ProteinReference-00788,GC-UniXref-05488,ProteinReference,
GC-ProteinReference-00789,GC-UniXref-05489,ProteinReference,
GC-ProteinReference-00790,GC-UniXref-05490,ProteinReference,
GC-ProteinReference-00791,GC-UniXref-05491,ProteinReference,
GC-ProteinReference-00792,GC-UniXref-05492,ProteinReference,
GC-ProteinReference-00793,GC-UniXref-05493,ProteinReference,
GC-ProteinReference-00794,GC-UniXref-05494,ProteinReference,
GC-ProteinReference-00795,GC-UniXref-05495,ProteinReference,
GC-ProteinReference-00796,GC-UniXref-05496,ProteinReference,
GC-ProteinReference-00797,GC-UniXref-05497,ProteinReference,
GC-ProteinReference-00798,GC-UniXref-05498,ProteinReference,
GC-ProteinReference-00799,GC-UniXref-05499,ProteinReference,
GC-ProteinReference-00800,GC-UniXref-05500,ProteinReference,
GC-ProteinReference-00801,GC-UniXref-05501,ProteinReference,
GC-ProteinReference-00802,GC-UniXref-05502,ProteinReference,
GC-ProteinReference-00803,GC-UniXref-05503,ProteinReference,
GC-ProteinReference-00804,GC-UniXref-05504,ProteinReference,
GC-ProteinReference-00805,GC-UniXref-05505,ProteinReference,
GC-ProteinReference-00806,GC-UniXref-05506,ProteinReference,
GC-ProteinReference-00807,GC-UniXref-05507,ProteinReference,
GC-ProteinReference-00808,GC-UniXref-05508,ProteinReference,
GC-ProteinReference-00809,GC-UniXref-05509,ProteinReference,
GC-ProteinReference-00810,GC-UniXref-05510,ProteinReference,
GC-ProteinReference-00811,GC-UniXref-05511,ProteinReference,
GC-ProteinReference-00812,GC-UniXref-05512,ProteinReference,
GC-ProteinReference-00813,GC-UniXref-05513,ProteinReference,
GC-ProteinReference-00814,GC-UniXref-05514,ProteinReference,
GC-ProteinReference-00815,GC-UniXref-05515,ProteinReference,
GC-ProteinReference-00816,GC-UniXref-05516,ProteinReference,
GC-ProteinReference-00817,GC-UniXref-05517,ProteinReference,
GC-ProteinReference-00818,GC-UniXref-05518,ProteinReference,
GC-ProteinReference-00819,GC-UniXref-05519,ProteinReference,
GC-ProteinReference-00820,GC-UniXref-05520,ProteinReference,
GC-ProteinReference-00821,GC-UniXref-05521,ProteinReference,
GC-ProteinReference-00822,GC-UniXref-05522,ProteinReference,
GC-ProteinReference-00823,GC-UniXref-05523,ProteinReference,
GC-ProteinReference-00824,GC-UniXref-05524,ProteinReference,
GC-ProteinReference-00825,GC-UniXref-05525,ProteinReference,
GC-ProteinReference-00826,GC-UniXref-05526,ProteinReference,
GC-ProteinReference-00827,GC-UniXref-05527,ProteinReference,
GC-ProteinReference-00828,GC-UniXref-05528,ProteinReference,
GC-ProteinReference-00829,GC-UniXref-05529,ProteinReference,
GC-ProteinReference-00830,GC-UniXref-05530,ProteinReference,
GC-ProteinReference-00831,GC-UniXref-05531,ProteinReference,
GC-ProteinReference-00832,GC-UniXref-05532,ProteinReference,
GC-ProteinReference-00833,GC-UniXref-05533,ProteinReference,
GC-ProteinReference-00834,GC-UniXref-05534,ProteinReference,
GC-ProteinReference-00835,GC-UniXref-05535,ProteinReference,
GC-ProteinReference-00836,GC-UniXref-05536,ProteinReference,
GC-ProteinReference-00837,GC-UniXref-05537,ProteinReference,
GC-ProteinReference-00838,GC-UniXref-05538,ProteinReference,
GC-ProteinReference-00839,GC-UniXref-05539,ProteinReference,
GC-ProteinReference-00840,GC-UniXref-05540,ProteinReference,
GC-ProteinReference-00841,GC-UniXref-05541,ProteinReference,
GC-ProteinReference-00842,GC-UniXref-05542,ProteinReference,
GC-ProteinReference-00843,GC-UniXref-05543,ProteinReference,
GC-ProteinReference-00844,GC-UniXref-05544,ProteinReference,
GC-ProteinReference-00845,GC-UniXref-05545,ProteinReference,
GC-ProteinReference-00846,GC-UniXref-05546,ProteinReference,
GC-ProteinReference-00847,GC-UniXref-05547,ProteinReference,
GC-ProteinReference-00848,GC-UniXref-05548,ProteinReference,
GC-ProteinReference-00849,GC-UniXref-05549,ProteinReference,
GC-ProteinReference-00850,GC-UniXref-05550,ProteinReference,
GC-ProteinReference-00851,GC-UniXref-05551,ProteinReference,
GC-ProteinReference-00852,GC-UniXref-05552,ProteinReference,
GC-ProteinReference-00853,GC-UniXref-05553,ProteinReference,
GC-ProteinReference-00854,GC-UniXref-05554,ProteinReference,
GC-ProteinReference-00855,GC-UniXref-05555,ProteinReference,
GC-ProteinReference-00856,GC-UniXref-05556,ProteinReference,
GC-ProteinReference-00857,GC-UniXref-05557,ProteinReference,
GC-ProteinReference-00858,GC-UniXref-05558,ProteinReference,
GC-ProteinReference-00859,GC-UniXref-05559,ProteinReference,
GC-ProteinReference-00860,GC-UniXref-05560,ProteinReference,
GC-ProteinReference-00861,GC-UniXref-05561,ProteinReference,
GC-ProteinReference-00862,GC-UniXref-05562,ProteinReference,
GC-ProteinReference-00863,GC-UniXref-05563,ProteinReference,
GC-ProteinReference-00864,GC-UniXref-05564,ProteinReference,
GC-ProteinReference-00865,GC-UniXref-05565,ProteinReference,
GC-ProteinReference-00866,GC-UniXref-05566,ProteinReference,
GC-ProteinReference-00867,GC-UniXref-05567,ProteinReference,
GC-ProteinReference-00868,GC-UniXref-05568,ProteinReference,
GC-ProteinReference-00869,GC-UniXref-05569,ProteinReference,
GC-ProteinReference-00870,GC-UniXref-05570,ProteinReference,
GC-ProteinReference-00871,GC-UniXref-05571,ProteinReference,
GC-ProteinReference-00872,GC-UniXref-05572,ProteinReference,
GC-ProteinReference-00873,GC-UniXref-05573,ProteinReference,
GC-ProteinReference-00874,GC-UniXref-05574,ProteinReference,
GC-ProteinReference-00875,GC-UniXref-05575,ProteinReference,
GC-ProteinReference-00876,GC-UniXref-05576,ProteinReference,
GC-ProteinReference-00877,GC-UniXref-05577,ProteinReference,
GC-ProteinReference-00878,GC-UniXref-05578,ProteinReference,
GC-ProteinReference-00879,GC-UniXref-05579,ProteinReference,
GC-ProteinReference-00880,GC-UniXref-05580,ProteinReference,
GC-ProteinReference-00881,GC-UniXref-05581,ProteinReference,
GC-ProteinReference-00882,GC-UniXref-05582,ProteinReference,
GC-ProteinReference-00883,GC-UniXref-05583,ProteinReference,
GC-ProteinReference-00884,GC-UniXref-05584,ProteinReference,
GC-ProteinReference-00885,GC-UniXref-05585,ProteinReference,
GC-ProteinReference-00886,GC-UniXref-05586,ProteinReference,
GC-ProteinReference-00887,GC-UniXref-05587,ProteinReference,
GC-ProteinReference-00888,GC-UniXref-05588,ProteinReference,
GC-ProteinReference-00889,GC-UniXref-05589,ProteinReference,
GC-ProteinReference-00890,GC-UniXref-05590,ProteinReference,
GC-ProteinReference-00891,GC-UniXref-05591,ProteinReference,
GC-ProteinReference-00892,GC-UniXref-05592,ProteinReference,
GC-ProteinReference-00893,GC-UniXref-05593,ProteinReference,
GC-ProteinReference-00894,GC-UniXref-05594,ProteinReference,
GC-ProteinReference-00895,GC-UniXref-05595,ProteinReference,
GC-ProteinReference-00896,GC-UniXref-05596,ProteinReference,
GC-ProteinReference-00897,GC-UniXref-05597,ProteinReference,
GC-ProteinReference-00898,GC-UniXref-05598,ProteinReference,
GC-ProteinReference-00899,GC-UniXref-05599,ProteinReference,
GC-ProteinReference-00900,GC-UniXref-05600,ProteinReference,
GC-ProteinReference-00901,GC-UniXref-05601,ProteinReference,
GC-ProteinReference-00902,GC-UniXref-05602,ProteinReference,
GC-ProteinReference-00903,GC-UniXref-05603,ProteinReference,
GC-ProteinReference-00904,GC-UniXref-05604,ProteinReference,
GC-ProteinReference-00905,GC-UniXref-05605,ProteinReference,
GC-ProteinReference-00906,GC-UniXref-05606,ProteinReference,
GC-ProteinReference-00907,GC-UniXref-05607,ProteinReference,
GC-ProteinReference-00908,GC-UniXref-05608,ProteinReference,
GC-ProteinReference-00909,GC-UniXref-05609,ProteinReference,
GC-ProteinReference-00910,GC-UniXref-05610,ProteinReference,
GC-ProteinReference-00911,GC-UniXref-05611,ProteinReference,
GC-ProteinReference-00912,GC-UniXref-05612,ProteinReference,
GC-ProteinReference-00913,GC-UniXref-05613,ProteinReference,
GC-ProteinReference-00914,GC-UniXref-05614,ProteinReference,
GC-ProteinReference-00915,GC-UniXref-05615,ProteinReference,
GC-ProteinReference-00916,GC-UniXref-05616,ProteinReference,
GC-ProteinReference-00917,GC-UniXref-05617,ProteinReference,
GC-ProteinReference-00918,GC-UniXref-05618,ProteinReference,
GC-ProteinReference-00919,GC-UniXref-05619,ProteinReference,
GC-ProteinReference-00920,GC-UniXref-05620,ProteinReference,
GC-ProteinReference-00921,GC-UniXref-05621,ProteinReference,
GC-ProteinReference-00922,GC-UniXref-05622,ProteinReference,
GC-ProteinReference-00923,GC-UniXref-05623,ProteinReference,
GC-ProteinReference-00924,GC-UniXref-05624,ProteinReference,
GC-ProteinReference-00925,GC-UniXref-05625,ProteinReference,
GC-ProteinReference-00926,GC-UniXref-05626,ProteinReference,
GC-ProteinReference-00927,GC-UniXref-05627,ProteinReference,
GC-ProteinReference-00928,GC-UniXref-05628,ProteinReference,
GC-ProteinReference-00929,GC-UniXref-05629,ProteinReference,
GC-ProteinReference-00930,GC-UniXref-05630,ProteinReference,
GC-ProteinReference-00931,GC-UniXref-05631,ProteinReference,
GC-ProteinReference-00932,GC-UniXref-05632,ProteinReference,
GC-ProteinReference-00933,GC-UniXref-05633,ProteinReference,
GC-ProteinReference-00934,GC-UniXref-05634,ProteinReference,
GC-ProteinReference-00935,GC-UniXref-05635,ProteinReference,
GC-ProteinReference-00936,GC-UniXref-05636,ProteinReference,
GC-ProteinReference-00937,GC-UniXref-05637,ProteinReference,
GC-ProteinReference-00938,GC-UniXref-05638,ProteinReference,
GC-ProteinReference-00939,GC-UniXref-05639,ProteinReference,
GC-ProteinReference-00940,GC-UniXref-05640,ProteinReference,
GC-ProteinReference-00941,GC-UniXref-05641,ProteinReference,
GC-ProteinReference-00942,GC-UniXref-05642,ProteinReference,
GC-ProteinReference-00943,GC-UniXref-05643,ProteinReference,
GC-ProteinReference-00944,GC-UniXref-05644,ProteinReference,
GC-ProteinReference-00945,GC-UniXref-05645,ProteinReference,
GC-ProteinReference-00946,GC-UniXref-05646,ProteinReference,
GC-ProteinReference-00947,GC-UniXref-05647,ProteinReference,
GC-ProteinReference-00948,GC-UniXref-05648,ProteinReference,
GC-ProteinReference-00949,GC-UniXref-05649,ProteinReference,
GC-ProteinReference-00950,GC-UniXref-05650,ProteinReference,
GC-ProteinReference-00951,GC-UniXref-05651,ProteinReference,
GC-ProteinReference-00952,GC-UniXref-05652,ProteinReference,
GC-ProteinReference-00953,GC-UniXref-05653,ProteinReference,
GC-ProteinReference-00954,GC-UniXref-05654,ProteinReference,
GC-ProteinReference-00955,GC-UniXref-05655,ProteinReference,
GC-ProteinReference-00956,GC-UniXref-05656,ProteinReference,
GC-ProteinReference-00957,GC-UniXref-05657,ProteinReference,
GC-ProteinReference-00958,GC-UniXref-05658,ProteinReference,
GC-ProteinReference-00959,GC-UniXref-05659,ProteinReference,
GC-ProteinReference-00960,GC-UniXref-05660,ProteinReference,
GC-ProteinReference-00961,GC-UniXref-05661,ProteinReference,
GC-ProteinReference-00962,GC-UniXref-05662,ProteinReference,
GC-ProteinReference-00963,GC-UniXref-05663,ProteinReference,
GC-ProteinReference-00964,GC-UniXref-05664,ProteinReference,
GC-ProteinReference-00965,GC-UniXref-05665,ProteinReference,
GC-ProteinReference-00966,GC-UniXref-05666,ProteinReference,
GC-ProteinReference-00967,GC-UniXref-05667,ProteinReference,
GC-ProteinReference-00968,GC-UniXref-05668,ProteinReference,
GC-ProteinReference-00969,GC-UniXref-05669,ProteinReference,
GC-ProteinReference-00970,GC-UniXref-05670,ProteinReference,
GC-ProteinReference-00971,GC-UniXref-05671,ProteinReference,
GC-ProteinReference-00972,GC-UniXref-05672,ProteinReference,
GC-ProteinReference-00973,GC-UniXref-05673,ProteinReference,
GC-ProteinReference-00974,GC-UniXref-05674,ProteinReference,
GC-ProteinReference-00975,GC-UniXref-05675,ProteinReference,
GC-ProteinReference-00976,GC-UniXref-05676,ProteinReference,
GC-ProteinReference-00977,GC-UniXref-05677,ProteinReference,
GC-ProteinReference-00978,GC-UniXref-05678,ProteinReference,
GC-ProteinReference-00979,GC-UniXref-05679,ProteinReference,
GC-ProteinReference-00980,GC-UniXref-05680,ProteinReference,
GC-ProteinReference-00981,GC-UniXref-05681,ProteinReference,
GC-ProteinReference-00982,GC-UniXref-05682,ProteinReference,
GC-ProteinReference-00983,GC-UniXref-05683,ProteinReference,
GC-ProteinReference-00984,GC-UniXref-05684,ProteinReference,
GC-ProteinReference-00985,GC-UniXref-05685,ProteinReference,
GC-ProteinReference-00986,GC-UniXref-05686,ProteinReference,
GC-ProteinReference-00987,GC-UniXref-05687,ProteinReference,
GC-ProteinReference-00988,GC-UniXref-05688,ProteinReference,
GC-ProteinReference-00989,GC-UniXref-05689,ProteinReference,
GC-ProteinReference-00990,GC-UniXref-05690,ProteinReference,
GC-ProteinReference-00991,GC-UniXref-05691,ProteinReference,
GC-ProteinReference-00992,GC-UniXref-05692,ProteinReference,
GC-ProteinReference-00993,GC-UniXref-05693,ProteinReference,
GC-ProteinReference-00994,GC-UniXref-05694,ProteinReference,
GC-ProteinReference-00995,GC-UniXref-05695,ProteinReference,
GC-ProteinReference-00996,GC-UniXref-05696,ProteinReference,
GC-ProteinReference-00997,GC-UniXref-05697,ProteinReference,
GC-ProteinReference-00998,GC-UniXref-05698,ProteinReference,
GC-ProteinReference-00999,GC-UniXref-05699,ProteinReference,
GC-ProteinReference-01000,GC-UniXref-05700,ProteinReference,
GC-ProteinReference-01001,GC-UniXref-05701,ProteinReference,
GC-ProteinReference-01002,GC-UniXref-05702,ProteinReference,
GC-ProteinReference-01003,GC-UniXref-05703,ProteinReference,
GC-ProteinReference-01004,GC-UniXref-05704,ProteinReference,
GC-ProteinReference-01005,GC-UniXref-05705,ProteinReference,
GC-ProteinReference-01006,GC-UniXref-05706,ProteinReference,
GC-ProteinReference-01007,GC-UniXref-05707,ProteinReference,
GC-ProteinReference-01008,GC-UniXref-05708,ProteinReference,
GC-ProteinReference-01009,GC-UniXref-05709,ProteinReference,
GC-ProteinReference-01010,GC-UniXref-05710,ProteinReference,
GC-ProteinReference-01011,GC-UniXref-05711,ProteinReference,
GC-ProteinReference-01012,GC-UniXref-05712,ProteinReference,
GC-ProteinReference-01013,GC-UniXref-05713,ProteinReference,
GC-ProteinReference-01014,GC-UniXref-05714,ProteinReference,
GC-ProteinReference-01015,GC-UniXref-05715,ProteinReference,
GC-ProteinReference-01016,GC-UniXref-05716,ProteinReference,
GC-ProteinReference-01017,GC-UniXref-05717,ProteinReference,
GC-ProteinReference-01018,GC-UniXref-05718,ProteinReference,
GC-ProteinReference-01019,GC-UniXref-05719,ProteinReference,
GC-ProteinReference-01020,GC-UniXref-05720,ProteinReference,